Place,Sex,Name,CyrillicName,BodyweightKg,Bench1Kg,Bench2Kg,Bench3Kg,Best3BenchKg,Bench4Kg,Deadlift1Kg,Deadlift2Kg,Deadlift3Kg,Best3DeadliftKg,Deadlift4Kg,TotalKg,WeightClassKg,Event,Equipment,Tested,Division,Age,BirthDate
1,M,Ivan Tereshchenko,Иван Терещенко,53.2,62.5,67.5,70,70,,120,-130,-130,120,,190,56,BD,Raw,No,Pro Teen 14-16,16,2001-12-07
1,M,Anton Pisarev,Антон Писарев,61.6,62.5,-67.5,67.5,67.5,,120,-125,125,125,,192.5,67.5,BD,Raw,No,Pro Teen 17-19,17,2001-06-09
DQ,M,Dmitriy Pekin,Дмитрий Пекин,79.5,90,95,-97.5,95,,-150,-150,,,,,82.5,BD,Raw,No,Pro Teen 14-16,16,2001-08-05
1,M,Ali Dovletov,Али Довлетов,79.5,115,125,-127.5,125,,175,190,-195,190,,315,82.5,BD,Raw,No,Pro Juniors,20,1997-11-30
1,M,Georgiy Mashurov,Георгий Машуров,87.4,120,130,-140,130,,215,230,-240,230,,360,90,BD,Raw,No,Pro Open,35,1982-11-05
1,M,Ruslan Shabaev,Руслан Шабаев,93.2,135,140,145,145,,210,225,235,235,,380,100,BD,Raw,No,Pro Open,28,1990-06-03
1,M,Konstantin Samarin,Константин Самарин,118,160,170,180,180,,240,-260,-260,240,,420,125,BD,Raw,No,Pro Open,36,1981-10-20
1,F,Elena Naumova,Елена Наумова,54.9,60,65,-67.5,65,,,,,,,65,56,B,Raw,No,Pro Open,29,1989-05-17
1,F,Valeriya Ormeli,Валерия Ормели,53.1,35,-42.5,-42.5,35,,,,,,,35,56,B,Raw,No,Pro Masters 40-49,41,1977-06-17
1,M,Radmir Uleev,Радмир Улеев,66.4,115,122.5,130,130,,,,,,,130,67.5,B,Raw,No,Pro Open,22,1996-06-03
1,M,Aleksandr Ormeli,Александр Ормели,71.7,-70,75,82.5,82.5,,,,,,,82.5,75,B,Raw,No,Pro Teen 17-19,19,1998-12-24
1,M,Petr Sagitov,Петр Сагитов,76.1,75,80,85,85,,,,,,,85,82.5,B,Raw,No,Pro Teen 14-16,15,2003-04-04
1,M,Vyacheslav Orekhov,Вячеслав Орехов,76.2,150,160,165,165,,,,,,,165,82.5,B,Raw,No,Pro Open,33,1985-06-11
2,M,Aleksey Nebykov,Алексей Небыков,81.8,150,160,-165,160,,,,,,,160,82.5,B,Raw,No,Pro Open,52,1966-03-19
3,M,Vladislav Zinkin,Владислав Зинкин,80.3,-140,140,-145,140,,,,,,,140,82.5,B,Raw,No,Pro Open,42,1976-04-19
4,M,Aleksandr Piskunov,Александр Пискунов,81.2,120,130,-135,130,,,,,,,130,82.5,B,Raw,No,Pro Open,35,1982-09-23
1,M,Vladislav Zinkin,Владислав Зинкин,80.3,-140,140,-145,140,,,,,,,140,82.5,B,Raw,No,Pro Masters 40-49,42,1976-04-19
1,M,Sergey Gusev,Сергей Гусев,84.4,-150,160,-170,160,,,,,,,160,90,B,Raw,No,Pro Open,43,1974-11-01
2,M,David Semikletov,Давид Семиклетов,88.2,130,140,145,145,,,,,,,145,90,B,Raw,No,Pro Open,24,1994-01-19
3,M,Pyotr Bogov,Пётр Богов,89.8,130,-140,-142.5,130,,,,,,,130,90,B,Raw,No,Pro Open,38,1980-06-15
1,M,Stanislav Drozdov,Станислав Дроздов,88.6,120,130,132.5,132.5,,,,,,,132.5,90,B,Raw,No,Pro Masters 40-49,41,1976-10-24
1,M,Maksim Moldovanov,Максим Молдованов,90.5,145,152.5,157.5,157.5,,,,,,,157.5,100,B,Raw,No,Pro Teen 17-19,19,1998-10-22
1,M,Dmitriy Andreev,Дмитрий Андреев,91,160,170,-175,170,,,,,,,170,100,B,Raw,No,Pro Open,25,1993-02-16
2,M,Dmitriy Naumov,Дмитрий Наумов,97,160,170,-180,170,,,,,,,170,100,B,Raw,No,Pro Open,30,1988-04-03
3,M,Vladimir Savranov,Владимир Савранов,90.2,150,160,165,165,,,,,,,165,100,B,Raw,No,Pro Open,41,1977-07-09
4,M,Rafail Albaev,Рафаиль Албаев,98.7,145,155,165,165,,,,,,,165,100,B,Raw,No,Pro Open,38,1980-03-23
5,M,Viktor Elin,Виктор Елин,97.1,140,150,-160,150,,,,,,,150,100,B,Raw,No,Pro Open,38,1979-08-22
1,M,Vladimir Savranov,Владимир Савранов,90.2,150,160,165,165,,,,,,,165,100,B,Raw,No,Pro Masters 40-49,41,1977-07-09
1,M,Denis Lysenko,Денис Лысенко,101.2,150,155,-160,155,,,,,,,155,110,B,Raw,No,Pro Open,21,1996-08-15
1,M,Nikita Lobachev,Никита Лобачев,116,130,140,150,150,,,,,,,150,125,B,Raw,No,Pro Open,25,1993-05-04
1,M,Mikhail Fedorin,Михаил Федорин,70.4,150,-160,160,160,,,,,,,160,75,B,Multi-ply,No,Pro Open,26,1992-07-13
1,M,Aleksey Nebykov,Алексей Небыков,81.8,-190,210,230,230,,,,,,,230,82.5,B,Multi-ply,No,Pro Open,52,1966-03-19
1,M,Ivan Semenikhin,Иван Семенихин,86.55,250,270,-290,270,,,,,,,270,90,B,Multi-ply,No,Pro Open,27,1991-03-30
1,M,Viktor Elin,Виктор Елин,97.1,180,200,-210,200,,,,,,,200,100,B,Multi-ply,No,Pro Open,38,1979-08-22
1,M,Aleksandr Zhukov,Александр Жуков,101.15,260,280,-302.5,280,,,,,,,280,110,B,Multi-ply,No,Pro Open,35,1983-03-13
1,M,Ivan Krutov,Иван Крутов,62.1,,,,,,155,165,170,170,,170,67.5,D,Raw,No,Pro Teen 14-16,15,2002-11-21
1,M,Mikhail Fedorin,Михаил Федорин,70.4,,,,,,162.5,172.5,182.5,182.5,,182.5,75,D,Raw,No,Pro Open,26,1992-07-13
2,M,Oleg Shishkov,Олег Шишков,74.5,,,,,,130,140,160,160,,160,75,D,Raw,No,Pro Open,53,1965-05-14
1,M,Oleg Shishkov,Олег Шишков,74.5,,,,,,130,140,160,160,,160,75,D,Raw,No,Pro Masters 50-59,53,1965-05-14
1,M,Ali Dovletov,Али Довлетов,79.5,,,,,,175,190,-195,190,,190,82.5,D,Raw,No,Pro Juniors,20,1997-11-30
1,M,Vladislav Zinkin,Владислав Зинкин,80.3,,,,,,200,-210,-210,200,,200,82.5,D,Raw,No,Pro Open,42,1976-04-19
2,M,Sergey Bezrukov,Сергей Безруков,81.7,,,,,,170,-197.5,-197.5,170,,170,82.5,D,Raw,No,Pro Open,35,1982-08-02
1,M,Georgiy Mashurov,Георгий Машуров,87.4,,,,,,215,230,-240,230,,230,90,D,Raw,No,Pro Open,35,1982-11-05
1,M,Vladimir Epifanov,Владимир Епифанов,88.3,,,,,,185,200,205,205,,205,90,D,Raw,No,Pro Masters 40-49,47,1970-09-27
1,M,Ruslan Shabaev,Руслан Шабаев,93.2,,,,,,210,225,235,235,,235,100,D,Raw,No,Pro Open,28,1990-06-03
