Division,WeightClassKg,Place,Name,Team,BodyweightKg,Best3SquatKg,Best3BenchKg,Best3DeadliftKg,TotalKg,Equipment,Event,Sex
Boys,55.79,1,Tony Romero,Troy,51.89,142.88,77.11,149.69,369.68,Single-ply,SBD,M
Boys,51.71,2,Jeff Smith,Valley Mills,51.35,149.69,83.91,133.81,367.41,Single-ply,SBD,M
Boys,55.79,3,Gabe Senegal,Little River Academy,51.8,113.4,79.38,161.03,353.8,Single-ply,SBD,M
Boys,51.71,4,Isaiah Lombrana,Brady,51.07,145.15,72.57,131.54,349.27,Single-ply,SBD,M
Boys,55.79,5,Dane Rodriguez,Chilton,51.89,131.54,63.5,122.47,317.51,Single-ply,SBD,M
Boys,51.71,6,Chris Fehlman,McGregor,46.9,113.4,61.23,136.08,310.71,Single-ply,SBD,M
Boys,51.71,7,Jonathan Lira,Meridian,48.81,113.4,63.5,133.81,310.71,Single-ply,SBD,M
Boys,51.71,8,Blake Dulaney,Bangs,51.53,117.93,63.5,120.2,301.64,Single-ply,SBD,M
Boys,51.71,9,Sean Worlow,Rio Vista,51.71,108.86,65.77,127.01,301.64,Single-ply,SBD,M
Boys,51.71,10,Jesse Berry,Crawford,47.63,113.4,56.7,124.74,294.84,Single-ply,SBD,M
Boys,51.71,11,Alvin Cole,Brady,51.44,104.33,52.16,129.27,285.76,Single-ply,SBD,M
Boys,55.79,1,Ryan Linkous,Axtell,55.61,192.78,90.72,181.44,464.93,Single-ply,SBD,M
Boys,55.79,2,Kenneth Mitchell,Bangs,55.43,176.9,90.72,167.83,435.45,Single-ply,SBD,M
Boys,55.79,3,Caleb Coates,Lago Vista,55.79,161.03,95.25,174.63,430.91,Single-ply,SBD,M
Boys,59.87,4,Edgar Macias,Lingleville,55.88,145.15,86.18,185.97,417.3,Single-ply,SBD,M
Boys,55.79,5,Josh Homesley,Rio Vista,54.7,149.69,81.65,170.1,401.43,Single-ply,SBD,M
Boys,55.79,6,Marcus Mendoza,Salado,55.43,149.69,88.45,142.88,381.02,Single-ply,SBD,M
Boys,55.79,7,Jorge Regino,Johnson City,52.53,138.35,79.38,145.15,362.87,Single-ply,SBD,M
Boys,59.87,8,Taylor Veselka,Waco Reicher Catholic,55.97,117.93,63.5,151.95,333.39,Single-ply,SBD,M
Boys,59.87,9,Dakota Thomas,Clifton,55.97,122.47,68.04,142.88,333.39,Single-ply,SBD,M
Boys,59.87,1,Pedro Lozano,Bosqueville,59.6,213.19,113.4,195.04,521.63,Single-ply,SBD,M
Boys,59.87,2,Nathan Castro,Brady,58.15,174.63,99.79,195.04,469.47,Single-ply,SBD,M
Boys,59.87,3,Daniel Beltran,Jarrell,59.87,163.29,106.59,181.44,451.32,Single-ply,SBD,M
Boys,67.13,4,Cruz Dominguez,Chilton,60.1,161.03,104.33,181.44,446.79,Single-ply,SBD,M
Boys,59.87,5,Rey Castro,Waco Reicher Catholic,57.33,161.03,86.18,174.63,421.84,Single-ply,SBD,M
Boys,59.87,6,Manuel Ramirez,Florence,59.15,163.29,88.45,165.56,417.3,Single-ply,SBD,M
Boys,59.87,7,Michael Kohl,Rosebud-Lott,57.97,142.88,86.18,167.83,396.89,Single-ply,SBD,M
Boys,59.87,8,Carlos Ortiz,Salado,58.06,149.69,81.65,154.22,385.55,Single-ply,SBD,M
Boys,59.87,9,Tyler Kamiski,Riesel,59.33,145.15,90.72,147.42,383.29,Single-ply,SBD,M
Boys,67.13,DQ,Jesus Jaimes,Riesel,60.06,,,,,Single-ply,SBD,M
Boys,67.13,1,Osiel Avilez,Jarrell,65.23,231.33,127.01,208.65,566.99,Single-ply,SBD,M
Boys,67.13,2,Allen Almgren,Bangs,66.5,254.01,102.06,208.65,564.72,Single-ply,SBD,M
Boys,67.13,3,Levi Bamber,Dublin,64.32,197.31,133.81,213.19,544.31,Single-ply,SBD,M
Boys,74.84,4,Eric Wallace,Riesel,67.36,204.12,111.13,215.46,530.7,Single-ply,SBD,M
Boys,74.84,5,Matthew Maley,Crawford,67.36,219.99,108.86,195.04,523.9,Single-ply,SBD,M
Boys,67.13,6,Daniel Amyett,Brady,61.87,222.26,99.79,199.58,521.63,Single-ply,SBD,M
Boys,67.13,7,Alex Cervantes,San Saba,66.5,190.51,102.06,206.38,498.95,Single-ply,SBD,M
Boys,67.13,8,Jeremy Seay,Meridian,65.86,190.51,111.13,167.83,469.47,Single-ply,SBD,M
Boys,67.13,DQ,Edgar Vergara,Meridian,66.95,,,,,Single-ply,SBD,M
Boys,67.13,DQ,Isaac Brown,Bangs,65.95,,,,,Single-ply,SBD,M
Boys,74.84,1,Trent Stiles,Riesel,73.66,244.94,181.44,222.26,648.64,Single-ply,SBD,M
Boys,74.84,2,Dustin Dorris,Crawford,70.13,249.48,120.2,208.65,578.33,Single-ply,SBD,M
Boys,74.84,3,Dillon Sterling,Florence,72.67,213.19,127.01,231.33,571.53,Single-ply,SBD,M
Boys,74.84,4,Casey Graham,Godley,72.85,226.8,108.86,217.72,553.38,Single-ply,SBD,M
Boys,74.84,5,Hunter Fritscher,Crawford,70.94,222.26,117.93,199.58,539.77,Single-ply,SBD,M
Boys,74.84,6,Jose Ramirez,Brady,73.57,195.04,102.06,219.99,517.1,Single-ply,SBD,M
Boys,74.84,7,Brandon Becerra,Wallis Brazos,74.39,199.58,115.67,199.58,514.83,Single-ply,SBD,M
Boys,74.84,8,Garrison Dean,Crawford,70.4,185.97,108.86,199.58,494.42,Single-ply,SBD,M
Boys,74.84,9,Carder Brooks,Hamilton,71.03,199.58,102.06,179.17,480.81,Single-ply,SBD,M
Boys,74.84,DQ,Jacob Carson,Bangs,72.39,,,,,Single-ply,SBD,M
Boys,82.1,1,Jake Long,Brady,80.47,249.48,149.69,235.87,635.03,Single-ply,SBD,M
Boys,82.1,2,Brandon Stautz,Thrall,76.29,235.87,158.76,213.19,607.81,Single-ply,SBD,M
Boys,82.1,3,Kevin Anderson,Meridian,77.02,226.8,117.93,229.06,573.79,Single-ply,SBD,M
Boys,82.1,4,Matt Thigpen,Bruceville-Eddy,79.02,215.46,138.35,219.99,573.79,Single-ply,SBD,M
Boys,82.1,5,Alex Trujillo,Hempstead,79.2,204.12,104.33,233.6,542.04,Single-ply,SBD,M
Boys,82.1,6,Isaac Jiminez,San Saba,79.92,181.44,102.06,229.06,512.56,Single-ply,SBD,M
Boys,82.1,7,Jared McNamara,Moody,81.83,190.51,108.86,190.51,489.88,Single-ply,SBD,M
Boys,82.1,8,Lee Young,Little River Academy,81.37,163.29,124.74,181.44,469.47,Single-ply,SBD,M
Boys,89.81,9,Aaron Hernandez,Troy,82.28,151.95,108.86,190.51,451.32,Single-ply,SBD,M
Boys,89.81,1,Chris Hubnik,Rogers,84.1,238.14,138.35,235.87,612.35,Single-ply,SBD,M
Boys,89.81,2,Roy Rodriguez,Clifton,88,235.87,136.08,226.8,598.74,Single-ply,SBD,M
Boys,89.81,3,Ali Cervantez,Riesel,88.18,226.8,122.47,226.8,576.06,Single-ply,SBD,M
Boys,89.81,4,Tyler Fadel,Riesel,88.18,226.8,140.61,208.65,576.06,Single-ply,SBD,M
Boys,89.81,5,John Maddigan,Rosebud-Lott,86.91,217.72,127.01,226.8,571.53,Single-ply,SBD,M
Boys,89.81,6,Brandon Bobo,Chilton,88,226.8,127.01,201.85,555.65,Single-ply,SBD,M
Boys,89.81,7,Broc Clay,Mart,83.73,217.72,113.4,204.12,535.24,Single-ply,SBD,M
Boys,89.81,8,Jose Aleman,Dublin,86.55,204.12,122.47,204.12,530.7,Single-ply,SBD,M
Boys,89.81,DQ,Layton Dworaczyk,Blanco,83.64,204.12,,,,Single-ply,SBD,M
Boys,89.81,DQ,Chris Krolczyk,Axtell,89.27,190.51,,,,Single-ply,SBD,M
Boys,89.81,DQ,Michael Sellers,Salado,85.55,204.12,,,,Single-ply,SBD,M
Boys,99.79,1,Josh Montgomery,Bosqueville,98.43,306.17,149.69,256.28,712.14,Single-ply,SBD,M
Boys,99.79,2,Andrew Taylor,Troy,95.16,217.72,158.76,244.94,621.42,Single-ply,SBD,M
Boys,99.79,3,Michael Brenek,Rogers,98.52,249.48,127.01,240.4,616.89,Single-ply,SBD,M
Boys,99.79,4,Dalton Bynum,Clifton,96.43,206.38,163.29,231.33,601.01,Single-ply,SBD,M
Boys,99.79,5,Jacob McNamara,Moody,97.7,260.82,138.35,192.78,591.94,Single-ply,SBD,M
Boys,99.79,6,Steven Stewart,Little River Academy,91.72,210.92,136.08,208.65,555.65,Single-ply,SBD,M
Boys,99.79,7,Ryan Clewis,Godley,93.44,217.72,131.54,204.12,553.38,Single-ply,SBD,M
Boys,99.79,8,Ricky Sanchez,Wallis Brazos,93.17,219.99,117.93,208.65,546.58,Single-ply,SBD,M
Boys,99.79,9,Austin Brewer,Clifton,97.34,204.12,120.2,215.46,539.77,Single-ply,SBD,M
Boys,99.79,DQ,Justin Taylor,Comanche,99.16,206.38,136.08,,,Single-ply,SBD,M
Boys,109.77,1,Garlin Gonzales,Waco Reicher Catholic,105.41,288.03,156.49,258.55,703.07,Single-ply,SBD,M
Boys,109.77,2,Brett Blackburn,McGregor,100.43,254.01,170.1,272.16,696.26,Single-ply,SBD,M
Boys,109.77,3,Jayton May,Brady,108.32,265.35,145.15,251.74,662.24,Single-ply,SBD,M
Boys,109.77,4,Tyler Moon,Little River Academy,101.6,260.82,145.15,254.01,659.98,Single-ply,SBD,M
Boys,109.77,5,Riley Hubert,Clifton,106.32,267.62,154.22,226.8,648.64,Single-ply,SBD,M
Boys,109.77,6,Alex Aleman,Dublin,108.05,249.48,149.69,249.48,648.64,Single-ply,SBD,M
Boys,109.77,7,Caleb Hayslip,Salado,108.32,229.06,147.42,258.55,635.03,Single-ply,SBD,M
Boys,109.77,8,Taylor Smith,Bangs,107.23,251.74,142.88,213.19,607.81,Single-ply,SBD,M
Boys,109.77,9,Casey Stripling,Riesel,107.77,226.8,154.22,226.8,607.81,Single-ply,SBD,M
Boys,109.77,10,Scotty Allen,Meridian,107.23,217.72,154.22,229.06,601.01,Single-ply,SBD,M
Boys,124.74,1,Will Dreyer,Clifton,116.12,269.89,181.44,256.28,707.6,Single-ply,SBD,M
Boys,124.74,2,Ethan Langdale,Riesel,117.66,276.69,170.1,256.28,703.07,Single-ply,SBD,M
Boys,124.74,3,Isaiah Ross,Troy,120.84,278.96,147.42,267.62,694,Single-ply,SBD,M
Boys,124.74,4,Jarrett Anderson,Bangs,115.76,244.94,154.22,226.8,625.96,Single-ply,SBD,M
Boys,124.74,5,Trent Hughes,Waco Reicher Catholic,113.58,244.94,136.08,233.6,614.62,Single-ply,SBD,M
Boys,124.74,6,Luis Ramírez,Waco Reicher Catholic,113.13,219.99,161.03,210.92,591.94,Single-ply,SBD,M
Boys,124.74,7,Shurdan Simpson,Chilton,116.94,249.48,149.69,192.78,591.94,Single-ply,SBD,M
Boys,124.74,8,Tanner Sanchez,Blanco,122.74,238.14,124.74,208.65,571.53,Single-ply,SBD,M
Boys,124.74,9,Brandon Heller,Salado,112.4,215.46,120.2,197.31,532.97,Single-ply,SBD,M
Boys,124.74,DQ,Colt Caffey,Sidney,120.29,229.06,161.03,,,Single-ply,SBD,M
Boys,124.74+,1,Lance Tepe,Waco Reicher Catholic,142.79,292.57,167.83,278.96,739.36,Single-ply,SBD,M
Boys,124.74+,2,Jesus Pinon,Meridian,125.01,285.76,190.51,260.82,737.09,Single-ply,SBD,M
Boys,124.74+,3,Chance Furniss,Bangs,145.33,272.16,190.51,247.21,709.87,Single-ply,SBD,M
Boys,124.74+,4,Tyler McIntosh,San Saba,128.64,294.84,185.97,226.8,707.6,Single-ply,SBD,M
Boys,124.74+,5,Carter Blenden,Crawford,140.25,226.8,131.54,226.8,585.13,Single-ply,SBD,M
Boys,124.74+,6,Luis Robles,Florence,126.46,240.4,131.54,208.65,580.6,Single-ply,SBD,M
Boys,124.74+,7,Max Meador,Brady,150.23,233.6,115.67,215.46,564.72,Single-ply,SBD,M
Boys,124.74+,8,Diego Montoya,San Saba,138.98,222.26,140.61,192.78,555.65,Single-ply,SBD,M
Boys,124.74+,9,Dave Smith #8,San Saba,192.78,224.53,133.81,192.78,551.11,Single-ply,SBD,M
Boys,124.74+,DQ,Shawn McKinney,Hubbard,167.38,,,,,Single-ply,SBD,M
