Name,Country,Sex,BirthDate,Event,Equipment,WeightClassKg,BodyweightKg,Division,Squat1Kg,Squat2Kg,Squat3Kg,Squat4Kg,Best3SquatKg,Bench1Kg,Bench2Kg,Bench3Kg,Bench4Kg,Best3BenchKg,Deadlift1Kg,Deadlift2Kg,Deadlift3Kg,Deadlift4Kg,Best3DeadliftKg,TotalKg,Place
Julia Picolotto de Souza,Brazil,F,1997-10-03,SBD,Wraps,56,54.4,Tn13-15,115,125,-135,,125,40,-45,,,40,130,140,145,,145,310,1
Gabriela Damasceno,Brazil,F,1996-03-08,SBD,Wraps,56,55.5,Tn16-17,50,60,70,,70,20,25,,,25,100,110,,,110,205,1
Deisy Prieto Gomez,Argentina,F,1992-10-18,SBD,Wraps,67.5,67.1,Juniors,90,-100,100,,100,55,60,65,,65,100,110,125,,125,290,1
Veronica Hugo,Argentina,F,1992-06-18,SBD,Wraps,90,89.9,Juniors,-165,165,170,,170,60,67.5,-75,,67.5,160,170,175,,175,412.5,1
Fernanda Vaccaro,Argentina,F,1979-01-23,SBD,Wraps,48,47.4,Open,90,97.5,100,105,100,45,-52.5,52.5,,52.5,100,107.5,115,120,115,267.5,1
Rosana Chrestia,Argentina,F,,SBD,Wraps,56,55.8,O/M40-44,130,140,145,-150,145,80,85,87.5,-90,87.5,145,152.5,160,165,160,392.5,1
Ariel Bulmash,USA,F,1995-11-06,SBD,Wraps,56,56,O/T 16-17,120,-130,,,120,72.5,77.5,-82.5,,77.5,145,-160,-160,,145,342.5,2
María Izetta,Argentina,F,1977-12-05,SBD,Wraps,60,60,Open,110,115,120,,120,47.5,52.5,57.5,,57.5,135,140,145,,145,322.5,1
Tiina Hirito,Finland,F,1983-11-12,SBD,Wraps,60,58.7,Open,80,90,-95,,90,47.5,50,-52.5,,50,110,115,-120,,115,255,2
Cintia Pagliariche,Argentina,F,1984-09-23,SBD,Wraps,67.5,67.2,Open,105,115,125,,125,55,62.5,70,,70,105,115,-125,,115,310,2
Gabriela Vaccaro,Argentina,F,1988-05-12,SBD,Wraps,67.5,64.4,Open,-117.5,117.5,-120,,117.5,55,60,65,,65,135,142.5,150,,150,332.5,1
Angela Salari,Brazil,F,1982-11-21,SBD,Wraps,75,75,Open,170,190,205,,205,60,65,67.5,,67.5,175,190,195,200,195,467.5,1
Gladys Farias,Argentina,F,1978-08-22,SBD,Wraps,75,72,Open,155,165,175,,175,95,102.5,107.5,,107.5,160,170,180,,180,462.5,2
Flavia Torres,Argentina,F,1989-03-07,SBD,Wraps,82.5,82.3,Op/Jun,120,135,145,155,145,50,60,65,,65,120,135,-145,,135,345,3
Anna Karila,Finland,F,1988-01-24,SBD,Wraps,82.5,78.4,Open,150,170,175,-180,175,105,117.5,122.5,,122.5,160,175,185,,185,482.5,1
Débora Ester,Brazil,F,1982-02-23,SBD,Wraps,82.5,80,Open,140,150,,,150,80,-95,95,,95,175,185,195,-200,195,440,2
Marina Izetta,Argentina,F,,SBD,Wraps,90+,113.5,Open,-140,150,160,,160,65,70,75,,75,165,175,-180,,175,410,1
Veronica Garcia,Argentina,F,1976-08-31,SBD,Wraps,56,53.8,Sub M,90,100,108,-110,108,60,-67.5,-67.5,,60,105,110,115,,115,283,1
Svetlana Baker,USA,F,1954-01-21,SBD,Wraps,52,49.6,M55-59,70,75,80.5,,80.5,47.5,-50,50,,50,115,120,122.5,,122.5,253,1
Lenna Barker,USA,F,1941-03-01,SBD,Wraps,60,59.8,M70-74,52.5,57.5,-60,,57.5,-35,35,38,,38,92.5,95,100,103,100,195.5,1
Juan Garcia,Argentina,M,1997-01-30,SBD,Wraps,67.5,65.8,Tn13-15,145,150,155,,155,85,90,95,,95,160,170,-172.5,,170,420,1
Lucas Castro,Argentina,M,1998-01-15,SBD,Wraps,75,70.5,Tn13-15,140,150,155,,155,85,90,-95,,90,130,145,-150,,145,390,1
Jonathan Quiroga,Argentina,M,1998-03-13,SBD,Wraps,90,86.5,Tn13-15,-130,130,140,,140,65,72.5,75,77.5,75,140,150,160,170,160,375,1
Francis Vilte,Argentina,M,,SBD,Wraps,75,74.8,Tn16-17,130,-150,-150,,130,65,75,80,,80,170,190,-195,,190,400,1
Miguel Quiroga,Colombia,M,1995-08-14,SBD,Wraps,90,87.8,Tn16-17,-175,180,-200,,180,-125,-135,135.5,,135.5,205,215,,,215,530,1
Jose Salgado,Argentina,M,1993-08-10,SBD,Wraps,67.5,66.7,Tn18-19,-175,180,192.5,200,192.5,90,95,100,,100,-180,190,205,,205,497.5,1
Alejandro Bentancour,Argentina,M,,SBD,Wraps,75,74.2,Tn18-19,170,190,197.5,205,197.5,100,110,,,110,200,225,-246,,225,532.5,1
Bruno Rastelli,Brazil,M,1994-05-04,SBD,Wraps,82.5,79.5,Tn18-19,-160,160,-170,,160,-90,90,100,,100,220,230,-235,,230,490,2
Erik Mateyka,Argentina,M,,SBD,Wraps,82.5,80,Tn18-19,210,225,-235,,225,135,-142.5,-142.5,,135,220,235,250.5,,250.5,610.5,1
German Morales,Argentina,M,,SBD,Wraps,67.5,67,Juniors,175,190,-205,,190,100,107.5,-115,,107.5,-190,195,-210,,195,492.5,1
Santiago Minciacca,Argentina,M,1990-01-22,SBD,Wraps,75,73.9,Juniors,225,-240,240,,240,-140,-140,140,-150,140,200,215,230.5,,230.5,610.5,1
Kyle Scott,USA,M,1991-04-01,SBD,Wraps,75,74.4,Juniors,-205,205,207.5,,207.5,140,-145,,,140,222.5,-227.5,,,222.5,570,2
Jonathan Rondon,Argentina,M,,SBD,Wraps,82.5,81.2,Juniors,190,,,,190,140,147.5,155,158,155,200,220,240,255.5,240,585,1
Eloy Gonzalez,Argentina,M,,SBD,Wraps,110,106.6,Juniors,240,-260,260,,260,150,160,,,160,250,-280,-280,,250,670,1
Sergio Mardones,Chile,M,,SBD,Wraps,125,118,Juniors,-260,260,-310,,260,150,-160,-160,,150,240,250,-260,,250,660,1
Marcos Vinicius,Brazil,M,,SBD,Wraps,75,74,Especial,40,60,-80,,60,50,60,65,,65,110,120,130,,130,255,1
Ernesto Milian,USA,M,1947-11-07,SBD,Wraps,52,48,M65-69,102.5,117.5,127.5,,127.5,77.5,85,87.5,,87.5,155,170,177.5,,177.5,392.5,1
Jose Mata,Argentina,M,1941-04-29,SBD,Wraps,67.5,64,M70-74,120,130.5,135,137.5,135,65,70.5,75,80,75,130,140.5,145,150,145,355,1
Aldo Pirantonelli,Argentina,M,1966-06-07,SBD,Wraps,67.5,66.7,M45-49,135,145,155,,155,87.5,92.5,97.5,,97.5,165,180,-190,,180,432.5,1
Raul Amil,Argentina,M,1963-01-05,SBD,Wraps,75,73.2,M45-49,155,165,170,-175,170,102.5,107.5,110,,110,175,185,-195,,185,465,1
Ange Galati,Australia,M,1968-03-21,SBD,Wraps,82.5,79.5,M40-44/O,160,180,200,,200,180,190,195,200,195,175,200,220,,220,615,1
Juan Marileo,Argentina,M,1970-10-30,SBD,Wraps,82.5,82,M40-44,185,195,205,,205,105,115,120,,120,205,-215,,,205,530,4
Claudinei Alvarenga,Brazil,M,1970-03-14,SBD,Wraps,82.5,81.2,M40-44,160,180,190,,190,120,130,-140,,130,170,200,210,,210,530,3
Pedro Verdezoto,Ecuador,M,1971-11-19,SBD,Wraps,82.5,81.6,M40-44,170,180,190,,190,150,160,165,,165,185,195,-205,,195,550,2
Juan Carlos Gonzalez,Argentina,M,1947-05-28,SBD,Wraps,82.5,80.5,M65-69,82.5,102.5,112.5,,112.5,80,90,95.5,,95.5,125,142.5,160,,160,368,1
Luis Comelli,Argentina,M,1942-04-30,SBD,Wraps,90,87.9,M70-74,120,130,140,,140,70,80,90,,90,130,150,160,,160,390,1
LB Baker,USA,M,1937-01-04,SBD,Wraps,90,86.1,M75-79,110,125,140,,140,95,100,,,100,125,145,165,,165,405,1
Ismael Luna,Argentina,M,1970-09-15,SBD,Wraps,90,87.7,M40-44,225,235,240.5,,240.5,145,-160,160.5,,160.5,210,220,225,,225,626,1
Kevin Eubanks,USA,M,1970-04-07,SBD,Wraps,90,89.4,M40-44,185,210,217.5,,217.5,137.5,142.5,150,,150,235,-250,-260,,235,602.5,2
Andres Salinas,Chile,M,1984-12-13,SBD,Wraps,60,59,Open,130,140,-150,,140,-90,90,-95,,90,185,-195,-197.5,,185,415,1
Nicandro Zapata,Argentina,M,1983-11-26,SBD,Wraps,60,59.5,Open,130,137.5,145,,145,85,-90,-90,,85,160,-165,165,,165,395,2
Arnaldo Salinas,Chile,M,1983-04-01,SBD,Wraps,67.5,67.4,Open,205,-215,-217.5,,205,110,115,117.5,,117.5,200,202.5,210,-230,210,532.5,1
Jonathan Machado,Brazil,M,1984-04-13,SBD,Wraps,67.5,65.1,Open,150,170,190,,190,140,-150,150,,150,120,160,190,,190,530,2
Ezequiel Mosquera,Argentina,M,1994-10-05,SBD,Wraps,67.5,67.5,Open,170,-190,-200,,170,80,90,-100,,90,180,-200,-200,,180,440,3
Luis Bermejo,Colombia,M,1980-03-21,SBD,Wraps,75,74.8,Open,210,220,232.5,240.5,232.5,130,137.5,142.5,,142.5,-230,-230,230,250.5,230,605,1
Ismael De Nardi,Brazil,M,1987-03-25,SBD,Wraps,75,72.9,Open,170,-190,-190,,170,140,150,155,-160,155,180,220,230,-250,230,555,3
Sergio Barrientos,Argentina,M,1978-09-03,SBD,Wraps,75,73.9,Open,190,205,210,,210,145,150,-155,,150,180,190,200,,200,560,2
Fernando Gonzaga,Brazil,M,1980-07-27,SBD,Wraps,75,73.3,Open,130,150,-180,,150,110,-120,120,,120,160,175,185,,185,455,4
Jefisson Leivas,Brazil,M,,SBD,Wraps,82.5,81.6,Open,220,240,-245,,240,130,140,-150,,140,215,227.5,237.5,,237.5,617.5,1
Guillermo Muñoz,Argentina,M,1973-08-27,SBD,Wraps,82.5,80,Op/Sub,220,235,242.5,,242.5,110,115,120,,120,215,230,237.5,-250,237.5,600,2
Sergio Arraño,Chile,M,1988-03-07,SBD,Wraps,90,88.9,Open,200,-210,-212.5,,200,135,-140,-140,,135,-220,222.5,230,,230,565,3
Marcelo Mendoza,Argentina,M,1977-07-06,SBD,Wraps,90,90,Op/Sub,225,240,250,,250,145,162.5,175,185.5,175,180,227.5,242.5,,242.5,667.5,2
Giovany Heredia,Ecuador,M,1980-10-19,SBD,Wraps,90,89.8,Open,260,280,-290,,280,180,190,200,-215.5,200,220,230,240,,240,720,1
Javier Villaverde,Argentina,M,1969-03-11,SBD,Wraps,100,99.6,M40-44,250,260,270,,270,155,165,170,-175.5,170,255,265,275.5,280,275.5,715.5,1
Luiz Freitas,Brazil,M,1969-12-06,SBD,Wraps,100,93.4,M40-44,160,200,-210,,200,150,160,-167.5,,160,200,220,,,220,580,2
Júlio Chavez,Argentina,M,1952-08-19,SBD,Wraps,100,94.7,M60-64,150,175,190,,190,85,92.5,98,-102.5,98,170,,,,170,458,1
Daniel Matamala,Argentina,M,1964-12-01,SBD,Wraps,100,98.2,M45-49,200,220,-240,,220,100,120,130,,130,200,-220,-225,,200,550,1
Andy Williamson,USA,M,1965-06-13,SBD,Wraps,110,104.6,M45-49,190,200,-210,,200,142.5,147.5,-150,,147.5,205,215,-220,,215,562.5,2
Gustavo Coronel,Argentina,M,1967-09-29,SBD,Wraps,110,104.1,M45-49,170,190,200,,200,105,-117.5,-117.5,,105,180,205,215,,215,520,3
Michael Nicholas,Australia,M,1965-07-08,SBD,Wraps,110,109.5,M45-49,240,250,,,250,157.5,-160,,,157.5,250,260,,,260,667.5,1
Roberto Heberle Da Silveira,Brazil,M,1967-06-11,SBD,Wraps,140+,162,M45-49,200,230,,,230,100,,,,100,200,230,,,230,560,1
Uwe Thormann,USA,M,,SBD,Wraps,110,109.2,M55-59,170,190,200,,200,120,130,140,,140,190,210,-230,,210,550,1
Jose L Fernandez,Argentina,M,1939-03-10,SBD,Wraps,110,109,M70-74,95,100,110,,110,105,115,-120,,115,170,190,200,,200,425,1
Claudio Maidana,Argentina,M,1972-12-02,SBD,Wraps,125,119,M40-44,280,295,-310.5,,295,155,-165,-165,,155,250,260,-270,,260,710,1
Sami Huhtala,Finland,M,1974-08-04,SBD,Wraps,110,109.2,O/Sub,30,,,,30,105,200,-205,,200,80,,,,80,310,1
Ramiro Mosquera,Argentina,M,1979-12-26,SBD,Wraps,100,96.1,Open,240,250,262.5,,262.5,140,150,-160,,150,220,-260,-260,,220,632.5,3
Joseph Medina,Colombia,M,1990-02-13,SBD,Wraps,100,99.9,Open,320,337.5,-350.5,,337.5,220,227.5,-232.5,,227.5,-320,-320,320,-325,320,885,1
James Huston,USA,M,1979-11-28,SBD,Wraps,100,96.5,Open,210,-227.5,227.5,,227.5,127.5,137.5,-142.5,,137.5,190,200,210,,210,575,4
Andres Hugo,Argentina,M,1979-12-26,SBD,Wraps,100,99.5,Open,290,-310,-310,,290,160,170,-180,,170,270,280,290,,290,750,2
Gabriel Alvarez,Argentina,M,1961-01-31,SBD,Wraps,110,105,O/50-54,260,280,300,,300,160,175,180,181.5,180,250,270,280,,280,760,1
Enrique Barrionuevo,Argentina,M,1968-11-01,SBD,Wraps,110,108.4,M40-44,200,-240,,,200,120,150,170,,170,200,-240,,,200,570,1
Mauro Spinardi,Argentina,M,1980-02-28,SBD,Wraps,125,122.3,Open,365,385,-400,,385,190,210,-222.5,,210,100,142.5,180,,180,775,1
Facundo Soria,Argentina,M,1991-03-09,SBD,Wraps,125,112,Op/Jun,260,270,277.5,282.5,277.5,165,175,,,175,265,282.5,290,-300,290,742.5,2
Wayne Howlett,Australia,M,1980-05-26,SBD,Wraps,140,127,Open,352.5,375,-400,,375,220,230,,,230,300,320,330,,330,935,1
Rodrigo Da Silva Souza,Brazil,M,,SBD,Wraps,140,133,Open,340,355,-370,,355,190,-200,200,,200,305,-325,-325,,305,860,3
Jaime Barrezueta,Ecuador,M,1969-09-27,SBD,Wraps,140,140,O/40-44,320,340,360,,360,220,-230,-230,,220,280,300,-330,,300,880,2
Leonardo Cavaglia,Argentina,M,1976-01-12,SBD,Wraps,140+,141,Open,300,320,,,320,180,190,,,190,270,-285,,,270,780,1
Adrian Tullo,Australia,M,,SBD,Wraps,140+,160,M40-44,320,330,340,,340,220,230,-240,,230,300,320,340,,340,910,1
Flavia Torres,Argentina,F,1989-03-07,B,Raw,82.5,82.3,Jun/Op,,,,,,50,52.5,60,,60,,,,,,60,1
Virpi Knuutila,Finland,F,,B,Raw,75,73.5,Open,,,,,,95,100,-105,,100,,,,,,100,1
Anna Khudayarov,Finland,F,1988-01-24,B,Raw,82.5,78.4,Open,,,,,,105,115,120,122.5,120,,,,,,120,1
Débora Ester,Brazil,F,1982-02-23,B,Raw,82.5,81.1,Open,,,,,,80,90,-95,,90,,,,,,90,2
Dana Tripp,USA,F,1972-05-30,B,Raw,52,50,M40-44,,,,,,40,42.5,43,45,43,,,,,,43,1
Rodrigo Naulle,Argentina,M,1997-04-16,B,Raw,100,97.2,Tn13-15,,,,,,70,85,87.5,,87.5,,,,,,87.5,1
Leandro Villarreal,Argentina,M,1990-09-21,B,Raw,67.5,66.5,Juniors,,,,,,100,102.5,107.5,,107.5,,,,,,107.5,1
Jonathan Reyes,Argentina,M,1990-08-09,B,Raw,75,73.1,Juniors,,,,,,115,-122.5,-122.5,,115,,,,,,115,1
Facundo Galvan,Argentina,M,1985-01-28,B,Raw,82.5,82.2,Juniors,,,,,,135,145,-155,,145,,,,,,145,1
Victor Medeiros,Brazil,M,1992-01-11,B,Raw,90,88.4,Juniors,,,,,,120,135,140,,140,,,,,,140,1
Sergio Mardones,Chile,M,1989-05-10,B,Raw,125,120.9,Juniors,,,,,,-150,150,155,,155,,,,,,155,1
Mario Bianchi,Argentina,M,1969-09-05,B,Raw,67.5,66.5,M40-44,,,,,,110,115,120,-122.5,120,,,,,,120,1
Nestor Gonzalez,Argentina,M,1960-07-26,B,Raw,75,73.3,M40-44,,,,,,115,122.5,-127.5,,122.5,,,,,,122.5,1
Pedro Verdezoto,Ecuador,M,1971-11-19,B,Raw,82.5,82.5,M40-44,,,,,,155,165,-170,,165,,,,,,165,2
Sergio Tomasoni,Argentina,M,1969-12-27,B,Raw,82.5,80.2,M40-44,,,,,,140,155,-165,,155,,,,,,155,3
Ange Galati,Australia,M,,B,Raw,82.5,78,O/M40-44,,,,,,180,190,200,,200,,,,,,200,1
Claudinei Alvarenga,Brazil,M,1970-03-14,B,Raw,82.5,82.1,M40-44,,,,,,120,135,,,135,,,,,,135,4
Jorge Silva,Argentina,M,1968-06-26,B,Raw,90,88.8,M40-44,,,,,,140,145,-152.5,,145,,,,,,145,1
Roque Gallardo,Argentina,M,1972-03-01,B,Raw,100,94.8,M40-44,,,,,,120,127.5,132.5,,132.5,,,,,,132.5,2
Luiz Freites,Brazil,M,1969-12-06,B,Raw,100,93.9,M40-44,,,,,,150,155,,,155,,,,,,155,1
Adrian Tullo,Australia,M,1972-05-07,B,Raw,140+,160,O/M40-44,,,,,,-220,230,-246,,230,,,,,,230,1
Hector Sanhueza,Argentina,M,1964-08-26,B,Raw,75,71.9,M45-49,,,,,,142.5,150,152.5,155,152.5,,,,,,152.5,1
Russ Tripp,USA,M,1967-08-16,B,Raw,75,74.5,M45-49,,,,,,142.5,147.5,-152.5,,147.5,,,,,,147.5,2
Jose Naulle,Argentina,M,1963-09-02,B,Raw,110,106,M45-49,,,,,,142.5,152.5,-155,,152.5,,,,,,152.5,1
Andy Wiliamson,USA,M,1965-06-13,B,Raw,110,106,M45-49,,,,,,142.5,150,,,150,,,,,,150,2
Vilmar Oliveira,Brazil,M,1961-08-17,B,Raw,82.5,79.5,Especial,,,,,,80,100,110,,110,,,,,,110,1
Sergio Duran,Argentina,M,1960-05-23,B,Raw,82.5,79.1,M50-54,,,,,,95,100,112.5,,112.5,,,,,,112.5,1
Aquiles Paredes,Argentina,M,1956-01-02,B,Raw,90,88.5,M50-54,,,,,,130,137.5,142.5,145,142.5,,,,,,142.5,1
Garry Glenn,USA,M,1954-05-15,B,Raw,90,90,M55-59,,,,,,135,150,-155,,150,,,,,,150,1
Uwe Thormann,USA,M,1957-03-28,B,Raw,110,106.4,M55-59,,,,,,120,130,140,,140,,,,,,140,1
Carlos Cura,Argentina,M,1957-01-02,B,Raw,125,110.7,M55-59,,,,,,90,100,107.5,,107.5,,,,,,107.5,1
Serafin Rocha,Brazil,M,1948-09-27,B,Raw,125,110.8,M60-64,,,,,,120,130,-130.5,,130,,,,,,130,1
Carlos Porta,Argentina,M,1933-04-29,B,Raw,100,97.1,M75-79,,,,,,95,100,102.5,105,102.5,,,,,,102.5,1
Guillermo Amodeo,Argentina,M,1973-09-30,B,Raw,60,57.5,Op/Sub,,,,,,80,-88,-88,,80,,,,,,80,2
Andres Salinas,Chile,M,1984-12-13,B,Raw,60,60,Open,,,,,,85,87.5,-95,,87.5,,,,,,87.5,1
Jonathan Machado,Brazil,M,1984-04-13,B,Raw,67.5,66.8,Open,,,,,,130,150,-160,,150,,,,,,150,1
Arnaldo Salinas,Chile,M,1983-04-01,B,Raw,67.5,66.2,Open,,,,,,112.5,115,-120,,115,,,,,,115,2
Marcos Villagra,Argentina,M,1985-10-12,B,Raw,67.5,66.6,Open,,,,,,112.5,-115,-117.6,,112.5,,,,,,112.5,3
Alejandro Gómez,Argentina,M,1977-05-01,B,Raw,75,73.2,Op/Sub,,,,,,155,-165,-167.5,,155,,,,,,155,1
Isias Domeneghini,Brazil,M,1983-07-02,B,Raw,82.5,78.2,Open,,,,,,140,-170,-170,,140,,,,,,140,3
Jonathan Rondon,Argentina,M,1989-08-04,B,Raw,82.5,81.7,Open,,,,,,145,152.5,-157.5,,152.5,,,,,,152.5,2
Sergio Arraño,Chile,M,1988-03-07,B,Raw,90,88.9,Open,,,,,,130,140,-145,,140,,,,,,140,3
Andres Manrique,Argentina,M,,B,Raw,90,88.8,Op/Sub,,,,,,185,192.5,-197.5,,192.5,,,,,,192.5,2
Giovanny Heredia,Ecuador,M,1980-10-19,B,Raw,90,89.5,Open,,,,,,185,192.5,197.5,,197.5,,,,,,197.5,1
Emliano Barrionuevo,Argentina,M,1991-12-26,B,Raw,100,92.8,Op/Jun,,,,,,160,170,-180,,170,,,,,,170,1
Nicolas Pato,Argentina,M,,B,Raw,110,107,Open,,,,,,-200,210,215,,215,,,,,,215,1
Sami Huhtala,Finland,M,1974-08-04,B,Raw,110,107.5,Op/Sub,,,,,,180,-205,-212.5,,180,,,,,,180,2
Emanuel Brentassi,Argentina,M,1983-12-28,B,Raw,125,115.8,Open,,,,,,200,207.5,-217.5,,207.5,,,,,,207.5,2
Jan Johansson,Finland,M,1971-11-27,B,Raw,125,117.8,O/M40-44,,,,,,200,212.5,-217.5,,212.5,,,,,,212.5,1
Wayne Howlett,Australia,M,,B,Raw,140,128,Open,,,,,,220,230,237.5,,237.5,,,,,,237.5,1
Marcelo Mendoza,Argentina,M,1977-07-06,B,Raw,100,90.1,Sub Ma,,,,,,160,175,182.5,-195.5,182.5,,,,,,182.5,1
