Place,Name,Age,CyrillicName,Division,Country,BodyweightKg,WeightClassKg,Squat1Kg,Squat2Kg,Squat3Kg,Best3SquatKg,Squat4Kg,Bench1Kg,Bench2Kg,Bench3Kg,Best3BenchKg,Bench4Kg,Deadlift1Kg,Deadlift2Kg,Deadlift3Kg,Best3DeadliftKg,Deadlift4Kg,TotalKg,Sex,Event,Equipment,BirthYear
1,Hana Nachtigalová,32,,Open,Czechia,47.4,48,80,-92.5,,80,,40,45,-52.5,45,,100,-110,-110,100,,225,F,SBD,Multi-ply,
1,Karin Heindl,54,,M 50-54,Austria,49.3,52,80,95,-100,95,,47.5,52.5,-55,52.5,,90,105,113,113,,260.5,F,SBD,Multi-ply,
1,Julianna Kiss,17,,T 16-17,Hungary,60,60,110,115,120,120,125,60,-70,-70,60,,105,115,-122.5,115,-122.5,295,F,SBD,Multi-ply,
1,Chantal Rostagnat,43,,M 40-44,France,60,60,-100,100,,100,,75,-78,-78,75,,-135,-135,135,135,,310,F,SBD,Multi-ply,
1,Ilona Gehringer,58,,M 55-59,Germany,58.7,60,105,110,117.5,117.5,,-77.5,77.5,82.5,82.5,,110,117.5,122.5,122.5,127.5,322.5,F,SBD,Multi-ply,
1,Monika Petrovska,19,,T 18-19,Slovakia,64.9,67.5,-100,-100,100,100,,50,57.5,60,60,,110,120,-130,120,,280,F,SBD,Multi-ply,
1,Monika Rovná,27,,Open,Czechia,64.7,67.5,-180,180,-200,180,,80,87.5,-95,87.5,,140,-157.5,,140,,407.5,F,SBD,Multi-ply,
1,Zsuszana Németh,55,,M 55-59,Hungary,66.5,67.5,75,85,92.5,92.5,,77.5,85,-87.5,85,-90,115,125,-132.5,125,-132.5,302.5,F,SBD,Multi-ply,
1,Sandra Mokrá,31,,Open,Slovakia,71.4,75,160,170,175,175,,102.5,110,-115,110,,155,167.5,177.5,177.5,,462.5,F,SBD,Multi-ply,
1,Katalin Rohrmann,57,,M 55-59,Hungary,74.8,75,100,110,116,116,,85,90,-92.5,90,92.5,140,145,150,150,,356,F,SBD,Multi-ply,
1,Jodi Parkhurst,41,,M 40-44,USA,90,90,105,-125,-125,105,,65,75,-85,75,-90,-80,100,-115,100,-115,280,F,SBD,Multi-ply,
1,Artur Sokolowski,17,,T 16-17,Poland,59.9,60,110,120,130,130,,65,70,75,75,,137.5,150,-170,150,,355,M,SBD,Multi-ply,
1,Péter Mürkl,17,,T 16-17,Hungary,64.7,67.5,140,155,-170,155,,100,110,113,113,,130,145,-160,145,,413,M,SBD,Multi-ply,
2,Martin Švirec,17,,T 16-17,Slovakia,63.9,67.5,110,-125,125,125,,85,-95,-95,85,,130,140,150,150,,360,M,SBD,Multi-ply,
1,Dániel Györfi,18,,T 18-19,Hungary,66.8,67.5,185,-200,-200,185,,115,123,125,125,,185,-200,-200,185,,495,M,SBD,Multi-ply,
2,Amos Walsher,19,,T 18-19,Austria,65.2,67.5,100,115,120,120,,65,72.5,-77.5,72.5,,135,-145,-145,135,,327.5,M,SBD,Multi-ply,
1,Marcel Mette,34,,Open,Germany,66.7,67.5,262.5,280,-300.5,280,,25,125,130,130,,210,225,230,230,,640,M,SBD,Multi-ply,
2,Ján Habardík,24,,Open,Slovakia,67,67.5,-250,250,-260,250,,137.5,-142.5,-142.5,137.5,,220,235,-255,235,,622.5,M,SBD,Multi-ply,
1,Martin Heindl,54,,M 50-54,Austria,67.5,67.5,170,-180,-180,170,,105,107.5,110,110,,190,210,-220,210,,490,M,SBD,Multi-ply,
1,Hans-Georg Wiskel,58,,M 55-59,Germany,65.2,67.5,125,-140,,125,,80,-85,,80,,125,145,,145,,350,M,SBD,Multi-ply,
1,Ulrich Mielich,71,,M 70-74,Germany,66,67.5,70,80,82.5,82.5,,60,65,67.5,67.5,,115,-122.5,125,125,,275,M,SBD,Multi-ply,
1,Grzegorz Glowacki,16,,T 16-17,Poland,68.6,75,120,135,-150,135,,67.5,75,80,80,,-140,140,150,150,,365,M,SBD,Multi-ply,
1,Alexander Markovič,21,,Juniors,Slovakia,74.4,75,260,275,-290,275,,135,150,160,160,,230,245,-255,245,,680,M,SBD,Multi-ply,
1,Jeffrey Podszuweit,33,,Open,Germany,73.8,75,302.5,-320,-330.5,302.5,,218,226,-230.5,226,,260,280,-290,280,,808.5,M,SBD,Multi-ply,
2,Marek Hradsky,32,,Open,Slovakia,73.8,75,-210,-210,210,210,,115,-120,-120,115,,220,-227.5,227.5,227.5,,552.5,M,SBD,Multi-ply,
3,Salverio Manuardi,34,,Open,Italy,73.2,75,-200,210,-230,210,,110,115,-117.5,115,,210,225,-232.5,225,,550,M,SBD,Multi-ply,
4,Clemens Edinger,24,,Open,Austria,73.7,75,150,170,180,180,,-100,100,-110,100,,150,170,-190,170,,450,M,SBD,Multi-ply,
1,Vladimir Lapynin,40,Владимир Лапынин,M 40-44,Russia,74.8,75,220,230,240,240,,170,185,-195,185,,210,-235,235,235,246,660,M,SBD,Multi-ply,
2,Zoltán Kató,41,,M 40-44,Hungary,73.4,75,155,165,170,170,,135,-145,-145,135,,190,200,-205,200,,505,M,SBD,Multi-ply,
1,István Verebi,59,,M 55-59,Hungary,74.6,75,155,165,170,170,,125,-135,-135,125,,155,160,165,165,,460,M,SBD,Multi-ply,
2,František Albert,58,,M 55-59,Slovakia,74.7,75,105,115,122.5,122.5,,85,92.5,97.5,97.5,,120,135,140,140,,360,M,SBD,Multi-ply,
1,Burkhard Steffen,60,,M 60-64,Germany,72.5,75,160,170,180,180,,110,115,-117.5,115,,145,152.5,,152.5,,447.5,M,SBD,Multi-ply,
1,Csaba Keszthelyi,76,,M 75-79,Hungary,74.2,75,-110,110,117.5,117.5,,80,85,87.5,87.5,,125,132.5,-135,132.5,,337.5,M,SBD,Multi-ply,
1,Gábor Ilyés,19,,T 18-19,Hungary,81,82.5,230,240,253,253,,140,150,-155,150,,190,210,220,220,232,623,M,SBD,Multi-ply,
2,Ákos Gidai,19,,T 18-19,Hungary,82.5,82.5,190,-200,200,200,,110,120,-127.5,120,,190,205,215,215,,535,M,SBD,Multi-ply,
1,Hannes Walder,22,,Juniors,Austria,79.9,82.5,220,240,260,260,,130,150,160,160,,230,250,262.5,262.5,,682.5,M,SBD,Multi-ply,
2,David Stojaspal,20,,Juniors,Slovakia,79.5,82.5,220,-230,,220,,115,122.5,-130,122.5,,190,215,-230,215,,557.5,M,SBD,Multi-ply,
DQ,Kévin Dufrenoy,21,,Juniors,France,80,82.5,-270,-270,-270,,,,,,,,,,,,,,M,SBD,Multi-ply,
1,Daniel Tatarka,26,,Open,Slovakia,79.2,82.5,275,-285,-300,275,,160,-180,180,180,,230,-245,-245,230,,685,M,SBD,Multi-ply,
2,Roman Medvedchuk,29,Роман Медведчук,Open,Ukraine,79.8,82.5,230,255,275,275,,130,142.5,-150,142.5,,225,240,-250,240,,657.5,M,SBD,Multi-ply,
3,Jonas Anderbring,31,,Open,Sweden,80.4,82.5,275,-282.5,-282.5,275,,55,155,162.5,162.5,,210,220,-232.5,220,,657.5,M,SBD,Multi-ply,
4,Stefan Hörndl,25,,Open,Austria,77.1,82.5,240,-260,260,260,,110,120,130,130,,190,205,-220,205,,595,M,SBD,Multi-ply,
5,Miklós Boda,31,,Open,Hungary,75.5,82.5,210,-220,-220,210,,150,-160,160,160,,200,210,-225,210,,580,M,SBD,Multi-ply,
1,Petr Chvátal,47,,M 45-49,Czechia,81.1,82.5,170,180,-190,180,,120,130,-135,130,,200,220,-226,220,,530,M,SBD,Multi-ply,
1,Ronnie Baker,52,,M 50-54,USA,81.6,82.5,205,-242.5,-242.5,205,,60,150,-165,150,,185,210,-231,210,,565,M,SBD,Multi-ply,
1,Józef Bejgrowisz,58,,M 55-59,Poland,82.5,82.5,150,-180,180,180,,80,-92.5,92.5,92.5,,220,-241,,220,,492.5,M,SBD,Multi-ply,
1,András Gadó,23,,Juniors,Hungary,89.3,90,240,250,260,260,,160,170,175,175,,220,235,240,240,,675,M,SBD,Multi-ply,
2,Adam Kovács,20,,Juniors,Slovakia,86.9,90,140,-150,160,160,,130,140,150,150,,180,200,-210,200,,510,M,SBD,Multi-ply,
DQ,Adam Chapelier,23,,Juniors,France,87.3,90,-313,-313,-313,,,,,,,,,,,,,,M,SBD,Multi-ply,
1,Bryan Beanland,29,,Open,USA,88.9,90,320,-340,340,340,,200,-207.5,-207.5,200,,272.5,290,-310,290,,830,M,SBD,Multi-ply,
2,Milan Gejdoš,30,,Open,Slovakia,90,90,-320,320,-353,320,,205,215,220,220,,260,-270,,260,,800,M,SBD,Multi-ply,
3,Sergiy Zakharchuk,26,Сергій Захарчук,Open,Ukraine,88.6,90,230,250,-270,250,,160,170,180,180,,220,240,-250,240,,670,M,SBD,Multi-ply,
4,Martin Steiner,26,,Open,Austria,84.2,90,180,-200,-200,180,,112.5,-120,120,120,,180,200,-220,200,,500,M,SBD,Multi-ply,
DQ,Patrik Halai,33,,Open,Slovakia,89,90,-290,-315,-315,,,,,,,,,,,,,,M,SBD,Multi-ply,
1,Steffen Reisbash,42,,M 40-44,Germany,90,90,160,230,-240,230,,130,165,-175,165,,-170,170,205,205,,600,M,SBD,Multi-ply,
1,Zbigniew Turowski,46,,M 45-49,Poland,88.2,90,280,300,320,320,-332.5,160,-180,180,180,,250,270,-287.5,270,,770,M,SBD,Multi-ply,
2,Sándor Jungwirth,45,,M 45-49,Hungary,86.1,90,170,-185,190,190,,120,-140,150,150,,160,175,190,190,,530,M,SBD,Multi-ply,
1,Volodymyr Chernobai,50,Володимир Чернобай,M 50-54,Ukraine,89.5,90,250,265,275,275,,130,-140,140,140,,230,247.5,-255,247.5,,662.5,M,SBD,Multi-ply,
2,Sergio Bianshi,50,,M 50-54,Italy,89.1,90,240,-255,255,255,,125,130,132.5,132.5,,200,210,,210,,597.5,M,SBD,Multi-ply,
1,József Sztanke,56,,M 55-59,Hungary,90,90,240,272.5,-285,272.5,,190,-210,-210,190,,210,230,240.5,240.5,,703,M,SBD,Multi-ply,
1,Denis Buschke,38,,Submasters,Germany,88.2,90,300,-310,-310,300,,150,155,-160,155,,240,255,260,260,,715,M,SBD,Multi-ply,
2,Didier LeBrun,38,,Submasters,France,87.5,90,-180,180,-200,180,,137.5,-160,-160,137.5,,180,195,-212.5,195,,512.5,M,SBD,Multi-ply,
1,Márk Susovits,23,,Juniors,Hungary,97,100,-250,260,275,275,,170,180,190,190,,250,265,276,276,285,741,M,SBD,Multi-ply,
2,Marek Toman,21,,Juniors,Slovakia,98.3,100,280,-305,-305,280,,-160,160,170,170,,200,-210,210,210,,660,M,SBD,Multi-ply,
3,Erik Karvai,23,,Juniors,Slovakia,94.3,100,225,-240,-240,225,,170,-180,180,180,,210,-220,220,220,,625,M,SBD,Multi-ply,
1,Jaromír Kratochvíl,32,,Open,Czechia,99.8,100,350,360,,360,,240,250,-255,250,,270,277.5,290,290,,900,M,SBD,Multi-ply,
2,Peter Linsmaier,26,,Open,Slovakia,99,100,300,320,340,340,,200,215,220,220,,285,300,-306,300,-306,860,M,SBD,Multi-ply,
3,Erik Knöfler,29,,Open,Germany,97.3,100,290,315,325,325,,-200,200,207.5,207.5,,260,275,-282.5,275,,807.5,M,SBD,Multi-ply,
4,Attila Szücs,34,,Open,Hungary,99.3,100,-305,305,-330,305,,140,160,200,200,,240,260,-275,260,,765,M,SBD,Multi-ply,
5,Sven Lorenz,31,,Open,Germany,99.3,100,300,-310,310,310,,190,-240,-245,190,,260,-270,-270,260,,760,M,SBD,Multi-ply,
6,Andrej Smutný,33,,Open,Slovakia,95.6,100,-270,-270,270,270,,-220,225,-230,225,,240,250,257.5,257.5,,752.5,M,SBD,Multi-ply,
7,Štefan Elek,27,,Open,Slovakia,99.8,100,270,-290,-290,270,,190,200,212.5,212.5,,250,270,-285,270,,752.5,M,SBD,Multi-ply,
8,Sergey Didovyk,32,Сергій Дідовик,Open,Ukraine,99.8,100,205,,,205,,275,-285,-285,275,,225,245,-260,245,,725,M,SBD,Multi-ply,
1,Joashim Flett,52,,M 50-54,Germany,100,100,235,245,250,250,,242.5,247.5,-250,247.5,,215,230,242.5,242.5,,740,M,SBD,Multi-ply,
2,Ondrej Döme,54,,M 50-54,Slovakia,94.9,100,-150,150,-155,150,,140,-145,,140,,150,160,165,165,,455,M,SBD,Multi-ply,
1,Józef Sokołowski,55,,M 55-59,Poland,96.3,100,270,290,300,300,,-160,160,-170,160,,280,290,300,300,,760,M,SBD,Multi-ply,
1,Frieder Hashenberger,67,,M 65-69,Germany,98,100,220,-235,-235,220,,150,155.5,,155.5,,190,200,-205.5,200,,575.5,M,SBD,Multi-ply,
1,Markus Schreiber,36,,Submasters,Austria,97.2,100,250,280,290,290,,150,175,-180,175,,240,260,275,275,,740,M,SBD,Multi-ply,
2,Niclas Friberg,36,,Submasters,Sweden,96.8,100,200,,,200,,212.5,-217.5,-217.5,212.5,,200,250,-300.5,250,,662.5,M,SBD,Multi-ply,
1,Péter Kóti,16,,T 16-17,Hungary,104.2,110,180,190,200,200,,110,-115,115,115,,190,205,215,215,,530,M,SBD,Multi-ply,
2,Marcel Dobiš,17,,T 16-17,Slovakia,106.2,110,-140,-140,140,140,,95,105,-110,105,,160,175,-195,175,,420,M,SBD,Multi-ply,
1,Slavomír Struhár,19,,T 18-19,Slovakia,109.9,110,200,220,-240,220,,140,150,-160,150,,210,230,240,240,,610,M,SBD,Multi-ply,
1,Matúš Sobota,22,,Juniors,Slovakia,104.3,110,310,-340,-340,310,,245,255,265,265,,255,277.5,-285,277.5,,852.5,M,SBD,Multi-ply,
2,Boris Nižňanský,23,,Juniors,Slovakia,106.5,110,250,270,,270,,200,215,-225,215,,220,240,250,250,,735,M,SBD,Multi-ply,
3,Mario Weichlinger,21,,Juniors,Austria,104.2,110,160,180,-200,180,,140,150,-160,150,,220,232.5,240,240,,570,M,SBD,Multi-ply,
1,Andriy Yaremus,33,Андрій Яремус,Open,Ukraine,109.3,110,330,350,-365,350,,-220,220,230,230,,300,320,-330,320,,900,M,SBD,Multi-ply,
2,Jaromír Šruc,29,,Open,Czechia,101.7,110,330,350,-360,350,,-200,215,-237.5,215,,240,260,275,275,,840,M,SBD,Multi-ply,
3,Jozef Kopálek,28,,Open,Slovakia,102.1,110,270,280,-290,280,,-140,-200,200,200,,260,270,-275,270,,750,M,SBD,Multi-ply,
4,Stanislav Nikolaenko,32,Станіслав Ніколаєнко,Open,Ukraine,108.7,110,240,250,260,260,,-225,-225,225,225,,240,-250,,240,,725,M,SBD,Multi-ply,
5,Vlodzimierz Hess,27,,Open,Slovakia,105.7,110,-270,-270,270,270,,-205,210,-217.5,210,,240,-250,-250,240,,720,M,SBD,Multi-ply,
6,Zoltán Minihoffer,33,,Open,Hungary,100.9,110,200,220,250,250,,180,-195,200,200,,200,-212.5,217.5,217.5,,667.5,M,SBD,Multi-ply,
7,Didier Michelon,46,,Open,France,110,110,-215,215,,215,,252.5,-302.5,-302.5,252.5,,160,185,-200,185,,652.5,M,SBD,Multi-ply,
1,Viktor Kudi,44,,M 40-44,Czechia,106.1,110,-290,290,310.5,310.5,,220,240,-250.5,240,,240,260,270.5,270.5,,821,M,SBD,Multi-ply,
1,Attila Sándor,59,,M 55-59,Hungary,106.5,110,200,215,,215,,160,172.5,180,180,,180,200,210,210,,605,M,SBD,Multi-ply,
1,Markus Rücker,36,,Submasters,Germany,100.1,110,-285,-300,300,300,,190,-197.5,197.5,197.5,,260,280,-290,280,,777.5,M,SBD,Multi-ply,
2,Marco Lampresht,37,,Submasters,Germany,109.1,110,290,320,-340,320,,-160,-160,160,160,,262.5,280,-300,280,,760,M,SBD,Multi-ply,
3,Norbert Hablicsek,36,,Submasters,Hungary,108.8,110,260,275,-290,275,,180,190,-200,190,,260,275,-280,275,,740,M,SBD,Multi-ply,
4,Viktor Szabó,35,,Submasters,Slovakia,104.8,110,280,295,-305,295,,160,170,-180,170,,240,-260,-275,240,,705,M,SBD,Multi-ply,
1,Gergö Ács,17,,T 16-17,Hungary,115.6,125,240,250,260,260,,150,160,-170,160,,230,240,250,250,,670,M,SBD,Multi-ply,
1,Artem Stepanenko,28,Артем Степаненко,Open,Ukraine,114.5,125,310,330,-340,330,,185,200,-205,200,,230,245,-250,245,,775,M,SBD,Multi-ply,
2,Jozef Svitok,25,,Open,Slovakia,117.4,125,300,-310,-310,300,,200,215,,215,,-260,-260,260,260,,775,M,SBD,Multi-ply,
3,Hannes Possegger,33,,Open,Austria,121,125,250,270,-290,270,,160,180,-185,180,,250,265,270,270,,720,M,SBD,Multi-ply,
DQ,Rishard Haberl,39,,Open,Austria,122.9,125,305,-365,-365,305,,-230,-230,-230,,,,,,,,,M,SBD,Multi-ply,
DQ,Martin Košnar,32,,Open,Czechia,124.2,125,400,420,-440,420,,-320,-320,-320,,,,,,,,,M,SBD,Multi-ply,
1,Robert Glowacki,43,,M 40-44,Poland,115.7,125,250,265,275,275,,100,105,110,110,,240,260,280,280,,665,M,SBD,Multi-ply,
1,Didier Mishelon,46,,M 45-49,France,110.5,125,-210,-210,210,210,,250,,,250,,140,170,192.5,192.5,,652.5,M,SBD,Multi-ply,
1,Dušan Piačka,53,,M 50-54,Slovakia,110.9,125,115,-140,-150,115,,95,105,,105,,145,162.5,170,170,,390,M,SBD,Multi-ply,
1,Róbert Németh,35,,Submasters,Hungary,124,125,330,-340,,330,,230,250.5,260,260,,260,280,-302.5,280,,870,M,SBD,Multi-ply,
2,Stephen Parkhurst,36,,Submasters,USA,117.3,125,250,272.5,,272.5,,210,-235.5,,210,,250,272.5,,272.5,,755,M,SBD,Multi-ply,
DQ,Nico Gollnisk,19,,T 18-19,Germany,137.5,140,-245,-250,-255,,,,,,,,,,,,,,M,SBD,Multi-ply,
1,Boris Švirec,46,,M 45-49,Slovakia,126.6,140,150,160,170,170,,140,,,140,,170,180,200,200,,510,M,SBD,Multi-ply,
1,Danny Schmalz,36,,Submasters,Germany,126.1,140,370,380,,380,,232.5,-255,,232.5,,265,290,300,300,,912.5,M,SBD,Multi-ply,
1,Daniel Dömötor László,18,,T 18-19,Hungary,153.2,140+,210,230,240,240,,110,120,125,125,,215,-243,-243,215,-243,580,M,SBD,Multi-ply,
1,Serhiy Oleolenko,32,Сергій Олеоленко,Open,Ukraine,149.3,140+,-430,-430,430,430,,260,270,-275,270,,350,-390,-410,350,,1050,M,SBD,Multi-ply,
2,Martin Vaško,33,,Open,Czechia,151.5,140+,330,355,-370,355,,210,225,-230,225,,270,290,-300,290,,870,M,SBD,Multi-ply,
1,Hubert Dörer,44,,M 40-44,Austria,144.8,140+,250,280,-305,280,,180,200,212.5,212.5,,240,265,,265,,757.5,M,SBD,Multi-ply,
1,Joanna Tkasz,16,,T 16-17,Poland,55.2,56,,,,,,50,55,-57.5,55,,,,,,,55,F,B,Multi-ply,1994
1,Irina Hoppner-Schmalz,34,,Open,Germany,54.8,56,,,,,,62.5,-67.5,-67.5,62.5,,,,,,,62.5,F,B,Multi-ply,1976
1,Sigrid Tietz,61,,M 60-64,Germany,55,56,,,,,,57.5,63,-65,63,,,,,,,63,F,B,Multi-ply,1948
1,Ilona Birkás,37,,Submasters,Hungary,55.6,56,,,,,,65,70,-76,70,76,,,,,,70,F,B,Multi-ply,1973
1,Kseniya Panchenko,34,Ксенія Панченко,Open,Ukraine,59.9,60,,,,,,-45,45,50,50,,,,,,,50,F,B,Multi-ply,1976
1,Chantal Rostagnat,43,,M 40-44,France,59.7,60,,,,,,-73,-75,75,75,-80,,,,,,75,F,B,Multi-ply,1967
1,Ilona Gehringer,58,,M 55-59,Germany,58,60,,,,,,77.5,82.5,-85,82.5,,,,,,,82.5,F,B,Multi-ply,1952
1,Rita Nagy,36,,Submasters,Hungary,58.8,60,,,,,,105,110,112.5,112.5,-121,,,,,,112.5,F,B,Multi-ply,1974
1,Kerstin Sacks,32,,Open,Germany,65,67.5,,,,,,60,62.5,-65,62.5,,,,,,,62.5,F,B,Multi-ply,1977
2,Vita Zatvarska,31,Віта Затварська,Open,Ukraine,65.2,67.5,,,,,,55,-62.5,,55,,,,,,,55,F,B,Multi-ply,1979
1,Viola Kongehl,42,,M 40-44,Germany,65.5,67.5,,,,,,60,,,60,,,,,,,60,F,B,Multi-ply,1968
1,Zsuszana Németh,55,,M 55-59,Hungary,66.9,67.5,,,,,,72.5,77.5,82.5,82.5,88,,,,,,82.5,F,B,Multi-ply,1955
2,Christine Ebering,59,,M 55-59,Germany,66,67.5,,,,,,60,-65,67.5,67.5,,,,,,,67.5,F,B,Multi-ply,1951
1,Christel Schubert,65,,M 65-69,Germany,61,67.5,,,,,,35,40,-42.5,40,,,,,,,40,F,B,Multi-ply,1945
1,Magdalena Splawinska,16,,T 16-17,Poland,71,75,,,,,,60,-62.5,,60,,,,,,,60,F,B,Multi-ply,1994
1,Piroska Horvath,39,,Submasters,Hungary,67.5,67.5,,,,,,122.5,127.5,130,130,133.5,,,,,,130,F,B,Multi-ply,
1,Sandra Mokrá,31,,Open,Slovakia,71.2,75,,,,,,102.5,107.5,112.5,112.5,,,,,,,112.5,F,B,Multi-ply,1979
2,Jolanta Wrona,25,,Open,Poland,74.2,75,,,,,,-70,70,-72.5,70,,,,,,,70,F,B,Multi-ply,1985
1,Katalin Rohrmann,57,,M 55-59,Hungary,74,75,,,,,,80,85,90,90,,,,,,,90,F,B,Multi-ply,1953
1,Katarzyna Chaciewicz,30,,Open,Poland,77.1,82.5,,,,,,-75,75,-80,75,,,,,,,75,F,B,Multi-ply,1979
1,Libuše Leiblová,49,,M 45-49,Czechia,80.1,82.5,,,,,,120,131,-135,131,,,,,,,131,F,B,Multi-ply,1960
2,Heide Geber,47,,M 45-49,Germany,77,82.5,,,,,,60,65,-70,65,,,,,,,65,F,B,Multi-ply,1963
1,Marzena Wysoska,41,,M 40-44,Poland,98.6,90+,,,,,,115,-120,120,120,127.5,,,,,,120,F,B,Multi-ply,1969
1,Aldona Kaczan,38,,Submasters,Poland,92,90+,,,,,,-75,75,-80,75,,,,,,,75,F,B,Multi-ply,1972
1,Mishal Kretosz,17,,T 16-17,Poland,59.8,60,,,,,,112.5,116,-120,116,-120,,,,,,116,M,B,Multi-ply,1993
1,Lukasz Siawluk,18,,T 18-19,Poland,58.2,60,,,,,,70,80,-87.5,80,,,,,,,80,M,B,Multi-ply,1992
1,Marsin Wandel,22,,Juniors,Poland,60,60,,,,,,100,121,-130,121,,,,,,,121,M,B,Multi-ply,1988
1,Rupert Wick,44,,Open,Germany,57.2,60,,,,,,150,161,165,165,,,,,,,165,M,B,Multi-ply,1966
1,Rupert Wisk,44,,M 40-44,Germany,57.2,60,,,,,,150,157.5,-162.5,157.5,162.5,,,,,,157.5,M,B,Multi-ply,1966
1,Adrian Kopania,17,,T 16-17,Poland,66.7,67.5,,,,,,130,-135,135,135,145,,,,,,135,M,B,Multi-ply,1993
2,Martin Švirec,17,,T 16-17,Slovakia,64.4,67.5,,,,,,80,90,-100,90,,,,,,,90,M,B,Multi-ply,1993
1,Dániel Égei,18,,T 18-19,Hungary,66.5,67.5,,,,,,140,150,157.5,157.5,-160,,,,,,157.5,M,B,Multi-ply,1992
2,Pawel Miginko,19,,T 18-19,Poland,65.6,67.5,,,,,,130,-156,-156,130,-158,,,,,,130,M,B,Multi-ply,1991
1,Lukasz Kretosz,20,,Juniors,Poland,64.5,67.5,,,,,,-150,150,-152,150,-155,,,,,,150,M,B,Multi-ply,1990
2,Manuel Wolf,21,,Juniors,Germany,67.1,67.5,,,,,,-145,147.5,-150,147.5,,,,,,,147.5,M,B,Multi-ply,1989
1,Viktor Piskunov,29,Виктор Пискунов,Open,Ukraine,67.4,67.5,,,,,,190,195,200,200,,,,,,,200,M,B,Multi-ply,1981
2,Sandro Kreller,29,,Open,Germany,66.1,67.5,,,,,,-155,155,-165,155,,,,,,,155,M,B,Multi-ply,1980
3,Pawel Miginko,19,,Open,Poland,65.3,67.5,,,,,,140,-157.5,,140,,,,,,,140,M,B,Multi-ply,1991
1,Werner Rampler,45,,M 45-49,Austria,65.7,67.5,,,,,,105,110,-117.5,110,,,,,,,110,M,B,Multi-ply,
1,Martin Heindl,54,,M 50-54,Austria,66.6,67.5,,,,,,105,-110,-110,105,,,,,,,105,M,B,Multi-ply,1955
1,Ulrich Mielich,71,,M 70-74,Germany,66.2,67.5,,,,,,60,65,67.5,67.5,,,,,,,67.5,M,B,Multi-ply,1939
1,Zbigniew Gulajski,39,,Submasters,Poland,67,67.5,,,,,,147.5,-152.5,152.5,152.5,-155,,,,,,152.5,M,B,Multi-ply,1971
1,Mateusz Kalinowski,17,,T 16-17,Poland,68.7,75,,,,,,-120,120,130,130,,,,,,,130,M,B,Multi-ply,1993
2,Miroslav Čaba,17,,T 16-17,Slovakia,71.7,75,,,,,,120,-130,-130,120,,,,,,,120,M,B,Multi-ply,1993
1,Mariusz Warowny,19,,T 18-19,Poland,74.3,75,,,,,,160,170,181,181,,,,,,,181,M,B,Multi-ply,1991
2,Pawel Czempiel,18,,T 18-19,Poland,70.8,75,,,,,,-115,115,-120,115,,,,,,,115,M,B,Multi-ply,1992
1,Sergej Lisenko,22,,Juniors,Germany,72.9,75,,,,,,-160,-160,162.5,162.5,,,,,,,162.5,M,B,Multi-ply,1988
2,Filip Stanko,20,,Juniors,Slovakia,70.2,75,,,,,,145,155,160,160,,,,,,,160,M,B,Multi-ply,1990
3,Tomasz Lipka,20,,Juniors,Poland,68.7,75,,,,,,110,-150,150,150,,,,,,,150,M,B,Multi-ply,1990
4,Peter Matovič,21,,Juniors,Slovakia,73.9,75,,,,,,-130,135,-150,135,,,,,,,135,M,B,Multi-ply,1989
1,Erik Bačinský,32,,Open,Slovakia,74.3,75,,,,,,205,215,-220,215,,,,,,,215,M,B,Multi-ply,1978
1,Igor Povazhniuk,35,Игорь Поважнюк,Open,Ukraine,73.9,75,,,,,,165,-175,175,175,,,,,,,175,M,B,Multi-ply,1974
2,Krzysztof Jeziorowski,27,,Open,Poland,73,75,,,,,,140,145,150,150,,,,,,,150,M,B,Multi-ply,1983
1,Vladimir Lapynin,40,Владимир Лапынин,M 40-44,Russia,74.4,75,,,,,,170,185,-195,185,,,,,,,185,M,B,Multi-ply,1970
1,Sylvio Dölz,51,,M 50-54,Germany,74.8,75,,,,,,135,140,145,145,150,,,,,,145,M,B,Multi-ply,1958
DQ,Uwe Herfort,50,,M 50-54,Germany,74.2,75,,,,,,-160,-162.5,-162.5,,,,,,,,,M,B,Multi-ply,
1,Rudolf Dávid,57,,M 55-59,Hungary,69.2,75,,,,,,-125,125,130,130,,,,,,,130,M,B,Multi-ply,1953
2,Uwe Ebering,59,,M 55-59,Slovakia,72.9,75,,,,,,110,112.5,-115,112.5,,,,,,,112.5,M,B,Multi-ply,1951
1,Reinhold Sask,64,,M 60-64,Germany,74.5,75,,,,,,150,-155,157.5,157.5,,,,,,,157.5,M,B,Multi-ply,1946
1,József Baranyai,70,,M 70-74,Hungary,73.6,75,,,,,,100,107.5,-112.5,107.5,-112.5,,,,,,107.5,M,B,Multi-ply,1940
2,Bernhard Gromadesky,73,,M 70-74,Germany,74.8,75,,,,,,82.5,-87.5,-90,82.5,,,,,,,82.5,M,B,Multi-ply,1937
1,Macsin Herok,35,,Submasters,Poland,74,75,,,,,,150,160,-167.5,160,,,,,,,160,M,B,Multi-ply,1975
2,Michel Diez,39,,Submasters,France,73.2,75,,,,,,110,-140,-145,110,,,,,,,110,M,B,Multi-ply,1971
1,Károly Szabó,19,,T 18-19,Hungary,76.7,82.5,,,,,,-190,190,-196,190,,,,,,,190,M,B,Multi-ply,1991
2,Marek Vorčák,18,,T 18-19,Slovakia,81.9,82.5,,,,,,125,-135,135,135,,,,,,,135,M,B,Multi-ply,1992
3,Matus Metes,18,,T 18-19,Slovakia,78.2,82.5,,,,,,-125,125,-135,125,,,,,,,125,M,B,Multi-ply,1992
1,Tomáš Bugáň,20,,Juniors,Slovakia,82.2,82.5,,,,,,-190,-190,192.5,192.5,,,,,,,192.5,M,B,Multi-ply,1990
2,Robert Kasjaniuk,21,,Juniors,Poland,82.5,82.5,,,,,,192.5,-200,-200,192.5,,,,,,,192.5,M,B,Multi-ply,1989
3,Daniel Maľa,23,,Juniors,Slovakia,78.1,82.5,,,,,,165,170,175,175,,,,,,,175,M,B,Multi-ply,1986
4,Robert Kohút,20,,Juniors,Slovakia,82.5,82.5,,,,,,150,-160,160,160,,,,,,,160,M,B,Multi-ply,1990
1,István Juhász,34,,Open,Hungary,82.3,82.5,,,,,,260,-270,-270,260,-270,,,,,,260,M,B,Multi-ply,1976
2,Ŀukasz Kozłowski,25,,Open,Poland,81.8,82.5,,,,,,210,-220,222.5,222.5,,,,,,,222.5,M,B,Multi-ply,1985
3,Dawid Deptush,23,,Open,Poland,82.5,82.5,,,,,,-207.5,-207.5,207.5,207.5,,,,,,,207.5,M,B,Multi-ply,1986
1,Zygmunt Wysoski,44,,M 40-44,Poland,82.3,82.5,,,,,,160,-196,-196,160,,,,,,,160,M,B,Multi-ply,1966
1,Thomas Wagner,54,,M 50-54,Germany,79.8,82.5,,,,,,115,-117.5,-117.5,115,,,,,,,115,M,B,Multi-ply,1956
1,Bernard Hojka,57,,M 55-59,Poland,79.1,82.5,,,,,,130,-140,-140,130,,,,,,,130,M,B,Multi-ply,1953
2,Ireneusz Czupryn,55,,M 55-59,Poland,82.5,82.5,,,,,,-95,95,-120,95,,,,,,,95,M,B,Multi-ply,
1,Franz Haar,63,,M 60-64,Austria,76.8,82.5,,,,,,112.5,120,122.5,122.5,,,,,,,122.5,M,B,Multi-ply,1947
1,Mathis Elmar,72,,M 70-74,Austria,82,82.5,,,,,,105,-115,115,115,,,,,,,115,M,B,Multi-ply,1938
1,Dávid Mészáros,17,,T 16-17,Hungary,89.2,90,,,,,,180,185,-193,185,-193,,,,,,185,M,B,Multi-ply,1993
2,Rishárd Budai,17,,T 16-17,Hungary,84.1,90,,,,,,180,-185,-185,180,,,,,,,180,M,B,Multi-ply,1993
1,Ákos Oláh,21,,Juniors,Hungary,86.7,90,,,,,,225,230,235,235,,,,,,,235,M,B,Multi-ply,1989
2,Zoltán Hachbold,23,,Juniors,Hungary,83.8,90,,,,,,220,-230,-232.5,220,,,,,,,220,M,B,Multi-ply,1986
3,Damian Furga,21,,Juniors,Poland,90,90,,,,,,-175,175,-202.5,175,,,,,,,175,M,B,Multi-ply,1989
4,Vladimir Metes,20,,Juniors,Slovakia,83.7,90,,,,,,-150,160,-170,160,,,,,,,160,M,B,Multi-ply,1990
1,Roman Maršálek,33,,Open,Czechia,90,90,,,,,,220,-240,240,240,,,,,,,240,M,B,Multi-ply,1977
2,Mariusz Kominek,26,,Open,Poland,89.6,90,,,,,,195,205,-222.5,205,,,,,,,205,M,B,Multi-ply,
3,Ŀukasz Marsińkowski,24,,Open,Poland,89.5,90,,,,,,185,202.5,-220,202.5,,,,,,,202.5,M,B,Multi-ply,1986
4,Oleg Vykhovanets,38,Олег Вихованець,Open,Ukraine,90,90,,,,,,-150,-150,150,150,,,,,,,150,M,B,Multi-ply,1972
1,László Kupcsik,43,,M 40-44,Hungary,89.3,90,,,,,,245,255,265,265,,,,,,,265,M,B,Multi-ply,1967
2,Steffen Reisbash,42,,M 40-44,Germany,89.4,90,,,,,,170,175,-177.5,175,,,,,,,175,M,B,Multi-ply,1967
1,Mishael Gust,46,,M 45-49,Germany,86.6,90,,,,,,95,100,-105,100,,,,,,,100,M,B,Multi-ply,1964
1,Peter Horst Rathke,50,,M 50-54,Germany,88.6,90,,,,,,200,-207.5,-207.5,200,,,,,,,200,M,B,Multi-ply,
2,Franciszek Szabluk,54,,M 50-54,Poland,90,90,,,,,,190,-202.5,-212,190,,,,,,,190,M,B,Multi-ply,1956
3,Jozef Belica,54,,M 50-54,Slovakia,89.9,90,,,,,,140,150,-155,150,,,,,,,150,M,B,Multi-ply,1956
1,Ferenc Kelemen,55,,M 55-59,Hungary,88.7,90,,,,,,130,150,-155,150,155,,,,,,150,M,B,Multi-ply,1954
2,Armin Heinz Bunzel,58,,M 55-59,Germany,88.3,90,,,,,,145,-150,-150,145,,,,,,,145,M,B,Multi-ply,1952
1,Franz Krivanek,70,,M 70-74,Austria,88,90,,,,,,70,72.5,75,75,,,,,,,75,M,B,Multi-ply,1940
1,Vladimír Urban,37,,Submasters,Slovakia,89.2,90,,,,,,250,262.5,-270,262.5,,,,,,,262.5,M,B,Multi-ply,1973
2,Ladislav Hricišče,39,,Submasters,Slovakia,90,90,,,,,,155,165,170,170,,,,,,,170,M,B,Multi-ply,1971
3,Didier LeBrun,38,,Submasters,France,87,90,,,,,,135,-160,-160,135,,,,,,,135,M,B,Multi-ply,1972
1,Matus Muránsky,17,,T 16-17,Slovakia,96.4,100,,,,,,-150,150,157.5,157.5,165,,,,,,157.5,M,B,Multi-ply,1993
1,Gábor Katona,19,,T 18-19,Hungary,92.5,100,,,,,,-250,250,-270,250,,,,,,,250,M,B,Multi-ply,1991
2,Máté Szilágyi,19,,T 18-19,Hungary,92.8,100,,,,,,235,-240,240,240,,,,,,,240,M,B,Multi-ply,1991
3,Krisztián Konrád,19,,T 18-19,Hungary,97.7,100,,,,,,190,200,210,210,,,,,,,210,M,B,Multi-ply,1991
1,Jozef Suplicz,23,,Juniors,Slovakia,100,100,,,,,,-250,-260,260,260,,,,,,,260,M,B,Multi-ply,1987
2,Jozef Čambál,22,,Juniors,Slovakia,93.1,100,,,,,,205,215,-225,215,,,,,,,215,M,B,Multi-ply,1988
1,Vladimir Flimel,33,,Open,Slovakia,99.4,100,,,,,,280,-285,-285,280,,,,,,,280,M,B,Multi-ply,1976
2,Piotr Herold,26,,Open,Poland,98.7,100,,,,,,260,275,-280,275,,,,,,,275,M,B,Multi-ply,
3,Sergey Didovyk,32,Сергій Дідовик,Open,Ukraine,99.9,100,,,,,,275,-282.5,-282.5,275,,,,,,,275,M,B,Multi-ply,1978
4,Krzysztof Zakrzewski,32,,Open,Poland,96.9,100,,,,,,235,242.5,-250,242.5,,,,,,,242.5,M,B,Multi-ply,1977
5,Patrik Peciar,24,,Open,Slovakia,96.3,100,,,,,,220,230,-242.5,230,,,,,,,230,M,B,Multi-ply,1986
6,Róbert Csetényi,33,,Open,Hungary,98.6,100,,,,,,200,210,217.5,217.5,,,,,,,217.5,M,B,Multi-ply,1976
7,Peter Lincmaier,26,,Open,Slovakia,98.8,100,,,,,,200,215,-230,215,,,,,,,215,M,B,Multi-ply,1983
8,Heiko Fritzsch,31,,Open,Germany,91.2,100,,,,,,200,-215,,200,,,,,,,200,M,B,Multi-ply,1979
DQ,Zsolt Hetyési,25,,Open,Hungary,93.3,100,,,,,,-270,-280,,,,,,,,,,M,B,Multi-ply,1985
DQ,Daniel Kaufmann,34,,Open,Germany,97.7,100,,,,,,-250,-250,-262.5,,,,,,,,,M,B,Multi-ply,1976
DQ,Pavlo Chumak,34,Павло Чумак,Open,Ukraine,94.5,100,,,,,,-200,-200,,,,,,,,,,M,B,Multi-ply,1976
1,Uwe Hofmann,44,,M 40-44,Germany,90.8,100,,,,,,170,180,190,190,,,,,,,190,M,B,Multi-ply,1966
2,Roman Vida,40,,M 40-44,Slovakia,99.6,100,,,,,,-172.5,177.5,182.5,182.5,,,,,,,182.5,M,B,Multi-ply,1969
3,Joachim Krebs,42,,M 40-44,Austria,96.8,100,,,,,,165,170,-177.5,170,,,,,,,170,M,B,Multi-ply,1968
1,Wiesław Wrŏbel,53,,M 50-54,Poland,96,100,,,,,,180,185,-190,185,,,,,,,185,M,B,Multi-ply,1957
2,Ulfert Rinas,51,,M 50-54,Germany,99.7,100,,,,,,185,-190,-190,185,,,,,,,185,M,B,Multi-ply,1959
3,Adam Csupori,53,,M 50-54,Slovakia,96.8,100,,,,,,170,180,-187.5,180,,,,,,,180,M,B,Multi-ply,1957
1,Axel Gersdorf,59,,M 55-59,Germany,97.8,100,,,,,,-215,215,-221,215,-221,,,,,,215,M,B,Multi-ply,1951
2,Krzysztof Kołodziej,56,,M 55-59,Poland,90.6,100,,,,,,-160,160,-170,160,,,,,,,160,M,B,Multi-ply,1954
1,Wolfgang Loof,62,,M 60-64,Germany,91.7,100,,,,,,150,157.5,-162.5,157.5,,,,,,,157.5,M,B,Multi-ply,1948
2,Mishal Juriš,62,,M 60-64,Slovakia,92.5,100,,,,,,110,115,120,120,,,,,,,120,M,B,Multi-ply,1948
1,Roland Schubert,70,,M 70-74,Germany,90.5,100,,,,,,-127.5,127.5,-135,127.5,,,,,,,127.5,M,B,Multi-ply,1940
1,Arkadiusz Herold,37,,Submasters,Poland,95,100,,,,,,212.5,220,230,230,,,,,,,230,M,B,Multi-ply,1973
2,Artur Herold,38,,Submasters,Poland,94.8,100,,,,,,-210,215,-220,215,,,,,,,215,M,B,Multi-ply,
3,Juliusz Zbierski,36,,Submasters,Poland,95.2,100,,,,,,207.5,-215,-217.5,207.5,,,,,,,207.5,M,B,Multi-ply,1974
1,Radoslav Tomašovič,18,,T 18-19,Slovakia,100.1,110,,,,,,-180,180,190,190,,,,,,,190,M,B,Multi-ply,1991
1,Rafal Zawadzki,34,,Open,Poland,103.4,110,,,,,,290,300,-311.5,300,,,,,,,300,M,B,Multi-ply,1976
2,Jozef Kopálek,28,,Open,Slovakia,103.9,110,,,,,,205,-215,-215,205,,,,,,,205,M,B,Multi-ply,1981
3,William Graham,54,,Open,USA,109,110,,,,,,175,-210,-220,175,,,,,,,175,M,B,Multi-ply,1956
DQ,Didier Michelon,46,,Open,France,110,110,,,,,,-311.5,-311.5,,,,,,,,,,M,B,Multi-ply,1963
DQ,Kenneth Millrany,47,,Open,USA,108.5,110,,,,,,-300,-320,-320,,,,,,,,,M,B,Multi-ply,1963
1,Ferenc Balázs,40,,M 40-44,Hungary,106.4,110,,,,,,250,-260,260,260,-270,,,,,,260,M,B,Multi-ply,1970
2,Istvan Macz,41,,M 40-44,Hungary,109.8,110,,,,,,-230,-230,230,230,,,,,,,230,M,B,Multi-ply,1969
1,Kenneth Millrany,47,,M 45-49,USA,109,110,,,,,,-301,306,-326,306,,,,,,,306,M,B,Multi-ply,1963
2,Tamás Brauner,49,,M 45-49,Hungary,107.4,110,,,,,,220,240,245,245,,,,,,,245,M,B,Multi-ply,1960
3,Dušan Brenkus,46,,M 45-49,Slovakia,109,110,,,,,,180,190,-200,190,,,,,,,190,M,B,Multi-ply,
1,Uwe Eckert,52,,M 50-54,Germany,105.4,110,,,,,,200,-210,212.5,212.5,220,,,,,,212.5,M,B,Multi-ply,1958
2,Tibor Koczó,53,,M 50-54,Hungary,103.4,110,,,,,,170,-180,180,180,,,,,,,180,M,B,Multi-ply,1957
DQ,William Graham,54,,M 50-54,USA,108.5,110,,,,,,-200,-200,-211,,,,,,,,,M,B,Multi-ply,1956
1,Karel Leibl,55,,M 55-59,Czechia,103.9,110,,,,,,160,-170,-170,160,,,,,,,160,M,B,Multi-ply,1954
1,Joachim Eulenstein,64,,M 60-64,Germany,109.2,110,,,,,,150,175,-180,175,,,,,,,175,M,B,Multi-ply,
1,Jánkó Endre,38,,Submasters,Hungary,107.3,110,,,,,,260,-265,-265,260,,,,,,,260,M,B,Multi-ply,1972
2,Henrich Hekš,39,,Submasters,Slovakia,109.3,110,,,,,,250,-262.5,-262.5,250,,,,,,,250,M,B,Multi-ply,1971
3,Sebastjan Rafał Balner,37,,Submasters,Poland,101.3,110,,,,,,210,220,230,230,,,,,,,230,M,B,Multi-ply,1973
1,Norbert Stranszki,23,,Juniors,Hungary,120.4,125,,,,,,240,252.5,-260,252.5,,,,,,,252.5,M,B,Multi-ply,1986
2,Sergiy Oliynik,22,Сергій Олійник,Juniors,Ukraine,114,125,,,,,,200,,,200,,,,,,,200,M,B,Multi-ply,1987
DQ,Ľubomír Gréger,23,,Juniors,Slovakia,115.9,125,,,,,,-280,-280,,,,,,,,,,M,B,Multi-ply,1987
1,Sándor Vörös,34,,Open,Slovakia,117.3,125,,,,,,245,255,262.5,262.5,,,,,,,262.5,M,B,Multi-ply,1975
2,William Welch,49,,Open,USA,124.4,125,,,,,,250,262.5,-267.5,262.5,,,,,,,262.5,M,B,Multi-ply,1961
3,Peter Funtík,31,,Open,Slovakia,122.4,125,,,,,,242.5,252.5,-257.5,252.5,,,,,,,252.5,M,B,Multi-ply,1978
4,Csaba Kovács,30,,Open,Hungary,111.7,125,,,,,,240,-250,-262.5,240,,,,,,,240,M,B,Multi-ply,1980
5,Alexander Szoboszlai,34,,Open,Slovakia,117.3,125,,,,,,230,-240,-245,230,,,,,,,230,M,B,Multi-ply,1976
6,René Amann,25,,Open,Austria,117.4,125,,,,,,230,-250,-250,230,,,,,,,230,M,B,Multi-ply,1985
1,Igor Pober,42,Ігор Побер,M 40-44,Ukraine,120.7,125,,,,,,240,245,-250,245,,,,,,,245,M,B,Multi-ply,1968
2,Roman Capák,40,,M 40-44,Slovakia,112.7,125,,,,,,190,-200,-200,190,,,,,,,190,M,B,Multi-ply,1970
DQ,Béla Kling,42,,M 40-44,Hungary,117.9,125,,,,,,-200,-205,-205,,,,,,,,,M,B,Multi-ply,1968
1,Didier Michelon,46,,M 45-49,France,111.3,125,,,,,,-310,310,-315,310,,,,,,,310,M,B,Multi-ply,1963
2,Peter Ihlenfeld,47,,M 45-49,Germany,112.8,125,,,,,,-195,200,205,205,,,,,,,205,M,B,Multi-ply,1963
DQ,William Welsh,49,,M 45-49,USA,122.5,125,,,,,,-282.5,-282.5,-282.5,,,,,,,,,M,B,Multi-ply,1961
1,Václav Vimmer,50,,M 50-54,Czechia,117,125,,,,,,170,192.5,-207.5,192.5,,,,,,,192.5,M,B,Multi-ply,1959
2,Romeo Lampresht,51,,M 50-54,Austria,114.7,125,,,,,,180,190,-200,190,,,,,,,190,M,B,Multi-ply,1959
3,Lutz Dürre,50,,M 50-54,Germany,121.3,125,,,,,,-180,187.5,-207.5,187.5,,,,,,,187.5,M,B,Multi-ply,1960
DQ,László Kolozsvári,53,,M 50-54,Hungary,116.3,125,,,,,,-100,-100,-100,,,,,,,,,M,B,Multi-ply,1956
DQ,Jozef Péter,59,,M 55-59,Slovakia,124.4,125,,,,,,-190,-190,-190,,,,,,,,,M,B,Multi-ply,1950
1,Simon Reitzle,61,,M 60-64,Germany,112.7,125,,,,,,171,-172,175,175,177.5,,,,,,175,M,B,Multi-ply,1949
1,Franz Seewald,39,,Submasters,Austria,123.5,125,,,,,,230,-260,-260,230,,,,,,,230,M,B,Multi-ply,1971
1,Nico Gollnick,19,,T 18-19,Germany,136.7,140,,,,,,200,215,-222,215,,,,,,,215,M,B,Multi-ply,1991
1,Peter Puszér,21,,Juniors,Slovakia,139.4,140,,,,,,-200,200,-225,200,225,,,,,,200,M,B,Multi-ply,1989
1,László Mészáros,41,,Open,Hungary,126,140,,,,,,330,342.5,-360,342.5,,,,,,,342.5,M,B,Multi-ply,1968
2,Dragan Janosevic,30,,Open,Austria,130.5,140,,,,,,220,235,245,245,,,,,,,245,M,B,Multi-ply,1980
1,Tomas Veselý,43,,M 40-44,Czechia,135.8,140,,,,,,240,-250,-261,240,,,,,,,240,M,B,Multi-ply,1967
2,Kai-Uwe Werner,40,,M 40-44,Germany,126.7,140,,,,,,-225,-225,225,225,,,,,,,225,M,B,Multi-ply,1970
1,Karol Kornel Repiský,46,,M 45-49,Slovakia,127.3,140,,,,,,205,-215,-215,205,,,,,,,205,M,B,Multi-ply,1964
2,Andrzej Koziel,48,,M 45-49,Poland,130.3,140,,,,,,160,-170,-170,160,,,,,,,160,M,B,Multi-ply,1962
DQ,Boris Švirec,46,,M 45-49,Slovakia,126.5,140,,,,,,-220,-220,-220,,,,,,,,,M,B,Multi-ply,1964
1,Norbert Schade,62,,M 60-64,Germany,130.7,140,,,,,,200,-205,,200,,,,,,,200,M,B,Multi-ply,1948
1,Adam Kozlowski,37,,Submasters,Poland,137.5,140,,,,,,-270,270,277.5,277.5,,,,,,,277.5,M,B,Multi-ply,1973
2,Andrzej Swierszcz,38,,Submasters,Poland,132.3,140,,,,,,-260,260,275,275,,,,,,,275,M,B,Multi-ply,1972
3,Danny Schmalz,36,,Submasters,Germany,126.6,140,,,,,,245,-267.5,-267.5,245,,,,,,,245,M,B,Multi-ply,
1,Milan Šuľan,26,,Open,Slovakia,140.1,140+,,,,,,220,-240,-242.5,220,,,,,,,220,M,B,Multi-ply,1984
1,Gábor Menyes,50,,M 50-54,Hungary,141.1,140+,,,,,,240,-270,-270,240,,,,,,,240,M,B,Multi-ply,1960
2,Péter Mihály,52,,M 50-54,Slovakia,146,140+,,,,,,240,-250,-250,240,,,,,,,240,M,B,Multi-ply,1958
1,Karel Koldovský,38,,Submasters,Czechia,140.7,140+,,,,,,270,282.5,-301.5,282.5,,,,,,,282.5,M,B,Multi-ply,1972
2,Radek Sasler,37,,Submasters,Czechia,171.5,140+,,,,,,-200,200,212.5,212.5,,,,,,,212.5,M,B,Multi-ply,1973
3,János Szabó Ozor,37,,Submasters,Hungary,155,140+,,,,,,190,202.5,-210,202.5,,,,,,,202.5,M,B,Multi-ply,1972
