Division,WeightClassKg,Place,Name,Team,BodyweightKg,Best3SquatKg,Best3BenchKg,Best3DeadliftKg,TotalKg,Equipment,Event,Sex
Boys,51.71,1,Timothy Ortiz,Odessa,51.53,145.15,74.84,151.95,371.95,Single-ply,SBD,M
Boys,51.71,2,Peter Padilla,Seminole,49.71,122.47,74.84,151.95,349.27,Single-ply,SBD,M
Boys,51.71,3,Ty Diaz,Andrews,51.07,111.13,61.23,140.61,312.98,Single-ply,SBD,M
Boys,51.71,4,Gage Rigdon,Meadow,51.62,95.25,56.7,140.61,292.57,Single-ply,SBD,M
Boys,51.71,5,Keyvan Constantino,Whiteface,49.62,88.45,58.97,117.93,265.35,Single-ply,SBD,M
Boys,51.71,6,Randy Jones,Seminole,48.17,106.59,49.9,106.59,263.08,Single-ply,SBD,M
Boys,51.71,7,Justin Guffey,Seminole,48.99,68.04,49.9,86.18,204.12,Single-ply,SBD,M
Boys,55.79,1,Arturo Rodriguez,Meadow,54.98,147.42,81.65,149.69,378.75,Single-ply,SBD,M
Boys,55.79,2,Xzavier Estrada,Andrews,54.7,136.08,74.84,131.54,342.46,Single-ply,SBD,M
Boys,55.79,3,Christopher Gonzalez,Andrews,53.98,108.86,58.97,138.35,306.17,Single-ply,SBD,M
Boys,55.79,4,Michael Ortega,Seminole,53.71,108.86,74.84,117.93,301.64,Single-ply,SBD,M
Boys,55.79,5,Jaime Mendoza,Whiteface,55.25,86.18,45.36,99.79,231.33,Single-ply,SBD,M
Boys,59.87,1,Zachary Salazar,Lamesa,58.88,142.88,92.99,167.83,403.7,Single-ply,SBD,M
Boys,59.87,2,Devan Glover,Midland Lee,59.06,111.13,74.84,167.83,353.8,Single-ply,SBD,M
Boys,59.87,3,Zavian Florez,Kermit,56.25,122.47,72.57,138.35,333.39,Single-ply,SBD,M
Boys,59.87,4,Nick Acosta,Seminole,57.42,111.13,90.72,127.01,328.85,Single-ply,SBD,M
Boys,59.87,5,Isaiah Marquez,Seminole,58.6,102.06,74.84,133.81,310.71,Single-ply,SBD,M
Boys,59.87,6,Bryan Fuentes,Kermit,59.78,111.13,72.57,120.2,303.91,Single-ply,SBD,M
Boys,59.87,7,Rafael Castillo,Whiteface,58.88,102.06,52.16,122.47,276.69,Single-ply,SBD,M
Boys,67.13,1,Andrew Alvidrez,Seminole,67.04,244.94,149.69,244.94,639.57,Single-ply,SBD,M
Boys,67.13,2,Ivan Arroyo,Odessa,65.95,204.12,142.88,226.8,573.79,Single-ply,SBD,M
Boys,67.13,3,Christian Arzabala,Andrews,63.32,176.9,92.99,188.24,458.13,Single-ply,SBD,M
Boys,67.13,4,Raul Vasquez,Andrews,64.5,142.88,83.91,165.56,392.36,Single-ply,SBD,M
Boys,67.13,5,Britin Garcia,Andrews,62.05,145.15,74.84,158.76,378.75,Single-ply,SBD,M
Boys,67.13,6,Jose Nieto,Odessa,63.41,142.88,72.57,145.15,360.61,Single-ply,SBD,M
Boys,67.13,7,Ransom Edwards,Seminole,62.96,136.08,68.04,136.08,340.19,Single-ply,SBD,M
Boys,67.13,8,Joshua Trevino,Kermit,65.77,131.54,70.31,136.08,337.93,Single-ply,SBD,M
Boys,67.13,9,Braiden Clemence,Midland Lee,65.5,117.93,70.31,142.88,331.12,Single-ply,SBD,M
Boys,67.13,10,Michael Flores,Lamesa,64.86,120.2,68.04,124.74,312.98,Single-ply,SBD,M
Boys,67.13,11,Quade Hunt,Kermit,65.86,111.13,65.77,136.08,312.98,Single-ply,SBD,M
Boys,67.13,12,Matthew Thompson,Lamesa,60.42,120.2,63.5,120.2,303.91,Single-ply,SBD,M
Boys,67.13,13,Chris Davis,Meadow,63.68,104.33,65.77,124.74,294.84,Single-ply,SBD,M
Boys,67.13,14,Jayden Prater,Midland Lee,63.96,102.06,70.31,122.47,294.84,Single-ply,SBD,M
Boys,67.13,15,Mathew Morando,Meadow,60.33,95.25,65.77,115.67,276.69,Single-ply,SBD,M
Boys,67.13,DQ,Tahj Johnson,Midland Lee,66.41,124.74,,,,Single-ply,SBD,M
Boys,67.13,DQ,Jeremy Reyes,Odessa,63.78,174.63,106.59,,,Single-ply,SBD,M
Boys,82.1,1,Marcus Ruff,Whiteface,75.02,204.12,129.27,219.99,553.38,Single-ply,SBD,M
Boys,74.84,2,Elias Zuniga,Odessa Permian,74.39,181.44,106.59,181.44,469.47,Single-ply,SBD,M
Boys,74.84,3,Fabian Honesto,Whiteface,74.12,172.37,104.33,185.97,462.66,Single-ply,SBD,M
Boys,74.84,4,Nathan Garver,Midland Lee,73.57,149.69,120.2,183.7,453.59,Single-ply,SBD,M
Boys,74.84,5,Colton Kissick,Seminole,73.21,149.69,102.06,161.03,412.77,Single-ply,SBD,M
Boys,74.84,6,Ashton Akbar,Midland Lee,73.03,163.29,77.11,158.76,399.16,Single-ply,SBD,M
Boys,74.84,7,Aldo Ortega,Midland Lee,72.57,117.93,122.47,154.22,394.63,Single-ply,SBD,M
Boys,74.84,8,Josh Toscano,Lamesa,67.4,120.2,81.65,151.95,353.8,Single-ply,SBD,M
Boys,74.84,9,EJ Flores,Whiteface,70.22,111.13,68.04,122.47,301.64,Single-ply,SBD,M
Boys,74.84,DQ,Ethan Mullins,Meadow,70.03,174.63,,,,Single-ply,SBD,M
Boys,89.81,1,Jose Cornejo,Andrews,82.19,208.65,129.27,233.6,571.53,Single-ply,SBD,M
Boys,82.1,2,Blake Narrell,Andrews,80.29,192.78,111.13,197.31,501.22,Single-ply,SBD,M
Boys,82.1,3,Draven Martinez,Lamesa,78.83,179.17,106.59,201.85,487.61,Single-ply,SBD,M
Boys,82.1,4,Carlos Hinojosa,Lamesa,80.56,172.37,95.25,181.44,449.06,Single-ply,SBD,M
Boys,82.1,5,Austin McClure,Midland Lee,80.92,147.42,102.06,183.7,433.18,Single-ply,SBD,M
Boys,82.1,6,Mason Hubbard,Midland Lee,81.19,142.88,104.33,174.63,421.84,Single-ply,SBD,M
Boys,82.1,7,Aaron Vasquez,Odessa Permian,78.29,158.76,86.18,163.29,408.23,Single-ply,SBD,M
Boys,82.1,8,Jesus Cobos,Andrews,77.11,142.88,81.65,154.22,378.75,Single-ply,SBD,M
Boys,82.1,9,Evan Gomez,Whiteface,81.37,142.88,120.2,102.06,365.14,Single-ply,SBD,M
Boys,89.81,1,Larry Iglesias,Lamesa,88.27,181.44,115.67,188.24,485.34,Single-ply,SBD,M
Boys,89.81,2,Josh Nguyen,Odessa Permian,83.46,163.29,117.93,176.9,458.13,Single-ply,SBD,M
Boys,89.81,3,Leo Montoya,Whiteface,87.82,142.88,102.06,181.44,426.38,Single-ply,SBD,M
Boys,89.81,4,Spencer Adams,Midland Lee,87.82,149.69,104.33,156.49,410.5,Single-ply,SBD,M
Boys,89.81,5,Khaled Abu-Alghawam,Odessa Permian,89.63,158.76,83.91,136.08,378.75,Single-ply,SBD,M
Boys,89.81,6,Jacob Bick,Midland Lee,85.28,142.88,83.91,147.42,374.21,Single-ply,SBD,M
Boys,89.81,7,Manuel Ramirez,Kermit,84.55,136.08,86.18,142.88,365.14,Single-ply,SBD,M
Boys,89.81,8,Rudy Alvarado,Lamesa,86.27,136.08,65.77,151.95,353.8,Single-ply,SBD,M
Boys,89.81,9,Andrew Sanders,Seminole,88.99,131.54,86.18,136.08,353.8,Single-ply,SBD,M
Boys,89.81,10,Brady Fabila,Meadow,85.55,120.2,70.31,124.74,315.25,Single-ply,SBD,M
Boys,89.81,11,Pj Bordayo,Whiteface,85.64,88.45,86.18,104.33,278.96,Single-ply,SBD,M
Boys,99.79,1,Gregory Garcia,Odessa,93.53,192.78,136.08,208.65,537.51,Single-ply,SBD,M
Boys,99.79,2,Duston Vargas,Andrews,90.63,172.37,115.67,204.12,492.15,Single-ply,SBD,M
Boys,99.79,3,Matt Mechler,Andrews,97.89,181.44,86.18,210.92,478.54,Single-ply,SBD,M
Boys,99.79,4,Jesse Villarreal,Lamesa,92.44,161.03,108.86,167.83,437.72,Single-ply,SBD,M
Boys,99.79,5,Johnathan Villavincencio,Midland Lee,99.06,136.08,86.18,165.56,387.82,Single-ply,SBD,M
Boys,99.79,6,Steven Solis,Lamesa,96.34,127.01,86.18,156.49,369.68,Single-ply,SBD,M
Boys,99.79,7,Damen Orr,Midland Lee,96.98,115.67,83.91,142.88,342.46,Single-ply,SBD,M
Boys,109.77,1,Esteban Lopez,Andrews,105.78,226.8,136.08,231.33,594.21,Single-ply,SBD,M
Boys,109.77,2,Micah Melton,Andrews,102.97,215.46,122.47,217.72,555.65,Single-ply,SBD,M
Boys,109.77,3,Moses Rodriguez,Lamesa,104.87,190.51,117.93,172.37,480.81,Single-ply,SBD,M
Boys,109.77,4,Conan Hernandez,Midland Lee,102.78,158.76,111.13,185.97,455.86,Single-ply,SBD,M
Boys,109.77,5,Marquis Rogers,Midland Lee,105.87,149.69,122.47,181.44,453.59,Single-ply,SBD,M
Boys,109.77,6,William Maddaford,Midland Lee,107.05,142.88,113.4,174.63,430.91,Single-ply,SBD,M
Boys,109.77,7,Felipe Diaz,Midland Lee,104.33,163.29,92.99,165.56,421.84,Single-ply,SBD,M
Boys,109.77,8,Alberto Hinojosa,Lamesa,106.5,165.56,77.11,163.29,405.97,Single-ply,SBD,M
Boys,109.77,9,Orlando Bueno,Odessa Permian,109.32,140.61,92.99,158.76,392.36,Single-ply,SBD,M
Boys,109.77,10,Adam Cervantes,Lamesa,104.05,156.49,74.84,136.08,367.41,Single-ply,SBD,M
Boys,109.77,11,Elias Hermosillo,Kermit,102.24,136.08,61.23,117.93,315.25,Single-ply,SBD,M
Boys,109.77,12,Marc Ramirez,Kermit,104.14,102.06,70.31,120.2,292.57,Single-ply,SBD,M
Boys,124.74,1,Jesus Oliveras,Odessa Permian,119.66,281.23,151.95,281.23,714.41,Single-ply,SBD,M
Boys,124.74,2,Luis Valenzuela,Andrews,115.94,217.72,127.01,238.14,582.87,Single-ply,SBD,M
Boys,124.74,3,McKenzie Lawson,Odessa Permian,123.47,244.94,111.13,213.19,569.26,Single-ply,SBD,M
Boys,124.74,4,Kyle Rickman,Seminole,120.56,188.24,129.27,204.12,521.63,Single-ply,SBD,M
Boys,124.74,5,Josh Rubacalba,Odessa Permian,111.77,210.92,124.74,163.29,498.95,Single-ply,SBD,M
Boys,124.74,6,Jesus Benitez,Lamesa,110.31,156.49,97.52,158.76,412.77,Single-ply,SBD,M
Boys,124.74,7,Guillermo Hernandez,Midland Lee,116.66,147.42,83.91,142.88,374.21,Single-ply,SBD,M
Boys,124.74,8,Pablo Olivares,Odessa Permian,119.84,142.88,74.84,151.95,369.68,Single-ply,SBD,M
Boys,124.74,9,Malachi Hernandez,Lamesa,113.76,147.42,77.11,142.88,367.41,Single-ply,SBD,M
Boys,124.74,10,Chris Barron,Lamesa,113.31,179.17,,,179.17,Single-ply,S,M
Boys,124.74,11,Brock Murray,Midland Lee,112.85,158.76,,,158.76,Single-ply,S,M
Boys,124.74+,1,Seth Jaramillo,Andrews,128.19,213.19,117.93,192.78,523.9,Single-ply,SBD,M
Boys,124.74+,2,Nick Dennis,Midland Lee,135.62,190.51,102.06,204.12,496.68,Single-ply,SBD,M
Boys,124.74+,3,Patrick Hernandez,Midland Lee,148.05,188.24,108.86,181.44,478.54,Single-ply,SBD,M
Boys,124.74+,4,Easton Elrod,Seminole,156.31,188.24,127.01,161.03,476.27,Single-ply,SBD,M
Boys,124.74+,5,Zathan McIntosh,Kermit,135.9,145.15,92.99,131.54,369.68,Single-ply,SBD,M
Boys,124.74+,6,Davian Villagrana,Lamesa,131.9,136.08,63.5,136.08,335.66,Single-ply,SBD,M
