Division,WeightClassKg,Place,Name,Team,BodyweightKg,Best3SquatKg,Best3BenchKg,Best3DeadliftKg,TotalKg,Equipment,Event,Sex
Boys,51.71,1,Rickey Jones,Killeen Harker Heights,51.71,131.54,79.38,149.69,360.61,Single-ply,SBD,M
Boys,51.71,2,Trey Fuller,Jarrell,51.71,136.08,74.84,147.42,358.34,Single-ply,SBD,M
Boys,51.71,3,Terry Kwak,Killeen Harker Heights,51.71,129.27,68.04,147.42,344.73,Single-ply,SBD,M
Boys,51.71,4,Mikael Pavia,San Marcos,50.8,111.13,68.04,117.93,297.1,Single-ply,SBD,M
Boys,51.71,5,Bryan Martinez,Taylor,50.89,108.86,54.43,106.59,269.89,Single-ply,SBD,M
Boys,51.71,6,Jeremy Trinidad,San Marcos,51.71,106.59,58.97,102.06,267.62,Single-ply,SBD,M
Boys,51.71,7,Nick Vanhook,Lampasas,50.8,106.59,54.43,104.33,265.35,Single-ply,SBD,M
Boys,55.79,8,Creighton McFalin,Dripping Springs,51.94,106.59,45.36,102.06,254.01,Single-ply,SBD,M
Boys,51.71,NS,Matt Saucedo,Buda Hays,,,,,,Single-ply,SBD,M
Boys,51.71,NS,JoeRey Gonzales,Austin Bowie,,,,,,Single-ply,SBD,M
Boys,55.79,1,Michael McIntire,Taylor,55.79,181.44,90.72,176.9,449.06,Single-ply,SBD,M
Boys,55.79,2,Thomas Mascorro,San Marcos,53.52,124.74,92.99,145.15,362.87,Single-ply,SBD,M
Boys,55.79,3,Master Thomas,Killeen Harker Heights,53.07,86.18,68.04,131.54,285.76,Single-ply,SBD,M
Boys,55.79,DQ,Josh Fantauzzi,Buda Hays,54.61,138.35,,,,Single-ply,SBD,M
Boys,55.79,DQ,Chris Ramirez,Lampasas,52.16,97.52,63.5,,,Single-ply,SBD,M
Boys,67.13,1,Mathew Maldonado,Del Valle,60.1,154.22,102.06,181.44,437.72,Single-ply,SBD,M
Boys,59.87,2,Mitchell Classen,Buda Hays,59.87,161.03,99.79,170.1,430.91,Single-ply,SBD,M
Boys,59.87,3,Forrest Warren,Georgetown,57.61,172.37,74.84,170.1,417.3,Single-ply,SBD,M
Boys,67.13,4,Ty Smith,Dripping Springs,60.06,145.15,81.65,185.97,412.77,Single-ply,SBD,M
Boys,59.87,5,Adrian Zackery,Lampasas,59.87,140.61,77.11,183.7,401.43,Single-ply,SBD,M
Boys,59.87,6,Brandon Negus,Taylor,58.79,151.95,83.91,161.03,396.89,Single-ply,SBD,M
Boys,59.87,7,Barney Natividad,Del Valle,59.87,124.74,83.91,149.69,358.34,Single-ply,SBD,M
Boys,59.87,8,Kevin Mackie,Dripping Springs,57.61,127.01,63.5,145.15,335.66,Single-ply,SBD,M
Boys,59.87,9,Marco Munoz,Lampasas,58.06,113.4,70.31,120.2,303.91,Single-ply,SBD,M
Boys,59.87,NS,Melvin Flores,Lampasas,,,,,,Single-ply,SBD,M
Boys,67.13,DQ,Bryan Miller,Marble Falls,60.06,111.13,,,,Single-ply,SBD,M
Boys,59.87,NS,David Salazar,Taylor,,,,,,Single-ply,SBD,M
Boys,59.87,NS,Juan Ramirez,Jarrell,,,,,,Single-ply,SBD,M
Boys,59.87,DQ,Jeremy DePaz,Del Valle,57.83,,,,,Single-ply,SBD,M
Boys,67.13,1,Edward Suarez,San Marcos,66.22,190.51,106.59,204.12,501.22,Single-ply,SBD,M
Boys,67.13,2,Axel Gomez,Austin Lake Travis,65.32,163.29,113.4,204.12,480.81,Single-ply,SBD,M
Boys,67.13,3,Taylor Hough,Buda Hays,66.41,176.9,111.13,181.44,469.47,Single-ply,SBD,M
Boys,67.13,4,Mathew Mayes,Cedar Park Vista Ridge,65.32,147.42,99.79,204.12,451.32,Single-ply,SBD,M
Boys,67.13,5,Dylan Lyon,Cedar Park Vista Ridge,65.77,167.83,97.52,172.37,437.72,Single-ply,SBD,M
Boys,67.13,6,Ryan Arnold,Georgetown,65.32,174.63,90.72,167.83,433.18,Single-ply,SBD,M
Boys,67.13,7,James Harris,Killeen Harker Heights,67.04,129.27,72.57,181.44,383.29,Single-ply,SBD,M
Boys,67.13,8,Patrick Bueno,Georgetown,64.41,129.27,79.38,156.49,365.14,Single-ply,SBD,M
Boys,67.13,9,Dean Young,Austin Lake Travis,65.32,127.01,83.91,131.54,342.46,Single-ply,SBD,M
Boys,67.13,NS,Shawn Nasari,Temple,,,,,,Single-ply,SBD,M
Boys,67.13,DQ,Osiel Avilez,Jarrell,66.86,231.33,,,,Single-ply,SBD,M
Boys,67.13,NS,Omar Saavedra,Jarrell,,,,,,Single-ply,SBD,M
Boys,82.1,1,Hayden Eskew,Buda Hays,75.02,179.17,138.35,201.85,519.36,Single-ply,SBD,M
Boys,82.1,2,David Wren,Dripping Springs,75.07,181.44,108.86,219.99,510.29,Single-ply,SBD,M
Boys,74.84,3,Daniel Nieto,San Marcos,68.95,176.9,122.47,204.12,503.49,Single-ply,SBD,M
Boys,74.84,4,Eduardo Rodriguez,Temple,71.94,179.17,131.54,188.24,498.95,Single-ply,SBD,M
Boys,74.84,5,Fisher Sutterfield,Austin Bowie,72.57,174.63,113.4,199.58,487.61,Single-ply,SBD,M
Boys,74.84,6,Raul Nava,Georgetown,68.04,172.37,102.06,185.97,460.4,Single-ply,SBD,M
Boys,74.84,7,Ben Martinez,Austin Bowie,73.94,170.1,90.72,181.44,442.25,Single-ply,SBD,M
Boys,74.84,8,Rudy Garcia,San Marcos,73.48,154.22,97.52,170.1,421.84,Single-ply,SBD,M
Boys,74.84,9,Dalton Randolph,Temple,71.76,142.88,83.91,183.7,410.5,Single-ply,SBD,M
Boys,74.84,10,Johnathan Burleson,San Marcos,74.75,151.95,83.91,163.29,399.16,Single-ply,SBD,M
Boys,74.84,11,Niko Van Crey,Austin Lake Travis,70.76,131.54,86.18,142.88,360.61,Single-ply,SBD,M
Boys,74.84,NS,Austin Jester,Buda Hays,,,,,,Single-ply,SBD,M
Boys,74.84,DQ,Marcos Cardenas,Jarrell,72.57,179.17,,,,Single-ply,SBD,M
Boys,82.1,1,John Monreal,Del Valle,79.38,256.28,136.08,183.7,576.06,Single-ply,SBD,M
Boys,82.1,DQ,Omar Pareyra,Dripping Springs,81.83,,,,,Single-ply,SBD,M
Boys,82.1,3,Kelly McBride,Del Valle,79.83,199.58,124.74,213.19,537.51,Single-ply,SBD,M
Boys,82.1,4,Hunter Matlock,Austin Bowie,80.65,192.78,124.74,190.51,508.02,Single-ply,SBD,M
Boys,82.1,5,Brock Drummond,Georgetown,81.19,172.37,111.13,204.12,487.61,Single-ply,SBD,M
Boys,82.1,6,David Cortes,Jarrell,75.3,174.63,115.67,192.78,483.08,Single-ply,SBD,M
Boys,89.81,7,Tanner Brown,Lockhart,82.28,167.83,95.25,174.63,437.72,Single-ply,SBD,M
Boys,82.1,8,David Burns,Dripping Springs,76.66,170.1,90.72,170.1,430.91,Single-ply,SBD,M
Boys,82.1,9,Brendan Barry,Austin Bowie,79.56,165.56,88.45,176.9,430.91,Single-ply,SBD,M
Boys,82.1,10,Kenneth Romo,San Marcos,81.19,156.49,124.74,149.69,430.91,Single-ply,SBD,M
Boys,82.1,11,Jackson Ayers,Austin Lake Travis,77.56,136.08,90.72,149.69,376.48,Single-ply,SBD,M
Boys,82.1,12,Eric Patterson,Austin Lake Travis,76.2,113.4,97.52,149.69,360.61,Single-ply,SBD,M
Boys,82.1,DQ,Ernesto Jaime,Jarrell,77.11,176.9,,,,Single-ply,SBD,M
Boys,89.81,DQ,Mason Thom,Cedar Park Vista Ridge,87.09,,,,,Single-ply,SBD,M
Boys,89.81,2,Juedon Kebede,Austin Bowie,84.82,195.04,113.4,195.04,503.49,Single-ply,SBD,M
Boys,89.81,3,Carl Hovak,Georgetown,83.46,131.54,90.72,151.95,374.21,Single-ply,SBD,M
Boys,89.81,NS,Jesse Hunt,Dripping Springs,,,,,,Single-ply,SBD,M
Boys,89.81,NS,Ryan Taylor,Austin Bowie,,,,,,Single-ply,SBD,M
Boys,89.81,NS,Victor Martinez,Buda Hays,,,,,,Single-ply,SBD,M
Boys,99.79,1,Edward Barrera,Taylor,98.43,285.76,154.22,204.12,644.1,Single-ply,SBD,M
Boys,99.79,2,Steven Kittle,Dripping Springs,96.25,206.38,113.4,229.06,548.85,Single-ply,SBD,M
Boys,99.79,3,Kyle Williams,Buda Hays,97.79,195.04,131.54,222.26,548.85,Single-ply,SBD,M
Boys,99.79,4,Nick Cardenas,Austin Bowie,92.62,213.19,127.01,195.04,535.24,Single-ply,SBD,M
Boys,99.79,5,Leron Hutto,San Marcos,97.98,206.38,111.13,215.46,532.97,Single-ply,SBD,M
Boys,99.79,6,Joshua Keith,San Marcos,90.26,188.24,136.08,204.12,528.44,Single-ply,SBD,M
Boys,99.79,7,Tyler Preston,Georgetown,97.07,181.44,117.93,208.65,508.02,Single-ply,SBD,M
Boys,99.79,8,Patrick Rieves,Temple,93.89,181.44,131.54,192.78,505.76,Single-ply,SBD,M
Boys,99.79,9,Adrian Martinez,Lampasas,96.62,170.1,108.86,226.8,505.76,Single-ply,SBD,M
Boys,99.79,10,Josh Valles,Lampasas,95.25,195.04,113.4,174.63,483.08,Single-ply,SBD,M
Boys,99.79,11,Vincent Campuzano,Marble Falls,99.16,179.17,113.4,161.03,453.59,Single-ply,SBD,M
Boys,99.79,NS,Jerikhoal Alvarez,Temple,,,,,,Single-ply,SBD,M
Boys,99.79,NS,Caleb Gardner,Austin Bowie,,,,,,Single-ply,SBD,M
Boys,109.77,1,Charles Nguyen,Killeen Harker Heights,108.86,240.4,136.08,215.46,591.94,Single-ply,SBD,M
Boys,124.74,2,Lorenzo Martinez,Georgetown,109.86,231.33,145.15,195.04,571.53,Single-ply,SBD,M
Boys,109.77,3,John Torres,Austin Bowie,109.59,208.65,111.13,226.8,546.58,Single-ply,SBD,M
Boys,109.77,4,Mike Nap,Dripping Springs,101.42,199.58,127.01,213.19,539.77,Single-ply,SBD,M
Boys,109.77,5,Andy Gamez,Lampasas,106.59,226.8,113.4,195.04,535.24,Single-ply,SBD,M
Boys,109.77,6,Jake Terry,Lampasas,104.78,204.12,122.47,195.04,521.63,Single-ply,SBD,M
Boys,109.77,7,David Cockerell,Lampasas,106.14,190.51,140.61,176.9,508.02,Single-ply,SBD,M
Boys,109.77,8,Tyler Uspy,Georgetown,106.14,163.29,111.13,197.31,471.74,Single-ply,SBD,M
Boys,109.77,9,Russell Prukop,Killeen Harker Heights,106.41,181.44,108.86,179.17,469.47,Single-ply,SBD,M
Boys,109.77,10,Josh Cortinas,Austin Bowie,100.7,142.88,97.52,167.83,408.23,Single-ply,SBD,M
Boys,109.77,11,Rex Printz,Marble Falls,105.14,102.06,61.23,142.88,306.17,Single-ply,SBD,M
Boys,109.77,NS,Vincent Pesina,Buda Hays,,,,,,Single-ply,SBD,M
Boys,109.77,DQ,Austin Reyes,Buda Hays,109.77,235.87,,,,Single-ply,SBD,M
Boys,124.74,1,Nathan Short,Marble Falls,119.11,188.24,120.2,190.51,498.95,Single-ply,SBD,M
Boys,124.74,2,Ian Medford,Austin Lake Travis,113.4,179.17,111.13,188.24,478.54,Single-ply,SBD,M
Boys,124.74,3,Jesse Benavides,San Marcos,115.67,156.49,97.52,174.63,428.64,Single-ply,SBD,M
Boys,124.74,NS,Troly Healy,Temple,,,,,,Single-ply,SBD,M
Boys,124.74,DQ,Michael Buya,Marble Falls,120.2,229.06,129.27,,,Single-ply,SBD,M
Boys,124.74,DQ,Justin Ribera,Marble Falls,121.47,174.63,,,,Single-ply,SBD,M
Boys,124.74,DQ,Ronnie Boatwright,Marble Falls,112.04,238.14,136.08,,,Single-ply,SBD,M
Boys,124.74,DQ,Gama Valdez,Buda Hays,115.39,136.08,,,,Single-ply,SBD,M
Boys,124.74+,1,Andrew Brown,Killeen Harker Heights,125.74,226.8,165.56,208.65,601.01,Single-ply,SBD,M
Boys,124.74+,2,Johnny Rios,Taylor,135.08,231.33,145.15,224.53,601.01,Single-ply,SBD,M
Boys,124.74+,3,Leonard Riggs,Killeen Harker Heights,133.72,192.78,122.47,229.06,544.31,Single-ply,SBD,M
Boys,124.74+,4,Ryan Meza,Dripping Springs,133.81,204.12,124.74,190.51,519.36,Single-ply,SBD,M
Boys,124.74+,NS,Zack Dillon,Austin Lake Travis,,,,,,Single-ply,SBD,M
