Sex,Equipment,Division,Event,Place,Name,WeightClassKg,BodyweightKg,Best3SquatKg,Best3BenchKg,Best3DeadliftKg,TotalKg,BirthDate
F,Wraps,Pro,SBD,1,Irina Petrovich,67.5,65.5,197.31,122.47,206.38,526.17,
F,Wraps,Pro,SBD,2,Crystal Tate,90,89.18,276.69,124.74,249.48,650.91,
F,Wraps,Pro,SBD,3,Janel Vegter,67.5,65.14,199.58,102.06,199.58,501.22,
F,Wraps,Pro,SBD,4,Ellen Stein,60,59.69,170.1,81.65,188.24,439.98,
F,Wraps,Pro,SBD,5,Lindsey Craft,56,55.7,145.15,88.45,156.49,390.09,
F,Wraps,Pro,SBD,6,Steph Tomlinson,67.5,65.77,158.76,97.52,172.37,428.64,
F,Wraps,Pro,SBD,7,Lauren O'Toole,75,73.3,190.51,86.18,183.7,460.4,
F,Wraps,Pro,SBD,8,Katelyn O'Donnell,90+,106.41,213.19,136.08,226.8,576.06,
F,Wraps,Pro,SBD,9,Sarah Skinner #1,60,59.96,124.74,95.25,161.03,381.02,
F,Wraps,Pro,SBD,10,Emily Reuland,75,71.3,174.63,81.65,174.63,430.91,
F,Wraps,Pro,SBD,11,Sara Berlin,90+,133.08,219.99,120.2,219.99,560.19,
F,Wraps,Pro,SBD,12,Mindy Underwood,90+,106.59,204.12,120.2,204.12,528.44,
F,Wraps,Pro,SBD,13,Tori Goulart,67.5,66.59,149.69,81.65,154.22,385.55,
F,Wraps,Pro,SBD,DQ,Lisa Guggisberg,52,51.26,,,,,
F,Multi-ply,Pro,SBD,1,Rheta West,67.5,66.04,301.64,179.17,231.33,712.14,
F,Multi-ply,Pro,SBD,2,Tara Webber,75,73.48,272.16,174.63,226.8,673.58,
F,Multi-ply,Pro,SBD,3,Beth Thomas,60,58.33,226.8,136.08,181.44,544.31,
F,Multi-ply,Pro,SBD,4,Beth Poplin,60,59.87,190.51,145.15,183.7,519.36,
F,Multi-ply,Pro,SBD,5,Leah Benoit,60,58.79,199.58,124.74,174.63,498.95,
F,Multi-ply,Pro,SBD,6,Diane Gmiter,82.5,81.1,260.82,138.35,233.6,632.76,
F,Multi-ply,Pro,SBD,DQ,Alise Randall,75,72.12,,,,,
M,Wraps,LW,SBD,1,Anthony Hobaica,82.5,81.47,319.78,215.46,308.44,843.68,
M,Wraps,LW,SBD,2,Jonathan Harder,82.5,81.92,312.98,219.99,303.91,836.88,
M,Wraps,LW,SBD,3,Carlos Reyes #1,100,99.06,365.14,233.6,328.85,927.6,
M,Wraps,LW,SBD,4,Brandon Smitley,60,59.51,238.14,149.69,231.33,619.15,
M,Wraps,LW,SBD,5,Tee Cummins,100,99.79,367.41,195.04,344.73,907.18,
M,Wraps,LW,SBD,6,Christian Anto,82.5,81.28,294.84,170.1,294.84,759.77,
M,Wraps,LW,SBD,7,Brian Galloway,67.5,62.51,242.67,158.76,199.58,601.01,
M,Wraps,LW,SBD,8,Michael McCann,82.5,82.1,272.16,192.78,272.16,737.09,
M,Wraps,LW,SBD,9,Bryan Doberdruk,100,98.88,269.89,190.51,340.19,800.59,
M,Wraps,LW,SBD,10,Channing Doyle,100,93.08,285.76,185.97,285.76,757.5,
M,Multi-ply,Pro LW,SBD,1,Christian Haywood,90,89.9,408.23,272.16,331.12,1011.51,
M,Multi-ply,Pro LW,SBD,2,Marc Tejero,67.5,66.86,322.05,215.46,263.08,800.59,
M,Multi-ply,Pro LW,SBD,3,Marcus Morris,82.5,80.65,365.14,251.74,292.57,909.45,
M,Multi-ply,Pro LW,SBD,4,Sandy Tepper,75,74.93,319.78,240.4,283.5,843.68,
M,Multi-ply,Pro LW,SBD,5,Jason Murphy,75,74.3,333.39,240.4,247.21,821,
M,Multi-ply,Pro LW,SBD,6,Joe Buck,100,99.88,385.55,344.73,249.48,979.76,
M,Multi-ply,Pro LW,SBD,7,Clint Moore,100,98.7,369.68,278.96,303.91,952.54,
M,Multi-ply,Pro LW,SBD,8,Chad Hammond,100,99.52,396.89,260.82,294.84,952.54,
M,Multi-ply,Pro LW,SBD,9,Jesse Augenstein,100,98.61,387.82,260.82,294.84,943.47,
M,Multi-ply,Pro LW,SBD,10,Shaun Morgan,100,98.79,349.27,274.42,306.17,929.86,
M,Multi-ply,Pro LW,SBD,11,Zane Geeting,100,99.79,381.02,226.8,317.51,925.33,
M,Multi-ply,Pro LW,SBD,DQ,Angelo Berardinelli,90,83.01,326.59,,,,
M,Multi-ply,Pro LW,SBD,DQ,Chris Bartl,100,99.52,328.85,,,,
M,Single-ply,Pro LW,SBD,DQ,Arkadiy Shalokha,82.5,81.92,,,,,
M,Wraps,Pro HW,SBD,1,Aaron Palko,110,102.78,376.48,224.53,344.73,945.74,
M,Wraps,Pro HW,SBD,2,Evan Mensing,125,121.47,344.73,229.06,374.21,948.01,
M,Wraps,Pro HW,SBD,3,Steve Johnson #2,125,123.01,340.19,215.46,371.95,927.6,
M,Wraps,Pro HW,SBD,4,Zachery Plocica,110,106.32,369.68,190.51,322.05,882.24,
M,Wraps,Pro HW,SBD,5,Mike Lawrence,125,123.74,371.95,217.72,322.05,911.72,
M,Wraps,Pro HW,SBD,6,Daniel Dalenberg,110,109.95,335.66,226.8,324.32,886.77,
M,Wraps,Pro HW,SBD,7,Ed Zende,125,116.66,367.41,226.8,299.37,893.58,
M,Wraps,Pro HW,SBD,8,Ernie Lilliebridge Jr,110,108.77,353.8,195.04,331.12,879.97,1987-12-13
M,Wraps,Pro HW,SBD,9,Jabez Burford,140,132.63,383.29,206.38,333.39,923.06,
M,Wraps,Pro HW,SBD,10,Bob Merkh,110,109.59,353.8,222.26,297.1,873.17,
M,Wraps,Pro HW,SBD,11,Courtney Church,110,109.41,340.19,197.31,333.39,870.9,
M,Wraps,Pro HW,SBD,12,Rich Justice,140,131.63,376.48,204.12,326.59,907.18,
M,Wraps,Pro HW,SBD,13,Tanner Hysell,140,135.99,353.8,195.04,362.87,911.72,
M,Wraps,Pro HW,SBD,14,Kyle Sheridan #1,110,109.95,331.12,185.97,344.73,861.83,
M,Wraps,Pro HW,SBD,15,Justin Sowers,110,109.59,317.51,219.99,317.51,855.02,
M,Wraps,Pro HW,SBD,DQ,Tyler Obringer,140+,156.4,371.95,229.06,,,
M,Wraps,Pro HW,SBD,DQ,Justin Graalfs,140,135.53,376.48,,,,
M,Multi-ply,Pro HW,SBD,1,Matt Minuth,110,103.51,453.59,394.63,331.12,1179.34,
M,Multi-ply,Pro HW,SBD,2,Brian Carroll,110,109.59,462.66,340.19,349.27,1152.12,
M,Multi-ply,Pro HW,SBD,3,Chris Della Fave,125,117.93,455.86,344.73,367.41,1168,
M,Multi-ply,Pro HW,SBD,4,Jonathan Byrd,125,122.74,460.4,340.19,333.39,1133.98,
M,Multi-ply,Pro HW,SBD,5,Jeff Frank,140+,178.35,544.31,362.87,328.85,1236.04,
M,Multi-ply,Pro HW,SBD,6,TJ Watkins,140+,152.95,462.66,347,385.55,1195.22,
M,Multi-ply,Pro HW,SBD,7,Dan Steltenkamp,125,121.02,424.11,376.48,290.3,1090.89,
M,Multi-ply,Pro HW,SBD,8,Bruce Mason,140,133.63,458.13,310.71,340.19,1109.03,
M,Multi-ply,Pro HW,SBD,9,Jo Jordan,125,117.57,460.4,292.57,301.64,1054.6,
M,Multi-ply,Pro HW,SBD,10,Pat Helber,110,106.05,408.23,267.62,306.17,982.03,
M,Multi-ply,Pro HW,SBD,11,Ken Whetham,140,133.99,410.5,249.48,303.91,963.88,
M,Multi-ply,Pro HW,SBD,DQ,Shane Church,110,109.23,,,,,
M,Multi-ply,Pro HW,SBD,DQ,Brian Billings,125,118.66,,,,,
M,Multi-ply,Pro HW,D,1,Corey Miceli,140,125.01,,,412.77,412.77,
M,Multi-ply,Pro HW,SBD,DQ,Jesse Luczyk,140,136.8,,,,,
M,Multi-ply,Pro HW,SBD,DQ,Steve Brock,140,137.35,430.91,,,,
M,Multi-ply,Pro HW,SBD,DQ,Jayson McNett,140+,150.05,458.13,,,,
