Name,Sex,Division,BodyweightKg,WeightClassKg,Squat1Kg,Squat2Kg,Squat3Kg,Best3SquatKg,Bench1Kg,Bench2Kg,Bench3Kg,Best3BenchKg,Deadlift1Kg,Deadlift2Kg,Deadlift3Kg,Best3DeadliftKg,TotalKg,Place,Event,Equipment
Eric Kupperstein,M,MR-M,59.6,60,175,-192.5,197.5,197.5,102.5,107.5,-110,107.5,232.5,-252.5,255,255,560,1,SBD,Raw
Troy Saunders,M,MR-M,98.4,100,242.5,-252.5,-252.5,242.5,-175,175,180,180,282.5,-295,-295,282.5,705,1,SBD,Raw
Richard Wilcox,M,MR-M,119.6,125,227.5,245,252.5,252.5,187.5,197.5,202.5,202.5,260,280,290,290,745,1,SBD,Raw
Bill McDonough,M,MR-M,146.4,125+,265,280,,280,192.5,207.5,-215,207.5,280,-302.5,,280,767.5,1,SBD,Raw
Lyndon Samuels,M,MR-M,115.9,125,220,240,-262.5,240,165,180,,180,265,282.5,295,295,715,2,SBD,Raw
Phillip Wylie,M,MR-M,108.8,110,227.5,237.5,,237.5,162.5,167.5,-172.5,167.5,265,287.5,-292.5,287.5,692.5,1,SBD,Raw
Doug Currence,M,MR-M,99.3,100,222.5,-240,-240,222.5,155,-165,-165,155,260,275,,275,652.5,2,SBD,Raw
William Wigmore,M,MR-M,108.9,110,212.5,-220,-227.5,212.5,167.5,-177.5,177.5,177.5,257.5,267.5,272.5,272.5,662.5,2,SBD,Raw
Mike Barcelone,M,MR-M,97.9,100,225,235,-245,235,145,155,-160,155,227.5,-252.5,-252.5,227.5,617.5,3,SBD,Raw
Jeff Monahos,M,MR-M,88.8,90,-197.5,-202.5,202.5,202.5,135,142.5,-147.5,142.5,210,227.5,-247.5,227.5,572.5,1,SBD,Raw
Howard Asch,M,MR-M,89.4,90,210,-220,220,220,132.5,-140,-140,132.5,202.5,217.5,-227.5,217.5,570,2,SBD,Raw
Jay Helms,M,MR-M,58.7,60,105,112.5,-120,112.5,100,-102.5,-102.5,100,160,-170,170,170,382.5,2,SBD,Raw
Joseph McAuliffe,M,MR-M,96.3,100,252.5,272.5,-280,272.5,,,,,,,,,,DQ,SBD,Raw
Sabre Schnitzer,M,MR-M,99.2,100,245,265,,265,197.5,-207.5,-207.5,197.5,,,,,,DQ,SBD,Raw
Mike Bridges,M,MR-M,89.9,90,-255,-255,-255,,196,197.5,200,200,,,,,,DQ,SBD,Raw
Luke Badaracco,M,MR-Jr,133.1,125+,237.5,260,265,265,197.5,-205,-205,197.5,277.5,-295,300,300,762.5,1,SBD,Raw
Jordan Krogman,M,MR-Jr,97.4,100,227.5,245,252.5,252.5,150,160,165,165,255,270,277.5,277.5,695,1,SBD,Raw
Tony Schwebach,M,MR-Jr,81.4,82.5,200,210,220,220,125,130,-135,130,240,252.5,-275,252.5,602.5,1,SBD,Raw
Charles McWilliams,M,MR-Jr,122.5,125,215,235,240,240,157.5,-167.5,167.5,167.5,215,235,240,240,647.5,1,SBD,Raw
Daniel Toledano,M,MR-Jr,80.9,82.5,180,-190,-190,180,137.5,-142.5,-142.5,137.5,220,-235,-235,220,537.5,2,SBD,Raw
Lucas Hisghman,M,MR-Jr,74.2,75,227.5,-237.5,-237.5,227.5,-157.5,-157.5,-157.5,,202.5,205,210,210,,DQ,SBD,Raw
Andrey Grebenetsky,M,MR-Jr,81.1,82.5,-207.5,-207.5,-207.5,,,,,,,,,,,DQ,SBD,Raw
Kelly Moore,F,FR-M,51.8,52,97.5,107.5,117.5,117.5,65,75,80,80,142.5,150,-160,150,347.5,1,SBD,Raw
Annette Powell,F,FR-M,54.8,56,82.5,90,97.5,97.5,47.5,-52.5,-52.5,47.5,127.5,137.5,142.5,142.5,287.5,1,SBD,Raw
Tammy Walker,F,FR-M,80.4,82.5,-115,115,122.5,122.5,95,100,102.5,102.5,135,145,-152.5,145,370,1,SBD,Raw
Bernie Tatulinski,F,FR-M,57.1,60,92.5,97.5,102.5,102.5,47.5,52.5,-55,52.5,102.5,112.5,117.5,117.5,272.5,1,SBD,Raw
Wendie Edwards,F,FR-M,72.9,75,-92.5,92.5,-95,92.5,57.5,60,62.5,62.5,115,120,122.5,122.5,277.5,1,SBD,Raw
Suzanne Hartwig-Gary,F,FR-O,52,52,125,135,140,140,70,75,77.5,77.5,125,135,145,145,362.5,1,SBD,Raw
Kelly Moore,F,FR-O,51.8,52,97.5,107.5,117.5,117.5,65,75,80,80,142.5,150,-160,150,347.5,2,SBD,Raw
Collen McNamara,F,FR-O,51.7,52,82.5,90,-97.5,90,60,65,-67.5,65,110,117.5,-127.5,117.5,272.5,3,SBD,Raw
Martha Thompson,F,FR-O,49.6,52,72.5,77.5,85,85,52.5,57.5,-60,57.5,100,110,115,115,257.5,4,SBD,Raw
Becky Rich,F,FR-O,55.8,56,120,125,-130,125,87.5,92.5,-95,92.5,140,150,-155,150,367.5,1,SBD,Raw
Kat Clark,F,FR-O,55.5,56,105,115,120,120,60,-65,-65,60,-150,-150,150,150,330,2,SBD,Raw
Natalie Freed,F,FR-O,54.8,56,72.5,87.5,-100,87.5,60,67.5,75,75,125,137.5,142.5,142.5,305,3,SBD,Raw
Bernie Tatulinski,F,FR-O,57.1,60,92.5,97.5,102.5,102.5,47.5,52.5,-55,52.5,102.5,112.5,117.5,117.5,272.5,1,SBD,Raw
Nicole Drane,F,FR-O,56.2,60,87.5,-102.5,-102.5,87.5,-57.5,57.5,-65,57.5,102.5,105,-110,105,250,2,SBD,Raw
Jennifer Varner,F,FR-O,59.3,60,-127.5,-127.5,-127.5,,,,,,,,,,,DQ,SBD,Raw
Tammy Walker,F,FR-O,80.4,82.5,-115,115,122.5,122.5,95,100,102.5,102.5,135,145,-152.5,145,370,1,SBD,Raw
Rebekah Lair,F,FR-O,80.2,82.5,117.5,-125,-130,117.5,62.5,67.5,-72.5,67.5,127.5,137.5,145,145,330,2,SBD,Raw
Eric Kupperstein,M,MR-LW,59.6,60,175,-192.5,197.5,197.5,102.5,107.5,-110,107.5,232.5,-252.5,255,255,560,1,SBD,Raw
Alexander Kang,M,MR-LW,63.3,67.5,137.5,147.5,-152.5,147.5,85,90,-92.5,90,190,207.5,-212.5,207.5,445,1,SBD,Raw
Ron Hackaspker,M,MR-LW,66.5,67.5,215,-220,,215,-152.5,-152.5,-152.5,,212.5,220,225,225,,DQ,SBD,Raw
Larry Dyles-Smith,M,MR-LW,75,75,205,-220,-220,205,-160,160,-162.5,160,205,220,230,230,595,1,SBD,Raw
Mike Cagliola,M,MR-LW,74,75,180,190,200,200,137.5,145,-152.5,145,200,212.5,-222.5,212.5,557.5,2,SBD,Raw
Lucas Hisghman,M,MR-LW,74.2,75,227.5,-237.5,-237.5,227.5,-157.5,-157.5,-157.5,,202.5,205,210,210,,DQ,SBD,Raw
Justin Caputo,M,MR-LW,77.3,82.5,-202.5,212.5,-220,212.5,105,110,112.5,112.5,-227.5,235,-245,235,560,1,SBD,Raw
Daniel Toledano,M,MR-LW,80.9,82.5,180,-190,-190,180,137.5,-142.5,-142.5,137.5,220,-235,-235,220,537.5,2,SBD,Raw
Andrey Grebenetsky,M,MR-LW,81.1,82.5,-207.5,-207.5,-207.5,,,,,,,,,,,DQ,SBD,Raw
Steven Howard,M,MR-LW,89.4,90,217.5,240,252.5,252.5,165,172.5,-177.5,172.5,235,260,-272.5,260,685,2,SBD,Raw
Kristopher Semon,M,MR-LW,88.5,90,200,-215,-215,200,152.5,165,-170,165,235,252.5,-255,252.5,617.5,5,SBD,Raw
Kaisheem Muhammad,M,MR-LW,89.1,90,185,197.5,207.5,207.5,117.5,-125,125,125,225,237.5,-250,237.5,570,7,SBD,Raw
Mike Bridges,M,MR-LW,89.9,90,-255,-255,-255,,196,197.5,200,200,,,,,,DQ,SBD,Raw
Mohamed Mostafa,M,MR-LW,88.5,90,,,,,-155,-155,-155,,,,,,,DQ,SBD,Raw
Alex Drolc,M,MR-HW,97.9,100,255,265,-272.5,265,172.5,182.5,-187.5,182.5,290,307.5,-317.5,307.5,755,1,SBD,Raw
Troy Saunders,M,MR-HW,98.4,100,242.5,-252.5,-252.5,242.5,-175,175,180,180,282.5,-295,-295,282.5,705,2,SBD,Raw
Robert Trettin,M,MR-HW,97.6,100,235,-255,-255,235,167.5,180,-185,180,240,257.5,272.5,272.5,687.5,3,SBD,Raw
Doug Currence,M,MR-HW,99.3,100,222.5,-240,-240,222.5,155,-165,-165,155,260,275,,275,652.5,4,SBD,Raw
Dale McLaren,M,MR-HW,99.1,100,220,-237.5,-237.5,220,152.5,-160,-160,152.5,267.5,-285,-285,267.5,640,5,SBD,Raw
Andrew Cohn,M,MR-HW,92.8,100,190,200,210,210,132.5,137.5,140,140,237.5,252.5,262.5,262.5,612.5,6,SBD,Raw
John Demchak,M,MR-HW,96.74,100,200,207.5,215,215,117.5,125,-130,125,227.5,237.5,250,250,590,7,SBD,Raw
Joseph McAuliffe,M,MR-HW,96.3,100,252.5,272.5,-280,272.5,,,,,,,,,,DQ,SBD,Raw
Sabre Schnitzer,M,MR-HW,99.2,100,245,265,,265,197.5,-207.5,-207.5,197.5,,,,,,DQ,SBD,Raw
Jamie Emberley,M,MR-HW,108.2,110,255,267.5,277.5,277.5,177.5,185,-190,185,292.5,310,-317.5,310,772.5,1,SBD,Raw
Jake Impastato,M,MR-HW,109,110,252.5,275,,275,192.5,200,202.5,202.5,260,275,280,280,757.5,2,SBD,Raw
James Heely,M,MR-HW,108.8,110,237.5,255,-272.5,255,165,-182.5,-182.5,165,275,290,-307.5,290,710,3,SBD,Raw
Phillip Wylie,M,MR-HW,108.8,110,227.5,237.5,,237.5,162.5,167.5,-172.5,167.5,265,287.5,-292.5,287.5,692.5,4,SBD,Raw
William Wigmore,M,MR-HW,108.9,110,212.5,-220,-227.5,212.5,167.5,-177.5,177.5,177.5,257.5,267.5,272.5,272.5,662.5,5,SBD,Raw
Chris Dennis,M,MR-HW,109.1,110,230,-245,,230,150,160,175,175,182.5,205,,205,610,6,SBD,Raw
Daniel Nacle,M,MR-HW,124.8,125,270,290,300,300,190,205,210,210,270,290,-305,290,800,1,SBD,Raw
John MacDonald,M,MR-HW,124.3,125,250,270,282.5,282.5,165,180,185,185,265,287.5,295,295,762.5,2,SBD,Raw
Richard Wilcox,M,MR-HW,119.6,125,227.5,245,252.5,252.5,187.5,197.5,202.5,202.5,260,280,290,290,745,3,SBD,Raw
Jeff Robison,M,MR-HW,123.8,125,265,-280,-280,265,170,180,-185,180,265,285,-302.5,285,730,4,SBD,Raw
Lyndon Samuels,M,MR-HW,115.9,125,220,240,-262.5,240,165,180,,180,265,282.5,295,295,715,5,SBD,Raw
Bill McCarthy,M,MR-HW,123.2,125,250,262.5,272.5,272.5,160,165,170,170,272.5,-282.5,-282.5,272.5,715,6,SBD,Raw
Kenneth Morris,M,MR-HW,123.3,125,-237.5,237.5,255,255,180,-185,185,185,272.5,-287.5,-295,272.5,712.5,7,SBD,Raw
Brent Pendleton,M,MR-HW,120.5,125,-237.5,237.5,-257.5,237.5,165,-175,-175,165,265,285,-287.5,285,687.5,8,SBD,Raw
Michael Neal,M,MR-HW,164.6,125+,280,302.5,310,310,220,-240,240,240,272.5,287.5,297.5,297.5,847.5,1,SBD,Raw
Brad Madvig,M,MR-HW,167.6,125+,-280,290,-305,290,192.5,205,217.5,217.5,280,292.5,307.5,307.5,815,2,SBD,Raw
John Grosulak,M,MR-HW,130.4,125+,275,300,-320,300,-192.5,195,-207.5,195,277.5,300,-320,300,795,3,SBD,Raw
Jim Cahill,M,MR-HW,135.6,125+,255,275,285,285,180,190,195,195,287.5,312.5,-337.5,312.5,792.5,4,SBD,Raw
Luke Badaracco,M,MR-HW,133.1,125+,237.5,260,265,265,197.5,-205,-205,197.5,277.5,-295,300,300,762.5,5,SBD,Raw
