Division,WeightClassKg,Place,Name,Team,BodyweightKg,Best3SquatKg,Best3BenchKg,Best3DeadliftKg,TotalKg,Equipment,Event,Sex
Boys,51.71,1,Johnny Horta,Weslaco East,51.53,161.03,79.38,188.24,428.64,Single-ply,SBD,M
Boys,51.71,2,Rigo Pena,Pharr Valley View,50.94,131.54,97.52,158.76,387.82,Single-ply,SBD,M
Boys,55.79,3,Homar Longoria,San Benito,51.8,138.35,61.23,147.42,347,Single-ply,SBD,M
Boys,51.71,4,Ray Fernandez,Donna,51.71,92.99,56.7,131.54,281.23,Single-ply,SBD,M
Boys,51.71,5,Robert Ramos,Corpus Christi Tuloso-Midway,48.53,104.33,54.43,108.86,267.62,Single-ply,SBD,M
Boys,51.71,6,George Trujillo,Santa Maria,50.89,72.57,49.9,79.38,201.85,Single-ply,SBD,M
Boys,51.71,DQ,Diego Pena,Roma,50.89,136.08,,,,Single-ply,SBD,M
Boys,51.71,DQ,Orlando Trigueros,Donna,51.07,149.69,,,,Single-ply,SBD,M
Boys,55.79,1,Anibal Martinez,Los Fresnos,54.98,219.99,106.59,222.26,548.85,Single-ply,SBD,M
Boys,55.79,2,Eric Torres #1,Weslaco East,55.47,204.12,122.47,213.19,539.77,Single-ply,SBD,M
Boys,55.79,3,Rudy Garay,Los Fresnos,53.52,206.38,115.67,183.7,505.76,Single-ply,SBD,M
Boys,55.79,4,Alex Solis,Weslaco East,54.43,172.37,104.33,167.83,444.52,Single-ply,SBD,M
Boys,55.79,5,Rolando Borjas,Los Fresnos,53.16,174.63,86.18,181.44,442.25,Single-ply,SBD,M
Boys,55.79,6,Enrique Gonzalez,Roma,54.98,133.81,95.25,181.44,410.5,Single-ply,SBD,M
Boys,59.87,7,Arrmando Perez,Pharr Valley View,56.02,156.49,77.11,138.35,371.95,Single-ply,SBD,M
Boys,55.79,8,Dylan Lindley,Mission Sharyland,55.07,142.88,70.31,147.42,360.61,Single-ply,SBD,M
Boys,59.87,1,Lucky Carrasco,Pharr Valley View,59.87,170.1,92.99,176.9,439.98,Single-ply,SBD,M
Boys,59.87,2,Eduardo Porras,Roma,58.51,147.42,97.52,185.97,430.91,Single-ply,SBD,M
Boys,59.87,3,Gilbert Flores,Pharr Valley View,59.56,156.49,95.25,158.76,410.5,Single-ply,SBD,M
Boys,67.13,4,Matt Buentello,Corpus Christi Tuloso-Midway,60.1,140.61,74.84,163.29,378.75,Single-ply,SBD,M
Boys,59.87,DQ,Robert Aranda,Mission Veterans Memorial,58.97,,,,,Single-ply,SBD,M
Boys,67.13,DQ,Joe Bazaldua,Mercedes,60.06,,,,,Single-ply,SBD,M
Boys,59.87,DQ,Robert de la Cerda,Mercedes,57.61,,,,,Single-ply,SBD,M
Boys,59.87,DQ,Roy Rodriguez,Weslaco,57.7,124.74,,,,Single-ply,SBD,M
Boys,67.13,1,Miguel Mata,Pharr Valley View,66.95,217.72,156.49,213.19,587.4,Single-ply,SBD,M
Boys,74.84,2,Joe Gonzalez,Pharr Valley View,67.36,204.12,113.4,213.19,530.7,Single-ply,SBD,M
Boys,67.13,3,Steven Flores,Pharr Valley View,66.54,167.83,102.06,201.85,471.74,Single-ply,SBD,M
Boys,67.13,4,Pedro Vargas,Roma,65.77,185.97,102.06,181.44,469.47,Single-ply,SBD,M
Boys,74.84,5,Jose Cuellar,Pharr Valley View,67.31,176.9,97.52,179.17,453.59,Single-ply,SBD,M
Boys,67.13,6,Justin Gonzalez,Weslaco,62.32,176.9,90.72,163.29,430.91,Single-ply,SBD,M
Boys,67.13,7,Lionel Anciso,Weslaco,65.95,158.76,81.65,176.9,417.3,Single-ply,SBD,M
Boys,67.13,DQ,Lenny Vallanueva,Mercedes,66.95,124.74,,,,Single-ply,SBD,M
Boys,67.13,DQ,Miguel Pena,Pharr Valley View,67.13,,,,,Single-ply,SBD,M
Boys,74.84,1,Armando Hernandez,Los Fresnos,74.39,226.8,145.15,210.92,582.87,Single-ply,SBD,M
Boys,74.84,2,Gus Sanchez,Los Fresnos,73.21,192.78,131.54,204.12,528.44,Single-ply,SBD,M
Boys,74.84,3,Andy Modl,Corpus Christi Tuloso-Midway,72.12,201.85,133.81,183.7,519.36,Single-ply,SBD,M
Boys,82.1,4,Aric Hernandez,Weslaco,75.07,181.44,111.13,213.19,505.76,Single-ply,SBD,M
Boys,74.84,5,Marco Moreno,Mission Veterans Memorial,70.58,145.15,88.45,190.51,424.11,Single-ply,SBD,M
Boys,74.84,6,Austin Lofthouse,Corpus Christi Tuloso-Midway,72.03,156.49,86.18,176.9,419.57,Single-ply,SBD,M
Boys,74.84,7,Robert Cantu,Mission Sharyland,72.76,154.22,95.25,170.1,419.57,Single-ply,SBD,M
Boys,74.84,8,Rene Torres,San Benito,69.04,154.22,83.91,170.1,408.23,Single-ply,SBD,M
Boys,74.84,9,Rick Garza,Mercedes,74.39,142.88,90.72,133.81,367.41,Single-ply,SBD,M
Boys,74.84,10,Rene Cedina,Mission Veterans Memorial,67.86,122.47,86.18,129.27,337.93,Single-ply,SBD,M
Boys,74.84,DQ,Michael Morales,Weslaco,72.3,,,,,Single-ply,SBD,M
Boys,74.84,DQ,Jesse Vega,Mercedes,74.75,158.76,97.52,,,Single-ply,SBD,M
Boys,74.84,DQ,Danny Zavala,Edcouch-Elsa,73.3,183.7,111.13,,,Single-ply,SBD,M
Boys,89.81,1,Erik Ramirez,Donna,82.28,272.16,151.95,242.67,666.78,Single-ply,SBD,M
Boys,82.1,2,Gabriel Martinez,Weslaco East,80.92,226.8,115.67,204.12,546.58,Single-ply,SBD,M
Boys,82.1,3,Danny Cruz,Donna,77.75,215.46,117.93,204.12,537.51,Single-ply,SBD,M
Boys,82.1,4,Cameron Handy,Corpus Christi Tuloso-Midway,80.83,201.85,124.74,201.85,528.44,Single-ply,SBD,M
Boys,82.1,5,Andrew Benavides,Corpus Christi Tuloso-Midway,80.2,199.58,131.54,195.04,526.17,Single-ply,SBD,M
Boys,82.1,6,Ivan Garcia,Pharr Valley View,80.06,190.51,127.01,201.85,519.36,Single-ply,SBD,M
Boys,82.1,7,Jose de la Rosa,Roma,80.56,190.51,102.06,208.65,501.22,Single-ply,SBD,M
Boys,82.1,8,Colton Hamilton,Pharr Valley View,77.79,183.7,102.06,213.19,498.95,Single-ply,SBD,M
Boys,82.1,9,Ernesto Tafolla,Weslaco,79.92,174.63,106.59,195.04,476.27,Single-ply,SBD,M
Boys,82.1,10,Matt Galvan,San Benito,81.19,176.9,102.06,185.97,464.93,Single-ply,SBD,M
Boys,82.1,11,Miguel Galvan,Pharr Valley View,81.19,188.24,111.13,165.56,464.93,Single-ply,SBD,M
Boys,82.1,12,Jose Garcia,Santa Maria,76.84,142.88,74.84,136.08,353.8,Single-ply,SBD,M
Boys,82.1,13,Marco Villarreal,Mission Sharyland,76.02,115.67,99.79,129.27,344.73,Single-ply,SBD,M
Boys,82.1,14,Jamie Villarreal,Mission Veterans Memorial,75.3,131.54,65.77,145.15,342.46,Single-ply,SBD,M
Boys,82.1,15,AJ Alvarez,Donna,75.21,113.4,72.57,120.2,306.17,Single-ply,SBD,M
Boys,82.1,DQ,Simon Hernandez,Edcouch-Elsa,78.65,192.78,,,,Single-ply,SBD,M
Boys,89.81,1,Xaviel Hinojosa,Weslaco East,88.63,274.42,163.29,254.01,691.73,Single-ply,SBD,M
Boys,89.81,2,Aaron Castillo,Los Fresnos,86.27,274.42,142.88,226.8,644.1,Single-ply,SBD,M
Boys,89.81,3,Ivan Gonzalez,Los Fresnos,89.27,247.21,142.88,235.87,625.96,Single-ply,SBD,M
Boys,89.81,4,Joseph Garcia,Weslaco East,89.81,229.06,149.69,235.87,614.62,Single-ply,SBD,M
Boys,89.81,5,Aaron Barron,San Benito,88.22,215.46,124.74,215.46,555.65,Single-ply,SBD,M
Boys,89.81,6,Jaime Solis,Edcouch-Elsa,89.54,192.78,124.74,199.58,517.1,Single-ply,SBD,M
Boys,89.81,7,Chris Castillo,Corpus Christi Tuloso-Midway,86.55,197.31,108.86,204.12,510.29,Single-ply,SBD,M
Boys,89.81,8,Santiago Lozoya,Santa Maria,87.45,213.19,97.52,185.97,496.68,Single-ply,SBD,M
Boys,89.81,9,Luis Hernandez,Edcouch-Elsa,85.18,174.63,117.93,201.85,494.42,Single-ply,SBD,M
Boys,89.81,10,Cliff Salinas,Roma,88.81,167.83,104.33,199.58,471.74,Single-ply,SBD,M
Boys,89.81,11,Eli Guzman,Roma,87.45,161.03,104.33,181.44,446.79,Single-ply,SBD,M
Boys,89.81,DQ,Michael Rowlett,Weslaco East,89.09,199.58,127.01,,,Single-ply,SBD,M
Boys,99.79,1,Victor Ruiz,Weslaco East,98.88,301.64,167.83,226.8,696.26,Single-ply,SBD,M
Boys,99.79,2,Ivan Arrevalo,Pharr Valley View,99.16,258.55,142.88,265.35,666.78,Single-ply,SBD,M
Boys,99.79,3,Andre Evans,San Benito,99.56,278.96,127.01,258.55,664.51,Single-ply,SBD,M
Boys,99.79,4,Aaron Garcia,Los Fresnos,97.98,249.48,145.15,204.12,598.74,Single-ply,SBD,M
Boys,99.79,5,Ryan Flores,Weslaco,95.8,215.46,142.88,217.72,576.06,Single-ply,SBD,M
Boys,99.79,6,Ivan Pina,Roma,97.61,224.53,136.08,201.85,562.45,Single-ply,SBD,M
Boys,99.79,7,Mauricio Verdin,Weslaco,96.71,231.33,120.2,204.12,555.65,Single-ply,SBD,M
Boys,99.79,8,Anthony Rodriguez,Edcouch-Elsa,98.79,233.6,111.13,195.04,539.77,Single-ply,SBD,M
Boys,99.79,9,Eric Maganas,Mercedes,91.63,208.65,127.01,183.7,519.36,Single-ply,SBD,M
Boys,99.79,10,Apollo Romo,Mercedes,97.34,197.31,102.06,201.85,501.22,Single-ply,SBD,M
Boys,109.77,11,Omar Ramirez,Roma,100.02,192.78,99.79,204.12,496.68,Single-ply,SBD,M
Boys,99.79,12,Victor Argullar,Mercedes,98.34,197.31,117.93,174.63,489.88,Single-ply,SBD,M
Boys,99.79,13,Mario Vera,Edcouch-Elsa,96.52,174.63,102.06,195.04,471.74,Single-ply,SBD,M
Boys,99.79,14,Robbie Garcia,Mercedes,94.17,172.37,104.33,151.95,428.64,Single-ply,SBD,M
Boys,99.79,15,Jon Ruiz,Mission Veterans Memorial,93.35,154.22,106.59,163.29,424.11,Single-ply,SBD,M
Boys,99.79,16,Jacob Alaniz,Mission Veterans Memorial,97.25,158.76,90.72,172.37,421.84,Single-ply,SBD,M
Boys,109.77,1,Sergio Guevara,Donna,104.6,251.74,136.08,213.19,601.01,Single-ply,SBD,M
Boys,109.77,2,Sam Salazar,Weslaco East,105.87,240.4,138.35,213.19,591.94,Single-ply,SBD,M
Boys,109.77,3,Eduardo Fraire,Donna,100.88,240.4,108.86,240.4,589.67,Single-ply,SBD,M
Boys,109.77,4,Matt Salazar,Corpus Christi Tuloso-Midway,102.51,231.33,131.54,195.04,557.92,Single-ply,SBD,M
Boys,109.77,5,Robert Garcia,Mission Sharyland,109.5,222.26,129.27,201.85,553.38,Single-ply,SBD,M
Boys,109.77,6,Troy Garza,Edcouch-Elsa,107.5,192.78,133.81,204.12,530.7,Single-ply,SBD,M
Boys,109.77,7,Ruben Rubio,Mercedes,103.24,215.46,122.47,188.24,526.17,Single-ply,SBD,M
Boys,109.77,8,Danny Villarreal,Edcouch-Elsa,102.42,192.78,133.81,192.78,519.36,Single-ply,SBD,M
Boys,109.77,9,Diego Almazo,Mission Sharyland,105.05,215.46,106.59,190.51,512.56,Single-ply,SBD,M
Boys,109.77,10,Robert Cardenas,Corpus Christi Tuloso-Midway,104.05,190.51,122.47,181.44,494.42,Single-ply,SBD,M
Boys,109.77,11,Matt Watson,Corpus Christi Tuloso-Midway,106.41,181.44,124.74,181.44,487.61,Single-ply,SBD,M
Boys,109.77,12,Joseph Ybarra,Edcouch-Elsa,109.77,219.99,,,219.99,Single-ply,S,M
Boys,124.74,DQ,Danny Ramos,Mission Veterans Memorial,109.86,167.83,99.79,,,Single-ply,SB,M
Boys,109.77,DQ,Frank Cavazos,Mission Veterans Memorial,109.59,172.37,99.79,,,Single-ply,SB,M
Boys,124.74,1,Carlos Cuellar,Weslaco East,118.57,299.37,185.97,240.4,725.75,Single-ply,SBD,M
Boys,124.74,2,D'Marco Smith,Corpus Christi Tuloso-Midway,117.66,272.16,158.76,213.19,644.1,Single-ply,SBD,M
Boys,124.74,3,Eliseo Pena,Weslaco,111.77,256.28,149.69,217.72,623.69,Single-ply,SBD,M
Boys,124.74,4,Jorge Alvarez,Edcouch-Elsa,116.48,238.14,145.15,192.78,576.06,Single-ply,SBD,M
Boys,124.74,5,Juan Rodriguez,Edcouch-Elsa,121.11,219.99,117.93,204.12,542.04,Single-ply,SBD,M
Boys,124.74,6,Julio Rivas,San Benito,118.84,219.99,127.01,183.7,530.7,Single-ply,SBD,M
Boys,124.74,7,Grant Garza,Mission Sharyland,114.76,195.04,108.86,208.65,512.56,Single-ply,SBD,M
Boys,124.74,8,Ángel Sánchez,Donna,111.95,233.6,111.13,158.76,503.49,Single-ply,SBD,M
Boys,124.74+,1,Luis Castillo,Weslaco,127.01,285.76,165.56,226.8,678.12,Single-ply,SBD,M
Boys,124.74+,2,Jorge Mendez,Pharr Valley View,126.1,308.44,136.08,226.8,671.32,Single-ply,SBD,M
Boys,124.74+,3,Mike Benavides,San Benito,145.1,238.14,124.74,183.7,546.58,Single-ply,SBD,M
Boys,124.74+,4,Abraham Martinez,Mission Veterans Memorial,166.74,204.12,120.2,195.04,519.36,Single-ply,SBD,M
Boys,124.74+,5,Arturo Velazquez,Roma,127.01,199.58,117.93,165.56,483.08,Single-ply,SBD,M
Boys,124.74+,DQ,Mando Salazar,Donna,126.28,,,,,Single-ply,SBD,M
