Place,Name,BirthYear,Country,Sex,Division,WeightClassKg,BodyweightKg,Squat1Kg,Squat2Kg,Squat3Kg,Best3SquatKg,Bench1Kg,Bench2Kg,Bench3Kg,Best3BenchKg,Deadlift1Kg,Deadlift2Kg,Deadlift3Kg,Best3DeadliftKg,TotalKg,Event,Equipment
1,Raija Koskinen-Jurkko,1963,Finland,F,Open,48,47.05,165,172.5,177.5,177.5,-90,90,92.5,92.5,152.5,157.5,-160,157.5,427.5,SBD,Single-ply
2,Bénédicte LePanse,1978,France,F,Open,48,47.5,145,155,162.5,162.5,90,95,-100,95,145,152.5,-155,152.5,410,SBD,Single-ply
3,Sanna Apuli,1981,Finland,F,Open,48,47.8,145,155,-162.5,155,67.5,72.5,77.5,77.5,145,152.5,-162.5,152.5,385,SBD,Single-ply
4,Ilka Schwengl-Forsthuber,1965,Austria,F,Open,48,47.35,125,132.5,135,135,92.5,97.5,-100,97.5,130,-140,140,140,372.5,SBD,Single-ply
1,Olena Dmytruk,1983,Ukraine,F,Open,52,51.75,165,172.5,180,180,100,105,110,110,155,165,172.5,172.5,462.5,SBD,Single-ply
2,Magdolna Petróczki,1968,Hungary,F,Open,52,51.15,150,-160,162.5,162.5,-80,80,82.5,82.5,155,165,-170,165,410,SBD,Single-ply
3,Mervi Sirkiä,1972,Finland,F,Open,52,51.7,157.5,-162.5,162.5,162.5,87.5,-90,90,90,155,-162.5,-162.5,155,407.5,SBD,Single-ply
4,Anastasiya Derevyanko,1987,Ukraine,F,Open,52,49.75,155,-162.5,-162.5,155,-90,90,-92.5,90,160,-167.5,-167.5,160,405,SBD,Single-ply
5,Carola Lindström,1982,Sweden,F,Open,52,50.65,145,155,-160,155,70,75,-80,75,145,155,-160,155,385,SBD,Single-ply
6,Sophie Guihomat,1975,France,F,Open,52,51.3,145,155,-160,155,75,80,-82.5,80,145,-155,-155,145,380,SBD,Single-ply
DQ,Marcela Sandvik,1974,Finland,F,Open,52,51.8,-147.5,-147.5,-147.5,,102.5,-107.5,-107.5,102.5,130,,,130,,SBD,Single-ply
1,Mervi Anita Rantamäki,1974,Finland,F,Open,56,55.9,175,185,-190,185,97.5,-100,-100,97.5,170,-175,-175,170,452.5,SBD,Single-ply
2,Viktoriya Abdulina,1967,Ukraine,F,Open,56,55.8,-180,-180,180,180,95,100,-102.5,100,160,162.5,-172.5,162.5,442.5,SBD,Single-ply
3,Oksana Chumak,1983,Ukraine,F,Open,56,54.05,-175,175,,175,-100,100,102.5,102.5,155,-160,-160,155,432.5,SBD,Single-ply
4,Maria Lindberg,1973,Finland,F,Open,56,54.6,150,-160,160,160,-87.5,87.5,90,90,157.5,162.5,170,170,420,SBD,Single-ply
1,Dana Matejova,1975,Slovakia,F,Open,60,59.9,182.5,190,197.5,197.5,115,120,125,125,160,170,-177.5,170,492.5,SBD,Single-ply
2,Mariya Chepil,1970,Ukraine,F,Open,60,58.95,170,-180,180,180,110,115,120,120,165,-172.5,-172.5,165,465,SBD,Single-ply
3,Linda Kåda Høiland,1979,Norway,F,Open,60,59.85,157.5,165,-167.5,165,85,87.5,90,90,165,172.5,177.5,177.5,432.5,SBD,Single-ply
4,Cécile Courqueux,1983,France,F,Open,60,57.4,160,165,170,170,72.5,-77.5,77.5,77.5,152.5,160,-167.5,160,407.5,SBD,Single-ply
DQ,Jana Hrabalová,1984,Czechia,F,Open,60,59.55,-145,-145,-145,,85,87.5,90,90,150,-165,,150,,SBD,Single-ply
1,Antonietta Orsini,1964,Italy,F,Open,67.5,66.65,200,210,220,220,135,-145,145,145,200,210,-215,210,575,SBD,Single-ply
2,Synnøve Lund,1972,Norway,F,Open,67.5,67.1,195,202.5,207.5,207.5,115,120,125,125,175,185,-190,185,517.5,SBD,Single-ply
3,Susanna Virkkunen,1973,Finland,F,Open,67.5,67.05,160,167.5,172.5,172.5,-127.5,127.5,-130,127.5,160,172.5,-177.5,172.5,472.5,SBD,Single-ply
4,Kristina Kaas Hofmann,1981,Denmark,F,Open,67.5,66.45,180,187.5,-195,187.5,90,-95,-95,90,175,185,-195,185,462.5,SBD,Single-ply
5,Magdalena Jablonska,1985,Poland,F,Open,67.5,67.4,-200,200,210,210,90,-92.5,-92.5,90,160,-172.5,-175,160,460,SBD,Single-ply
6,Elke Schreiber,1984,Germany,F,Open,67.5,66.25,165,177.5,-182.5,177.5,75,82.5,90,90,160,170,-175,170,437.5,SBD,Single-ply
7,María Guðsteinsdóttir,1970,Iceland,F,Open,67.5,67.15,-160,162.5,172.5,172.5,90,-95,95,95,160,-170,170,170,437.5,SBD,Single-ply
1,Olena Kozlova,1990,Ukraine,F,Open,75,74.4,215,230,235,235,-120,120,127.5,127.5,220,232.5,-242.5,232.5,595,SBD,Single-ply
2,Inger Blikra,1961,Norway,F,Open,75,74.2,210,-225,225,225,142.5,-147.5,-147.5,142.5,210,-220,-227.5,210,577.5,SBD,Single-ply
3,Riikka Ylitalo,1982,Finland,F,Open,75,74.65,-185,185,200,200,-125,125,-145,125,195,210,215,215,540,SBD,Single-ply
4,Lucia Christensen,1985,Sweden,F,Open,75,73.8,170,-182.5,185,185,110,-115,115,115,170,180,-185,180,480,SBD,Single-ply
5,Veronica Opdal,1985,Norway,F,Open,75,68.6,160,167.5,172.5,172.5,-95,95,-97.5,95,160,162.5,-165,162.5,430,SBD,Single-ply
1,Elizaveta Ivanova,1988,Ukraine,F,Open,82.5,75.15,215,230,240,240,137.5,145,150,150,190,207.5,220,220,610,SBD,Single-ply
2,Annette Pedersen,1968,Denmark,F,Open,82.5,75.5,180,195,202.5,202.5,127.5,-135,135,135,192.5,205,210,210,547.5,SBD,Single-ply
3,Heidi Hille Arnesen,1970,Norway,F,Open,82.5,75.3,200,210,215,215,-122.5,122.5,-127.5,122.5,-192.5,-192.5,192.5,192.5,530,SBD,Single-ply
1,Ielja Strik,1973,Netherlands,F,Open,90,88.6,240,-255,255,255,-165,-165,165,165,220,-230,-230,220,640,SBD,Single-ply
2,Yuliya Bushuyeva,1981,Ukraine,F,Open,90,84.85,-150,150,170,170,90,100,-110,100,150,-170,-170,150,420,SBD,Single-ply
1,Tetyana Varlamova,1989,Ukraine,F,Open,90+,137.15,205,220,232.5,232.5,90,100,105,105,220,240,-250,240,577.5,SBD,Single-ply
2,Brenda van der Meulen,1978,Netherlands,F,Open,90+,108.1,217.5,230,-235,230,-155,155,-162.5,155,180,190,-195,190,575,SBD,Single-ply
DQ,Hildeborg Juvet Hugdal,1983,Norway,F,Open,90+,128.5,255,262.5,270,270,185,-194,-194,185,-205,-205,-205,,,SBD,Single-ply
1,Dariusz Wszoła,1978,Poland,M,Open,56,55.3,230,240,247.5,247.5,145,155,-165,155,190,200,207.5,207.5,610,SBD,Single-ply
2,Pawel Osmialowski,1977,Poland,M,Open,56,55.3,230,240,245,245,120,127.5,-130,127.5,202.5,212.5,215,215,587.5,SBD,Single-ply
3,Frédéric Tinebra,1978,France,M,Open,56,55.9,200,215,222.5,222.5,137.5,145,150,150,185,205,215,215,587.5,SBD,Single-ply
1,Etienne Lited,1979,France,M,Open,60,59.8,-237.5,237.5,250,250,140,147.5,150,150,225,235,-242.5,235,635,SBD,Single-ply
2,Suradzh Chebotar,1977,Ukraine,M,Open,60,59.55,245,-252.5,252.5,252.5,140,145,-147.5,145,210,220,-222.5,220,617.5,SBD,Single-ply
3,Dominik Golak,1982,Poland,M,Open,60,59.7,230,240,245,245,-142.5,142.5,-147.5,142.5,210,222.5,-230,222.5,610,SBD,Single-ply
4,Thomas Wulffeld,1969,Sweden,M,Open,60,60,200,210,-220,210,112.5,-117.5,-117.5,112.5,215,222.5,-237.5,222.5,545,SBD,Single-ply
1,Phil Richard,1971,UK,M,Open,67.5,67.4,275,-290,292.5,292.5,185,190,-192.5,190,220,237.5,-250,237.5,720,SBD,Single-ply
2,Peep Päll,1970,Estonia,M,Open,67.5,67.25,227.5,242.5,-250,242.5,147.5,155,-160,155,210,235,255,255,652.5,SBD,Single-ply
3,Alo Lille,1980,Estonia,M,Open,67.5,67.1,190,-210,210,210,-150,150,157.5,157.5,210,220,230,230,597.5,SBD,Single-ply
4,Karel Ruso,1965,Czechia,M,Open,67.5,66.5,-235,235,260,260,100,-107.5,-107.5,100,210,225,235,235,595,SBD,Single-ply
DQ,Rodney Hypolite,1969,UK,M,Open,67.5,66.6,-270,-270,-270,,-160,175,-190,175,250,-275,,250,,SBD,Single-ply
DQ,Maksym Masyuk,1989,Ukraine,M,Open,67.5,66.7,270,280,290,290,-170,-170,-170,,240,252.5,-260,252.5,,SBD,Single-ply
DQ,Hassan El Belghiti,1975,France,M,Open,67.5,67.45,260,275,-282.5,275,-155,-155,-155,,,,,,,SBD,Single-ply
1,Jarosław Olech,1974,Poland,M,Open,75,73.6,330,350,-370,350,-205,210,220,220,285,300,312.5,312.5,882.5,SBD,Single-ply
2,Sami Nieminen,1975,Finland,M,Open,75,74.2,-285,285,-295,285,-180,-180,180,180,285,300,-315,300,765,SBD,Single-ply
3,Kader Baali,1968,France,M,Open,75,74.45,275,285,290,290,182.5,-187.5,-187.5,182.5,267.5,-282.5,282.5,282.5,755,SBD,Single-ply
4,Amit Selberg,1976,Sweden,M,Open,75,74.15,-270,-275,275,275,205,-210,210,210,232.5,245,255,255,740,SBD,Single-ply
5,Eduard Tepper,1979,Germany,M,Open,75,74.4,240,255,-262.5,255,202.5,212.5,217.5,217.5,260,-275,-275,260,732.5,SBD,Single-ply
6,Petteri Keränen,1987,Finland,M,Open,75,74.15,265,-275,282.5,282.5,165,-175,-175,165,270,-292.5,-295,270,717.5,SBD,Single-ply
7,Stanimir Boyanov,1984,Bulgaria,M,Open,75,74.15,235,-250,-250,235,-150,160,-170,160,220,232.5,-240,232.5,627.5,SBD,Single-ply
DQ,Rostislav Petkov,1988,Bulgaria,M,Open,75,73.85,280,295,-302.5,295,-210,-210,-210,,270,290,-302.5,290,,SBD,Single-ply
1,Daniel Miller,1988,Poland,M,Open,82.5,82.05,330,340,350,350,210,-220,-220,210,275,285,-292.5,285,845,SBD,Single-ply
2,Volodymyr Rysiev,1982,Ukraine,M,Open,82.5,79.95,320,330,-340,330,-210,-210,210,210,275,295,-305,295,835,SBD,Single-ply
3,Robert Mihailov,1977,Bulgaria,M,Open,82.5,82.2,285,300,-307.5,300,202.5,-207.5,-207.5,202.5,-300,300,312.5,312.5,815,SBD,Single-ply
4,Jouni Kvist,1973,Finland,M,Open,82.5,82.3,295,-302.5,305,305,185,190,-195,190,295,305,-322.5,305,800,SBD,Single-ply
5,Robert Palmer #2,1982,UK,M,Open,82.5,82,280,-300,-300,280,-225,225,-230,225,260,280,-290,280,785,SBD,Single-ply
6,Todor Vasilev,1978,Bulgaria,M,Open,82.5,80.35,295,-307.5,-307.5,295,-170,175,-185,175,300,310,-320,310,780,SBD,Single-ply
7,Miklós Fekete,1973,Hungary,M,Open,82.5,82.05,290,-295,-307.5,290,195,-202.5,-202.5,195,275,-282.5,282.5,282.5,767.5,SBD,Single-ply
9,Pardeep Kailey,1983,Netherlands,M,Open,82.5,78.55,245,257.5,265,265,157.5,-165,165,165,250,-265,-265,250,680,SBD,Single-ply
DD,Rudy Agus,1974,Italy,M,Open,82.5,81.8,255,265,-280,265,142.5,-152.5,155,155,-302.5,-310,310,310,,SBD,Single-ply
DQ,Jani Närhi,1973,Finland,M,Open,82.5,82.2,290,300,-310,300,200,207.5,-210,207.5,-282.5,-287.5,-287.5,,,SBD,Single-ply
1,Jan Wegiera,1965,Poland,M,Open,90,88.05,315,330,340,340,270,-280,-280,270,280,290,-300,290,900,SBD,Single-ply
2,Margus Silbaum,1976,Estonia,M,Open,90,89.8,325,335,,335,-210,-210,210,210,320,330,347.5,347.5,892.5,SBD,Single-ply
3,Andriy Krymov,1985,Ukraine,M,Open,90,89.7,305,320,-330,320,-260,260,-280,260,285,305,310,310,890,SBD,Single-ply
4,Daniele Ghirardi,1969,Italy,M,Open,90,89.35,300,-320,-320,300,220,-240,,220,320,330,-335,330,850,SBD,Single-ply
5,Pjotr van den Hoek,1972,Netherlands,M,Open,90,89.9,300,310,-315,310,215,-220,-220,215,290,300,305,305,830,SBD,Single-ply
6,Jiří Horník,1978,Czechia,M,Open,90,88.65,270,-287.5,287.5,287.5,210,220,225,225,280,300,-317.5,300,812.5,SBD,Single-ply
7,Michael Jensen,1980,Denmark,M,Open,90,89.7,305,-317.5,-317.5,305,167.5,-172.5,172.5,172.5,280,-312.5,317.5,317.5,795,SBD,Single-ply
8,Pavol Varchola,1978,Slovakia,M,Open,90,89.9,290,302.5,-312.5,302.5,195,200,-210,200,-290,-290,290,290,792.5,SBD,Single-ply
9,Robert Lochno,1976,Germany,M,Open,90,89.5,315,-335,-342.5,315,170,180,187.5,187.5,270,285,,285,787.5,SBD,Single-ply
DQ,Mykhaylo Bulanyy,1975,Ukraine,M,Open,90,88.8,350,365,375,375,-240,-240,-240,,320,332.5,-337.5,332.5,,SBD,Single-ply
DQ,Hannu Malinen,1955,Finland,M,Open,90,88.8,275,-290,,275,200,-210,,200,-310,-310,-310,,,SBD,Single-ply
DQ,Muhammed Bilican,1987,Belgium,M,Open,90,89.15,315,-330,330,330,-220,-220,-225,,-250,-250,,-250,,SBD,Single-ply
DQ,Nicolaj Dahlin,1985,Denmark,M,Open,90,89.3,300,-315,-322.5,300,-180,-180,-180,,,,,,,SBD,Single-ply
DQ,Alexander Kirketeig,1979,Norway,M,Open,90,89.75,-320,-320,320,320,-235,-235,-235,,270,-300,-300,270,,SBD,Single-ply
1,Ivan Freydun,1981,Ukraine,M,Open,100,99.05,340,357.5,370,370,272.5,282.5,291.5,291.5,340,360,-365,360,1021.5,SBD,Single-ply
2,Jacek Wiak,1975,Poland,M,Open,100,98.9,355,365,382.5,382.5,255,262.5,-267.5,262.5,315,325,335,335,980,SBD,Single-ply
3,Anibal Manuel Coimbra Marques,1972,Luxembourg,M,Open,100,99.3,-345,345,-357.5,345,-237.5,245,250,250,325,337.5,345,345,940,SBD,Single-ply
4,Andr Peeters,1970,France,M,Open,100,99,320,345,355,355,-230,-232.5,232.5,232.5,305,320,-332.5,320,907.5,SBD,Single-ply
5,Igor Makovetskiy,1972,Ukraine,M,Open,100,96.65,340,357.5,370,370,-217.5,217.5,-232.5,217.5,275,300,-310,300,887.5,SBD,Single-ply
6,Karol Kopienka,1980,Poland,M,Open,100,99.7,335,-345,-345,335,-205,-205,205,205,300,-325,,300,840,SBD,Single-ply
7,Petri Heikkinen,1973,Finland,M,Open,100,99.2,300,315,-325,315,210,-215,-217.5,210,290,-300,-300,290,815,SBD,Single-ply
8,Robert Spindler,1984,Austria,M,Open,100,99.99,285,300,307.5,307.5,190,200,205,205,285,297.5,300,300,812.5,SBD,Single-ply
9,Christoph Erbs,1979,Germany,M,Open,100,93.75,300,-320,-320,300,-185,185,190,190,320,-340,-340,320,810,SBD,Single-ply
10,Kim Dahl Hansen,1971,Denmark,M,Open,100,99.8,280,-295,-295,280,190,-197.5,-197.5,190,280,-312.5,,280,750,SBD,Single-ply
11,Floris Van Melis,1981,Netherlands,M,Open,100,97.85,265,285,-300,285,195,-205,-205,195,240,257.5,265,265,745,SBD,Single-ply
DQ,Sami Hakkarainen,1976,Finland,M,Open,100,99.7,300,310,-320,310,-220,-220,-220,,300,320,340,340,,SBD,Single-ply
1,Orhan Bilican,1978,Belgium,M,Open,110,109.75,400,-418.5,,400,290,-295,,290,275,290,-310,290,980,SBD,Single-ply
2,Tor-Herman Omland,1977,Norway,M,Open,110,110,360,367.5,372.5,372.5,-280,280,-285,280,-310,-310,310,310,962.5,SBD,Single-ply
3,Slawomir Ceglarek,1974,Poland,M,Open,110,109.55,355,365,-375,365,240,-247.5,-247.5,240,325,335,-345,335,940,SBD,Single-ply
4,Aleksandrs Grigorjevs,1985,Latvia,M,Open,110,108.3,357.5,372.5,377.5,377.5,-235,235,-242.5,235,310,325,-330,325,937.5,SBD,Single-ply
5,Vasil Yanchev,1985,Bulgaria,M,Open,110,108.75,335,-350,350,350,210,220,230,230,325,-335,-337.5,325,905,SBD,Single-ply
6,Sune Bak,1974,Denmark,M,Open,110,109.75,315,-330,-330,315,250,-257.5,257.5,257.5,285,300,-305,300,872.5,SBD,Single-ply
7,Tomi Muhonen,1983,Finland,M,Open,110,108.3,-335,335,-350,335,220,-235,-240,220,290,300,-305,300,855,SBD,Single-ply
8,Peter Ovsonka,1982,Slovakia,M,Open,110,105.9,335,-355,-357.5,335,210,217.5,-222.5,217.5,295,-307.5,-307.5,295,847.5,SBD,Single-ply
1,Viktor Testsov,1989,Ukraine,M,Open,125,124.7,350,360,-367.5,360,-270,270,282.5,282.5,-310,310,322.5,322.5,965,SBD,Single-ply
2,Kenneth Sandvik,1975,Finland,M,Open,125,124.55,-365,372.5,380,380,275,-280,-280,275,300,307.5,-312.5,307.5,962.5,SBD,Single-ply
3,Stefan Huld,1966,Sweden,M,Open,125,124.35,-340,350,-360,350,245,-255,255,255,310,325,335,335,940,SBD,Single-ply
4,David Holmberg,1973,Sweden,M,Open,125,124.85,365,377.5,380,380,-240,240,250,250,290,302.5,-307.5,302.5,932.5,SBD,Single-ply
5,Tomáš Šárik,1975,Czechia,M,Open,125,114.45,345,360,-367.5,360,235,242.5,247.5,247.5,320,-332.5,-332.5,320,927.5,SBD,Single-ply
6,Ben Banks,1984,UK,M,Open,125,117.35,290,305,315,315,230,245,-255,245,310,325,-335,325,885,SBD,Single-ply
7,Jean-Luc Collart,1959,Belgium,M,Open,125,120.8,320,340,350,350,200,207.5,212.5,212.5,290,300,-305,300,862.5,SBD,Single-ply
8,Rudolf Barák,1978,Czechia,M,Open,125,117.35,290,305,320,320,185,-195,-195,185,290,-310,-310,290,795,SBD,Single-ply
DQ,Asbjørn Randen,1973,Norway,M,Open,125,124.65,385,395,-400,395,-285,-285,-285,,250,-252.5,-337.5,250,,SBD,Single-ply
1,Jari Martikainen,1975,Finland,M,Open,125+,149.8,385,400,-410,400,255,260,-265,260,350,357.5,362,362,1022.5,SBD,Single-ply
2,Daniel Grabowski,1986,Poland,M,Open,125+,132.55,390,-410,410,410,-260,260,-270,260,340,-350,-350,340,1010,SBD,Single-ply
3,Milan Špingl,1980,Czechia,M,Open,125+,143.25,395,412.5,420,420,-265,-265,265,265,310,322.5,-327.5,322.5,1007.5,SBD,Single-ply
4,Johnny Wahlqvist,1973,Sweden,M,Open,125+,169.2,390,-405,-405,390,330,-342.5,-342.5,330,260,275,280,280,1000,SBD,Single-ply
5,Fredrik Svensson,1979,Sweden,M,Open,125+,142.4,350,365,-375,365,-310,310,-317.5,310,305,315,-332.5,315,990,SBD,Single-ply
6,Auðunn Jónsson,1972,Iceland,M,Open,125+,138.75,360,375,380,380,245,255,-260,255,330,350,,350,985,SBD,Single-ply
7,Andy-Elvis Dörner,1976,Germany,M,Open,125+,135.4,400,415,-422.5,415,230,242.5,-250,242.5,295,307.5,-315,307.5,965,SBD,Single-ply
8,Vasyl Mezerya,1978,Ukraine,M,Open,125+,135.5,340,355,-370,355,-240,240,-255,240,320,332.5,-342.5,332.5,927.5,SBD,Single-ply
9,Gabor Pesszer,1984,Hungary,M,Open,125+,173.3,290,315,-325,315,235,-240,-245,235,270,-285,-285,270,820,SBD,Single-ply
DQ,Dean Bowring,1974,UK,M,Open,125+,135.4,380,400,410,410,-285,-285,-285,,330,350,365,365,,SBD,Single-ply
