Name,Place,Division,Sex,Equipment,Country-State,WeightClassKg,BodyweightKg,Age,Best3SquatKg,Squat4Kg,Best3BenchKg,Bench4Kg,Best3DeadliftKg,Deadlift4Kg,TotalKg,Event
Tiffany Leung,1,Juniors 20-23,F,Raw,USA-CA,44,42.37,23,97.5,,50,,140,,287.5,SBD
Stacia-Al Mahoe,1,Juniors 15-19,F,Raw,USA-HI,48,47.63,17,95,,65,,132.5,137.5,292.5,SBD
Lauren Goebel,1,Juniors 20-23,F,Raw,USA-OH,48,47.81,22,85,,57.5,58.5,145,,287.5,SBD
Annie Diu,2,Juniors 20-23,F,Raw,USA-TX,48,47.4,23,100,106,55,,130,,285,SBD
Ngoc Morales,1,Juniors 20-23,F,Raw,USA-TX,52,50.8,23,105,,37.5,,107.5,,250,SBD
Natalie Pulgini,1,Juniors 20-22,F,Raw,USA-OK,56,55.47,23,102.5,,47.5,,120,,270,SBD
Brittany Flores,1,Juniors 20-22,F,Raw,USA-TX,60,59.38,21,130,,80,,170,,380,SBD
Jenny Tu,2,Juniors 20-21,F,Raw,USA-CA,60,59.33,23,142.5,147.5,75,,142.5,,360,SBD
Erin Zenker,3,Juniors 20-21,F,Raw,USA-HI,60,59.56,22,120,,75,,152.5,,347.5,SBD
Reyna Rochin,4,Juniors 20-20,F,Raw,USA-CA,60,59.15,23,115,,60,,142.5,,317.5,SBD
Jennifer Combs,1,Juniors 20-20,F,Raw,USA-WA,67.5,66.86,21,162.5,,92.5,,172.5,,427.5,SBD
Andrea Corder,DQ,Juniors 20-19,F,Raw,USA-CA,67.5,67.36,23,107.5,,67.5,,-142.5,,,SBD
Brianna Harris,1,Juniors 20-19,F,Raw,USA-OK,75,70.9,22,150,,80,,160,,390,SBD
Corina Scott,1,Juniors 20-18,F,Raw,USA-CA,82.5,82.01,21,157.5,,82.5,,170,,410,SBD
Stacia-Al Mahoe,1,Open,F,Raw,USA-HI,48,47.63,17,95,,65,,132.5,137.5,292.5,SBD
Annie Diu,2,Open,F,Raw,USA-TX,48,47.4,23,100,106,55,,130,,285,SBD
Michelle Orgeta,3,Open,F,Raw,USA-CA,48,47.63,24,90,,40,,125,,255,SBD
Tina Daneshmand,1,Open,F,Raw,USA-CA,52,51.39,27,122.5,,72.5,,172.5,,367.5,SBD
Desiree Morgan,1,Open,F,Raw,USA-CA,56,55.93,26,140,,65,,167.5,,372.5,SBD
Vanessa Alvares,2,Open,F,Raw,Brazil,56,54.79,36,140,,67.5,,160,,367.5,SBD
Anne Casstevens,3,Open,F,Raw,USA-UT,56,55.88,31,95,,62.5,,120,,277.5,SBD
Alana Gamundoy,4,Open,F,Raw,USA-HI,56,55.75,28,82.5,,55,,137.5,,275,SBD
Nicole Gonzalez,1,Open,F,Raw,USA-TX,60,59.69,31,142.5,,77.5,,177.5,,397.5,SBD
Erin Zenker,2,Open,F,Raw,USA-HI,60,59.56,22,120,,75,,152.5,,347.5,SBD
Monique Jackson,1,Open,F,Raw,USA-GA,67.5,66.09,43,170,,132.5,,212.5,,515,SBD
Jennifer Combs,2,Open,F,Raw,USA-WA,67.5,66.86,21,162.5,,92.5,,172.5,,427.5,SBD
Natalie Terrana,3,Open,F,Raw,USA-FL,67.5,65.23,27,140,,70,,187.5,,397.5,SBD
Nishea Martinez,4,Open,F,Raw,USA-CA,67.5,66.13,29,150,,75,,160,,385,SBD
Leah Lutz,5,Open,F,Raw,USA-CA,67.5,67.09,39,142.5,,70,,152.5,,365,SBD
Lee Lipsitz,6,Open,F,Raw,USA-CT,67.5,67.27,49,130,,67.5,,160,,357.5,SBD
Renae Holmdahl,7,Open,F,Raw,USA-WA,67.5,66,36,125,,80,,142.5,,347.5,SBD
Allison Bean,8,Open,F,Raw,USA-HI,67.5,63.05,31,115,,67.5,,152.5,,335,SBD
Ogechi Akalegbere,1,Open,F,Raw,USA-MD,75,74.43,26,152.5,,75,,157.5,,385,SBD
Laura Macauley,2,Open,F,Raw,Canada,75,74.71,24,122.5,,75,,150,,347.5,SBD
Chelsea Delois,3,Open,F,Raw,USA-FL,75,69.04,25,105,,70,,127.5,,302.5,SBD
Tammy Walker,DQ,Open,F,Raw,USA-OR,75,74.8,41,-135,,67.5,,157.5,,,SBD
Corina Scott,1,Open,F,Raw,USA-CA,82.5,82.01,21,157.5,,82.5,,170,,410,SBD
Sophia Hussary,DQ,Open,F,Raw,USA-AZ,82.5,82.33,37,-112.5,,87.5,,165,,,SBD
Grace Tacuyan-Witt,1,Open,F,Raw,USA-NV,90+,107.37,37,155,,72.5,,177.5,,405,SBD
Debbie Vizina,1,Masters 45+,F,Raw,USA-WY,56,55.07,48,75,,47.5,,117.5,,240,SBD
Martha King,1,Masters 55+,F,Raw,USA-TX,56,53.71,56,62.5,,35,,97.5,,195,SBD
Maggie Haywood,1,Masters 70+,F,Raw,USA-CA,60,57.52,70,52.5,,35,,82.5,,170,SBD
Monique Jackson,1,Masters 40+,F,Raw,USA-GA,67.5,66.09,43,170,,132.5,,212.5,,515,SBD
Vickie Shaw,2,Masters 40+,F,Raw,USA-UT,67.5,65.5,40,85,,62.5,,137.5,,285,SBD
Lee Lipsitz,1,Masters 45+,F,Raw,USA-CT,67.5,67.27,49,130,,67.5,,160,,357.5,SBD
Rome Stein,2,Masters 45+,F,Raw,USA-HI,67.5,65.45,47,112.5,,67.5,,127.5,,307.5,SBD
Tori Gray,1,Masters 50+,F,Raw,USA-ID,67.5,64.77,53,102.5,,57.5,,137.5,,297.5,SBD
Courtenay Khoury,1,Masters 55+,F,Raw,USA-FL,67.5,64.55,57,90,,67.5,,137.5,,295,SBD
Tammy Walker,DQ,Masters 40+,F,Raw,USA-OR,75,74.8,41,-135,,67.5,,157.5,,,SBD
Jake Schellenschlager,1,Juniors 15-19,M,Raw,USA-MD,56,55.38,14,115,,98,,152.5,160.5,365.5,SBD
Chevy Shumaker,1,Juniors 15-19,M,Raw,USA-AZ,60,58.79,15,137.5,,70,,162.5,,370,SBD
Darius Theos-King,1,Juniors 15-19,M,Raw,USA-NV,67.5,63.96,18,137.5,,87.5,,192.5,,417.5,SBD
Brian Kuveke,DQ,Juniors 20-23,M,Raw,USA-NV,67.5,67.18,21,-200,,120,,205,,,SBD
Ericson Torralba,1,Juniors 15-19,M,Raw,USA-CA,75,74.98,19,207.5,,130,,235,,572.5,SBD
Steven Lopez,1,Juniors 20-23,M,Raw,USA-CA,75,74.75,22,230,,135,,290.5,,655.5,SBD
Daniel Ly,2,Juniors 20-23,M,Raw,USA-CA,75,73.44,23,182.5,,167.5,,227.5,,577.5,SBD
Braden Sanchez,3,Juniors 20-22,M,Raw,USA-OK,75,73.98,22,195,,120,,257.5,,572.5,SBD
Joe Francisco #1,4,Juniors 20-22,M,Raw,USA-CA,75,73.75,22,182.5,,97.5,,237.5,,517.5,SBD
Brandon Cordero,5,Juniors 20-21,M,Raw,USA-TX,75,74.89,20,190,,117.5,,210,,517.5,SBD
Barry He,6,Juniors 20-21,M,Raw,USA-CA,75,74.21,21,172.5,,107.5,,235,,515,SBD
Nicholas Ramsey,7,Juniors 20-20,M,Raw,USA-CA,75,74.89,23,182.5,,115,,210,,507.5,SBD
Trevor Sellers,1,Juniors 15-19,M,Raw,USA-TX,82.5,81.87,18,217.5,,145,,192.5,,555,SBD
Chance Mitchell,1,Juniors 20-23,M,Raw,USA-TX,82.5,81.24,20,227.5,,122.5,,272.5,,622.5,SBD
Joseph Manno,2,Juniors 20-23,M,Raw,USA-CA,82.5,82.24,23,192.5,,145,,247.5,,585,SBD
Serro Park,3,Juniors 20-23,M,Raw,USA-CA,82.5,80.74,22,185,,130,,205,,520,SBD
Charlie Shin,1,Juniors 15-19,M,Raw,USA-IN,90,88.81,19,225,,135,,265,,625,SBD
Jacob Olivas,1,Juniors 20-23,M,Raw,USA-CA,90,88.41,23,220,,140,,245,,605,SBD
Kyle Alexander #1,1,Juniors 15-19,M,Raw,USA-CA,100,97.84,18,260,,137.5,,273,,670.5,SBD
Lucian York,1,Juniors 20-23,M,Raw,USA-CO,100,97.3,22,295,,177.5,,300,,772.5,SBD
Mason Merilles,1,Juniors 15-19,M,Raw,USA-CA,110,107.73,19,255,,155,,272.5,,682.5,SBD
Zack Carr,2,Juniors 15-19,M,Raw,USA-PA,110,107.82,17,250,,142.5,,270,,662.5,SBD
Mark Bocanegra,3,Juniors 15-19,M,Raw,USA-TX,110,103.83,18,237.5,,150,,217.5,,605,SBD
Nadeem Hamidy,1,Juniors 15-19,M,Raw,USA-CA,125,110.09,19,230,,150,,247.5,,627.5,SBD
Tristan Anderson,2,Juniors 15-19,M,Raw,USA-MN,125,117.12,17,275,,102.5,,220,,597.5,SBD
Zack Schmitz,1,Juniors 20-23,M,Raw,USA-AZ,125,114.53,20,205,,190,,272.5,,667.5,SBD
William Stoltz,1,Juniors 15-19,M,Raw,USA-AZ,140,129.27,19,253,,145,,272.5,,670.5,SBD
Josh Wireman,1,Juniors 20-23,M,Raw,USA-WA,140,138.84,21,295,,205,,230,,730,SBD
Joe Mass,1,Juniors 20-23,M,Raw,USA-CA,140+,174.59,22,297.5,,192.5,,320,,810,SBD
Steven Maradona,DQ,Juniors 20-23,M,Raw,USA-CA,140+,143.29,21,340,,-225,,,,,SBD
Shorty Sadang,1,Open,M,Raw,USA-CA,56,55.29,26,165,167.5,110,,202.5,,477.5,SBD
Joseph Bautista,1,Open,M,Raw,USA-CA,60,59.28,24,140,,110,,195,,445,SBD
Scott Layman,1,Open,M,Raw,USA-CA,67.5,66,44,220,,142.5,,215,,577.5,SBD
Joe Armas,2,Open,M,Raw,USA-CA,67.5,66.22,26,172.5,,105,,220,,497.5,SBD
Christopher Ramirez,DQ,Open,M,Raw,USA-TX,67.5,67.49,28,165,,-125,,177.5,,,SBD
Martin Baculinao,DQ,Open,M,Raw,USA-CA,67.5,67.18,24,-180,,115,,-275,,,SBD
Rostislav Petkov,1,Open,M,Raw,Bulgaria,75,73.89,25,267.5,,191,,290,300,748.5,SBD
Steven Lopez,2,Open,M,Raw,USA-CA,75,74.75,22,230,,135,,290.5,,655.5,SBD
Cody Lefever,3,Open,M,Raw,USA-CA,75,74.53,28,227.5,,150,,272.5,,650,SBD
Bruce Randall,4,Open,M,Raw,USA-NV,75,74.39,26,227.5,,165,,252.5,,645,SBD
Richard Kang,5,Open,M,Raw,USA-CA,75,73.16,24,190,,125,,220,,535,SBD
Barry He,6,Open,M,Raw,USA-CA,75,74.21,21,172.5,,107.5,,235,,515,SBD
Alex Cho,DQ,Open,M,Raw,USA-CA,75,74.66,26,-200,,,,,,,SBD
Chris Garcia,1,Open,M,Raw,USA-CA,82.5,80.6,27,265,,187.5,,305,,757.5,SBD
Chance Mitchell,2,Open,M,Raw,USA-TX,82.5,81.24,20,227.5,,122.5,,272.5,,622.5,SBD
Bryce Bashant,3,Open,M,Raw,USA-OK,82.5,80.78,24,227.5,,145,,232.5,,605,SBD
Bart Kwan,DQ,Open,M,Raw,USA-CA,82.5,81.56,29,192.5,,-147.5,,,,,SBD
Chris Bartley #1,1,Open,M,Raw,USA-CO,90,88.63,40,255,,170,,300,,725,SBD
Andrew Zook,2,Open,M,Raw,USA-WY,90,89.36,35,245,,182.5,,287.5,,715,SBD
Blaine Terry,2,Open,M,Raw,USA-TX,90,87.5,27,215,,187.5,,310,,712.5,SBD
Bradley Schofield,4,Open,M,Raw,USA-AZ,90,89.77,32,237.5,,147.5,,300,,685,SBD
Steve Melero,5,Open,M,Raw,USA-CA,90,89.95,32,242.5,,147.5,,292.5,,682.5,SBD
Don Johnson #1,6,Open,M,Raw,USA-UT,90,89.58,29,235,,177.5,,245,,657.5,SBD
Phillip Watford,7,Open,M,Raw,USA-NV,90,89.18,36,232.5,,150,,260,,642.5,SBD
Chris Mangano,8,Open,M,Raw,USA-CA,90,88.36,38,242.5,,145,,250,,637.5,SBD
Adrian Martinez,9,Open,M,Raw,USA-CO,90,88.77,29,252.5,,130,,250,,632.5,SBD
Charlie Shin,10,Open,M,Raw,USA-IN,90,88.81,19,225,,135,,265,,625,SBD
Conor Ames,11,Open,M,Raw,USA-WA,90,88.95,28,215,,147.5,,250,,612.5,SBD
Andrew Hanus,12,Open,M,Raw,USA-CA,90,88.54,26,237.5,,137.5,,235,,610,SBD
Lu Galvez,13,Open,M,Raw,USA-CA,90,88.68,26,227.5,,127.5,,250,,605,SBD
Jonathan Hodges,14,Open,M,Raw,USA-NV,90,89.09,33,200,,160,,227.5,,587.5,SBD
Andrew Herbert,1,Open,M,Raw,USA-CA,100,98.88,33,295,,210,,337.5,,842.5,SBD
Luigi Fagiani,2,Open,M,Raw,USA-NY,100,99.2,24,285,,190,,345,,820,SBD
Andrew Corlett,3,Open,M,Raw,USA-CA,100,99.11,33,272.5,,170,,295,,737.5,SBD
Joseph Franzo,4,Open,M,Raw,USA-CA,100,99.38,24,262.5,,185,,280,,727.5,SBD
Joseph Adamo,5,Open,M,Raw,USA-CA,100,97.89,28,250,,175,,272.5,,697.5,SBD
Tony McCreary,6,Open,M,Raw,USA-CA,100,97.79,28,205,,150,,305,,660,SBD
Mike Cannon,1,Open,M,Raw,USA-UT,110,109.77,40,317.5,,200,,300,,817.5,SBD
Chad Wilson,2,Open,M,Raw,USA-CA,110,107.37,43,282.5,,197.5,,285,,765,SBD
John Mazza,3,Open,M,Raw,USA-UT,110,109.63,33,267.5,,192.5,,302.5,,762.5,SBD
Dave Breker,4,Open,M,Raw,Canada,110,104.6,33,275,,220,,265,,760,SBD
Mark Bocanegra,5,Open,M,Raw,USA-TX,110,103.83,18,237.5,,150,,217.5,,605,SBD
Thomas Matlock,6,Open,M,Raw,USA-AZ,110,108.05,63,190.5,,110,,205,,505.5,SBD
Zach Wittusen,1,Open,M,Raw,USA-CA,125,116.07,23,295,,205,,285,,785,SBD
Chris Colon,2,Open,M,Raw,USA-NV,125,113.94,25,265,,170,,305,,740,SBD
Zack Schmitz,3,Open,M,Raw,USA-AZ,125,114.53,20,205,,190,,272.5,,667.5,SBD
Jake Burghardt,4,Open,M,Raw,USA-OK,125,124.24,27,212.5,,160,,272.5,,645,SBD
Robb Philippus,1,Open,M,Raw,USA-IA,140,138.07,32,387.5,,230,,330,,947.5,SBD
Shawn Doyle,2,Open,M,Raw,USA-OR,140,138.25,29,325,,227.5,,380,,932.5,SBD
Grant Higa,3,Open,M,Raw,USA-WA,140,138.39,43,322.5,,195,,327.5,,845,SBD
Joe Mass,1,Open,M,Raw,USA-CA,140+,174.59,22,297.5,,192.5,,320,,810,SBD
O'Neil Roussell,2,Open,M,Raw,USA-CA,140+,165.33,28,300,,195,,272.5,,767.5,SBD
Robert Speno,3,Open,M,Raw,USA-CA,140+,140.21,45,275,,175,,260,,710,SBD
Scott Layman,1,Masters 40+,M,Raw,USA-CA,67.5,66,44,220,,142.5,,215,,577.5,SBD
Jeffrey Stanley,1,Masters 55+,M,Raw,USA-CA,75,74.03,56,127.5,,97.5,,217.5,,442.5,SBD
Alan Levine,1,Masters 65+,M,Raw,USA-OR,75,74.39,65,148,,96,,190.5,,434.5,SBD
Chris Bartley #1,1,Masters 40+,M,Raw,USA-CO,90,88.63,40,255,,170,,300,,725,SBD
Daniel Mahan,1,Masters 45+,M,Raw,USA-CA,90,89.68,48,227.5,,132.5,,262.5,,622.5,SBD
Eric Ritter,2,Masters 45+,M,Raw,USA-CA,90,88.54,47,222.5,,145,,245,,612.5,SBD
Isaac Akuna,1,Masters 60+,M,Raw,USA-HI,90,89.9,60,185,,115,,270,,570,SBD
Harvey Pendleton,1,Masters 65+,M,Raw,USA-TX,90,86.32,67,100,,80,,187.5,,367.5,SBD
Rich Tsutsui,2,Masters 65+,M,Raw,USA-CA,90,84.46,68,132.5,,85,,140,,357.5,SBD
Johnny Layne,1,Masters 40+,M,Raw,USA-WV,100,92.49,42,205,,167.5,,258,,630.5,SBD
Howard Myers,1,Masters 65+,M,Raw,USA-CA,100,92.76,69,185,,80,,272.5,,537.5,SBD
Mike Cannon,1,Masters 40+,M,Raw,USA-UT,110,109.77,40,317.5,,200,,300,,817.5,SBD
Chad Wilson,2,Masters 40+,M,Raw,USA-CA,110,107.37,43,282.5,,197.5,,285,,765,SBD
Tom Fahy,1,Masters 45+,M,Raw,USA-MN,110,107.82,49,225,,165,,260,,650,SBD
Thomas Matlock,1,Masters 60+,M,Raw,USA-AZ,110,108.05,63,190.5,,110,,205,,505.5,SBD
Troy Anderson,1,Masters 45+,M,Raw,USA-MN,125,122.74,46,227.5,,145,,210,,582.5,SBD
Grant Higa,1,Masters 40+,M,Raw,USA-WA,140,138.39,43,322.5,,195,,327.5,,845,SBD
Eldon Smith,1,Masters 50+,M,Raw,USA-GA,140,139.84,51,217.5,,170,,185,,572.5,SBD
Roberto Galvan,1,Masters 40+,M,Raw,USA-WI,140+,166.24,43,260,,180,,282.5,,722.5,SBD
Robert Speno,1,Masters 45+,M,Raw,USA-CA,140+,140.21,45,275,,175,,260,,710,SBD
Calie Chesler,1,Juniors 15-19,F,Raw,USA-TX,60,58.69,17,110.5,,47.5,,122.5,,280.5,SBD
Rylee Hudson,1,Juniors 20-23,F,Raw,USA-ID,67.5,60.96,20,120,,57.5,,127.5,,305,SBD
Katlynn Hudson,2,Juniors 20-23,F,Raw,USA-ID,67.5,67.09,23,105,,62.5,,137.5,,305,SBD
Brooke Gabel,1,Juniors 20-23,F,Raw,USA-TX,75,74.07,23,125,,67.5,,135,,327.5,SBD
Tara Maier,1,Juniors 20-23,F,Raw,USA-AZ,82.5,78.65,20,155,,92.5,,185,,432.5,SBD
Sara Berlin,DQ,Juniors 20-23,F,Raw,USA-FL,90+,128.64,23,170,,-82.5,,,,,SBD
Lisa Rothman,1,Open,F,Raw,USA-FL,48,46.99,39,117.5,,67.5,,147.5,,332.5,SBD
Danielle Columby,1,Open,F,Raw,USA-AZ,52,50.85,30,150,,77.5,,167.5,,395,SBD
Kim Tran #1,2,Open,F,Raw,USA-CA,52,49.12,25,145,,83,,162.5,,390.5,SBD
Mary Huang,3,Open,F,Raw,USA-CA,52,51.17,31,150,,67.5,,142.5,,360,SBD
Krista Bergeron,1,Open,F,Raw,USA-TX,56,55.16,38,115,,67.5,,157.5,,340,SBD
Shelly Antle,2,Open,F,Raw,USA-KS,56,53.89,45,90,,62.5,,132.5,,285,SBD
Andra Irons,DQ,Open,F,Raw,Canada,56,55.57,30,-120,,55,,145,,,SBD
Jessica Belt,1,Open,F,Raw,USA-TX,67.5,66.54,30,155,,85,,185,,425,SBD
Tasha Whelan,2,Open,F,Raw,USA-WA,67.5,62.37,29,125,,75,,157.5,,357.5,SBD
Robyn Pettinger,3,Open,F,Raw,USA-TX,67.5,67.31,33,95,,62.5,,152.5,,310,SBD
Donna Williams,1,Open,F,Raw,USA-KY,75,68.9,40,175,,125,,202.5,,502.5,SBD
Franki Spell,2,Open,F,Raw,USA-TX,75,74.66,35,130,,80,,162.5,,372.5,SBD
Stephanie Stephens,3,Open,F,Raw,USA-NV,75,71.35,34,127.5,,67.5,,150,,345,SBD
Tara Maier,1,Open,F,Raw,USA-AZ,82.5,78.65,20,155,,92.5,,185,,432.5,SBD
Malinda Gustafson,2,Open,F,Raw,USA-AZ,82.5,81.6,35,150,,85,,175,,410,SBD
Sammi Johnson,1,Open,F,Raw,USA-CA,90,87.91,27,162.5,,87.5,,195,,445,SBD
Erin Stanton,1,Open,F,Raw,USA-OR,90+,123.56,26,212.5,,92.5,,187.5,,492.5,SBD
Sara Berlin,DQ,Open,F,Raw,USA-FL,90+,128.64,23,170,,-82.5,,,,,SBD
Shelly Antle,1,Masters 45+,F,Raw,USA-KS,56,53.89,45,90,,62.5,,132.5,,285,SBD
Amy Perry,1,Masters 45+,F,Raw,USA-KS,67.5,64.64,46,82.5,,52.5,,130,,265,SBD
Donna Williams,1,Masters 40+,F,Raw,USA-KY,75,68.9,40,175,,125,,202.5,,502.5,SBD
Derek Mead,1,Juniors 20-23,M,Raw,USA-KS,67.5,63.68,20,182.5,,115,,210,,507.5,SBD
Taras Chavarha,1,Juniors 20-23,M,Raw,USA-CA,75,74.62,23,252.5,,150,,247.5,,650,SBD
Isaac Miller,2,Juniors 20-23,M,Raw,USA-MO,75,74.84,20,217.5,,152.5,,207.5,,577.5,SBD
Ryan Hammons,3,Juniors 20-23,M,Raw,USA-OK,75,74.07,21,197.5,,147.5,,227.5,,572.5,SBD
Rondell Gulley,4,Juniors 20-23,M,Raw,USA-CA,75,73.89,22,192.5,,147.5,,227.5,,567.5,SBD
Josh Nooner,1,Juniors 20-23,M,Raw,USA-OK,82.5,80.78,22,227.5,,155,,260,,642.5,SBD
Matthew Munson,2,Juniors 20-23,M,Raw,USA-KS,82.5,81.92,21,177.5,,130,,247.5,,555,SBD
Carlos Ferreyra,1,Juniors 15-19,M,Raw,USA-CA,90,89.36,18,210,,146,146.5,240,,596,SBD
Adam Ferchen,1,Juniors 20-23,M,Raw,USA-NY,90,89.4,23,257.5,,185,,300,,742.5,SBD
Ruben Ramirez,2,Juniors 20-23,M,Raw,USA-WA,90,88.36,20,240,,135,,242.5,,617.5,SBD
Chase Wingo,DQ,Juniors 15-19,M,Raw,USA-TX,100,95.44,19,262.5,,-157.5,,,,,SBD
Eric Asatryan,1,Juniors 20-23,M,Raw,USA-CA,100,99.65,22,260,,175,,272.5,,707.5,SBD
John Rendon,2,Juniors 20-23,M,Raw,USA-TX,100,94.57,23,242.5,,145,,252.5,,640,SBD
Ryan Mercado,3,Juniors 20-23,M,Raw,USA-TX,100,96.07,21,192.5,,127.5,,230,,550,SBD
Enrique Lugo,1,Juniors 15-19,M,Raw,USA-TX,110,108.32,18,300,,200,205,285,295,785,SBD
Anthony Gonzales,2,Juniors 15-19,M,Raw,USA-OR,110,110,18,277.5,,195,,287.5,,760,SBD
Brandon Escobedo,1,Juniors 20-23,M,Raw,USA-CA,110,106.5,22,295,,192.5,,300,,787.5,SBD
Josh Sanderson,1,Juniors 20-23,M,Raw,USA-AZ,125,122.7,22,302.5,,200,,297.5,,800,SBD
Greg Mahin,1,Juniors 20-23,M,Raw,USA-CA,140,134.99,23,332.5,,217.5,,300,,850,SBD
Slade Murrell,1,Juniors 15-19,M,Raw,USA-OK,140+,156.72,19,272.5,,152.5,,227.5,,652.5,SBD
Josiah Price,1,Open,M,Raw,USA-OR,56,54.98,51,120,,90,,150,,360,SBD
Taras Chavarha,1,Open,M,Raw,USA-CA,75,74.62,23,252.5,,150,,247.5,,650,SBD
Joe Keith,2,Open,M,Raw,USA-MS,75,73.48,32,217.5,,150,,232.5,,600,SBD
Andrew Gooley,3,Open,M,Raw,USA-NY,75,72.17,22,207.5,,122.5,,240,,570,SBD
Vahana Dorcis,4,Open,M,Raw,USA-AZ,75,74.98,31,200,,127.5,,232.5,,560,SBD
Gary Slater,1,Open,M,Raw,USA-CA,82.5,82.1,43,265,,192.5,,250,,707.5,SBD
Scotty Hatlevig,2,Open,M,Raw,USA-AZ,82.5,80.47,40,227.5,,160,,272.5,,660,SBD
Tony Rodgers,3,Open,M,Raw,USA-CA,82.5,82.37,25,242.5,,165,,217.5,,625,SBD
Dan Stephenson,4,Open,M,Raw,USA-WA,82.5,81.01,25,210,,142.5,,232.5,,585,SBD
Matthew Munson,5,Open,M,Raw,USA-KS,82.5,81.92,21,177.5,,130,,247.5,,555,SBD
Channing Doyle,1,Open,M,Raw,USA-CA,90,89.22,27,290,,182.5,,310,,782.5,SBD
Jonathan Pritchard,2,Open,M,Raw,USA-TX,90,88.27,27,292.5,,180,,282.5,,755,SBD
Adam Ferchen,3,Open,M,Raw,USA-NY,90,89.4,23,257.5,,185,,300,,742.5,SBD
Carlos Daniel Llosa,4,Open,M,Raw,Brazil,90,89.22,26,290.5,,162.5,,267.5,,720.5,SBD
Christopher Adgett,5,Open,M,Raw,USA-NV,90,89.58,29,215,,152.5,,235,,602.5,SBD
Bobby Rinehart,DQ,Open,M,Raw,USA-TX,90,87.41,38,240,,155,,-217.5,,,SBD
Steve Barber,1,Open,M,Raw,USA-MO,100,98.47,29,265,,190,,295,,750,SBD
Eric Asatryan,2,Open,M,Raw,USA-CA,100,99.65,22,260,,175,,272.5,,707.5,SBD
Tyler Carpenter,3,Open,M,Raw,USA-OR,100,99.56,20,260,,137.5,,280,,677.5,SBD
Joseph Vespo,4,Open,M,Raw,USA-NV,100,98.97,29,247.5,,127.5,,265,,640,SBD
Shea Kopecky,DQ,Open,M,Raw,USA-UT,100,96.98,24,-275,,,,,,,SBD
Frank Ball,1,Open,M,Raw,USA-KS,110,109.63,29,272.5,,230,,307.5,,810,SBD
Zack McDole,2,Open,M,Raw,USA-NV,110,104.37,30,297.5,,197.5,,297.5,,792.5,SBD
Enrique Lugo,3,Open,M,Raw,USA-TX,110,108.32,18,300,,200,,285,,785,SBD
Jason Ouellet,4,Open,M,Raw,Canada,110,108.64,37,287.5,,177.5,,297.5,,762.5,SBD
Dustin Gates,5,Open,M,Raw,USA-OR,110,109.8,25,265,,197.5,,292.5,,755,SBD
Hugo Quinteiro,6,Open,M,Raw,Brazil,110,107.95,31,250,,177.5,,322.5,,750,SBD
Timothy Sparkes,7,Open,M,Raw,USA-AZ,110,105.23,47,262.5,,137.5,,305,,705,SBD
Freddie Tackett,8,Open,M,Raw,USA-CA,110,108.36,38,267.5,,170,,265,,702.5,SBD
Douglas Myers,9,Open,M,Raw,USA-MO,110,108.95,31,240,,170,,277.5,,687.5,SBD
Cody Capps,DQ,Open,M,Raw,USA-TN,110,101.6,28,237.5,,-160,,,,,SBD
Jon McDonald,1,Open,M,Raw,USA-CO,125,118.66,25,342.5,,237.5,,365,385,945,SBD
Josh Sanderson,2,Open,M,Raw,USA-AZ,125,122.7,22,302.5,,200,,297.5,,800,SBD
Michael Haas,3,Open,M,Raw,USA-CA,125,122.24,28,250,,197.5,,305,,752.5,SBD
Brandon Allen #1,1,Open,M,Raw,USA-NV,140,133.99,26,360,,230,,327.5,,917.5,SBD
Edward McKinnis,2,Open,M,Raw,USA-TX,140,134.58,25,330,,230,,347.5,,907.5,SBD
Greg Mahin,3,Open,M,Raw,USA-CA,140,134.99,23,332.5,,217.5,,300,,850,SBD
Trev Mahoney,4,Open,M,Raw,USA-AZ,140,137.3,46,300,,215,,262.5,,777.5,SBD
Jeremy Clifford,5,Open,M,Raw,USA-UT,140,137.35,30,292.5,,160,,320,,772.5,SBD
Hal Carlson,6,Open,M,Raw,USA-TX,140,126.14,38,275,,200,,287.5,,762.5,SBD
AJ Hesser,1,Open,M,Raw,USA-MO,140+,157.22,26,312.5,,227.5,,332.5,,872.5,SBD
Matt Olsen,2,Open,M,Raw,USA-UT,140+,165.29,25,320,,222.5,,290,,832.5,SBD
Dylan Bartz,3,Open,M,Raw,USA-CA,140,137.98,24,315,,227.5,,282.5,,825,SBD
Josiah Price,1,Masters 50+,M,Raw,USA-OR,60,54.98,51,120,,90,,150,,360,SBD
Joseph McMahan,DQ,Masters 55+,M,Raw,USA-CA,67.5,66.13,55,132.5,,-132.5,,170,,,SBD
David Hudson,1,Masters 50+,M,Raw,USA-ID,75,73.66,53,175,,105,,187.5,,467.5,SBD
Peter Knight,1,Masters 55+,M,Raw,USA-NV,75,73.84,55,125,,80,,180,,385,SBD
Gary Slater,1,Masters 40+,M,Raw,USA-CA,82.5,82.1,43,265,,192.5,,250,,707.5,SBD
Scotty Hatlevig,2,Masters 40+,M,Raw,USA-AZ,82.5,80.47,40,227.5,,160,,272.5,,660,SBD
John Killin,DQ,Masters 65+,M,Raw,USA-CA,82.5,82.19,65,180,,-92.5,,,,,SBD
Nick Shriner,1,Masters 70+,M,Raw,USA-FL,82.5,79.11,71,122.5,,95,,137.5,,355,SBD
Judson Costas,1,Masters 55+,M,Raw,USA-FL,90,89.58,55,190,,120,,210,,520,SBD
Tim Anderson,1,Masters 60+,M,Raw,USA-CA,90,87,60,165,,117.5,,217.5,,500,SBD
Steve Levy,1,Masters 65+,M,Raw,USA-FL,90,88.5,65,155,,108,,215,,478,SBD
Bob Kinsey,1,Masters 70+,M,Raw,USA-CA,90,88.86,72,115,,85,,160,,360,SBD
Kevin Canant,1,Masters 40+,M,Raw,USA-CA,100,96.16,42,227.5,,182.5,,267.5,,677.5,SBD
Greg Baxter,1,Masters 55+,M,Raw,USA-CA,100,97.16,59,240,,130,,255,,625,SBD
Robert Harris,2,Masters 55+,M,Raw,USA-TX,100,99.65,55,195,,142.5,,227.5,,565,SBD
Steven Lillard,1,Masters 65+,M,Raw,USA-MO,100,99.06,67,165,,95,,205,,465,SBD
Bruce MacKenzie,2,Masters 65+,M,Raw,USA-CA,100,92.31,67,142.5,,100,,192.5,,435,SBD
Timothy Sparkes,1,Masters 45+,M,Raw,USA-AZ,110,105.23,47,262.5,,137.5,,305,,705,SBD
Peter Weatherall,2,Masters 45+,M,Raw,Australia,110,104.69,45,65,,177.5,,65,,307.5,SBD
Steve Rankin,1,Masters 55+,M,Raw,USA-CA,110,106.91,56,237.5,,175,,237.5,,650,SBD
Mark Busby,1,Masters 55+,M,Raw,USA-CA,125,122.65,55,167.5,,152.5,,182.5,,502.5,SBD
Trev Mahoney,1,Masters 45+,M,Raw,USA-AZ,140,137.3,46,300,,215,,262.5,,777.5,SBD
Kristina Kanemoto,1,Juniors 20-23,F,Single-ply,USA-CA,56,55.11,22,130,,62.5,,137.5,,330,SBD
Kristina Kanemoto,1,Open,F,Single-ply,USA-CA,56,55.11,22,130,,62.5,,137.5,,330,SBD
Karen Trim,1,Masters 50+,F,Single-ply,USA-CA,67.5,65.09,53,145,,88,,175,,408,SBD
Karen Parnow,DQ,Masters 55+,F,Single-ply,USA-CA,67.5,65.73,56,115,,-77.5,,,,,SBD
Betsy Spann,1,Masters 55+,F,Single-ply,USA-CA,82.5,76.16,57,120,,85,,155,,360,SBD
Karin Lax,1,Masters 60+,F,Single-ply,USA-NM,90,87.77,63,85,,40,,127.5,,252.5,SBD
Gabriel Valdez,1,Juniors 15-19,M,Single-ply,USA-AZ,110,108.59,17,272.5,,220,,280,,772.5,SBD
Ian Murphy,1,Juniors 20-23,M,Single-ply,USA-CA,110,106.96,23,250,,182.5,,275,,707.5,SBD
Nicholas Pastorello,DQ,Juniors 15-19,M,Single-ply,USA-NV,125,117.93,17,245,,-195,,,,,SBD
Gary Hunter #1,1,Open,M,Single-ply,USA-TX,60,59.74,27,175,,110,,210,,495,SBD
Jason Cook #1,1,Open,M,Single-ply,Canada,90,88.9,31,287.5,,185,,300,,772.5,SBD
Zach Pfannenstiel,2,Open,M,Single-ply,USA-CA,90,88.95,27,247.5,,227.5,,280,,755,SBD
Keith Kanemoto,3,Open,M,Single-ply,USA-CA,90,86.41,55,277.5,,200,,250,,727.5,SBD
Rinaldo Visser,1,Open,M,Single-ply,Netherlands,100,95.39,32,295,,215,,302.5,,812.5,SBD
Ryan Girard,2,Open,M,Single-ply,USA-OR,100,99.61,39,260,,260,,260,,780,SBD
Chris Ray,3,Open,M,Single-ply,USA-ID,100,95.8,40,265,,167.5,,275,,707.5,SBD
Andreas Gallagher,1,Open,M,Single-ply,USA-NV,110,109.91,33,337.5,,317.5,,300,,955,SBD
Gabriel Valdez,2,Open,M,Single-ply,USA-AZ,110,108.59,17,272.5,,220,,280,,772.5,SBD
Anthony Bland,DQ,Open,M,Single-ply,USA-MO,110,110,26,-320,,,,,,,SBD
Jake Jensen,DQ,Open,M,Single-ply,USA-UT,110,108.54,25,-282.5,,,,,,,SBD
Kamuela Wassman,1,Open,M,Single-ply,USA-HI,125,124.51,26,295,,215,,305,,815,SBD
Mike Overkamp,2,Open,M,Single-ply,Netherlands,125,118.48,28,285,,170,,290,,745,SBD
Nicholas Pastorello,DQ,Open,M,Single-ply,USA-NV,125,117.93,17,245,,-195,,,,,SBD
Scott Richey,1,Masters 55+,M,Single-ply,USA-NV,60,59.92,57,157.5,,110,,170,,437.5,SBD
Tom Miller #1,1,Masters 70+,M,Single-ply,USA-CA,75,74.16,73,137.5,,80.5,,120,,338,SBD
Marchand Fleming,1,Masters 40+,M,Single-ply,USA-OK,82.5,81.37,44,265,,170,,272.5,,707.5,SBD
Bryan Johnson,2,Masters 40+,M,Single-ply,USA-TX,82.5,80.38,42,237.5,,167.5,,237.5,,642.5,SBD
Joe Walden,1,Masters 55+,M,Single-ply,USA-KS,82.5,79.02,58,212.5,,105,,217.5,,535,SBD
Arthur Fu,1,Masters 60+,M,Single-ply,USA-CA,82.5,81.06,62,195,,150,,230,,575,SBD
Keith Kanemoto,1,Masters 55+,M,Single-ply,USA-CA,90,86.41,55,277.5,,200,,250,,727.5,SBD
Chris Ray,1,Masters 40+,M,Single-ply,USA-ID,100,95.8,40,265,,167.5,,275,,707.5,SBD
George Pessell,1,Masters 55+,M,Single-ply,USA-CA,100,98.84,55,295,,210,217.5,285,,790,SBD
Roy Eriksen,1,Masters 70+,M,Single-ply,USA-NV,100,96.07,71,195,,155,,195,,545,SBD
Jerry Tremblay,1,Masters 50+,M,Single-ply,USA-CA,110,109.36,51,290,,182.5,,272.5,,745,SBD
Delbert Shay,2,Masters 50+,M,Single-ply,USA-OR,110,105.78,52,212.5,,147.5,,220,,580,SBD
Ron Pagal,1,Masters 65+,M,Single-ply,USA-CA,110,103.37,68,210,,157.5,,192.5,,560,SBD
Philip DeLa Rosa,1,Masters 50+,M,Single-ply,USA-TX,125,119.43,52,272.5,,232.5,,237.5,,742.5,SBD
Tony Tomra,DQ,Masters 50+,M,Single-ply,Canada,125,113.49,52,-255,,,,,,,SBD
Bradina Anae,1,Juniors 15-19,F,Raw,USA-HI,90+,161.66,14,,,130,,,,130,B
Marilia Coutinho,1,Open,F,Raw,Brazil,56,54.75,51,,,105,,,,105,B
Nicki I'Anson,1,Open,F,Raw,USA-CA,82.5,81.65,48,,,110,,,,110,B
Ginger Burton,1,Masters 40-44,F,Raw,USA-IA,52,51.57,42,,,85,,,,85,B
Marilia Coutinho,1,Masters 50+,F,Raw,Brazil,56,54.75,51,,,105,,,,105,B
Nicki I'Anson,1,Masters 45+,F,Raw,USA-CA,82.5,81.65,48,,,110,,,,110,B
Gloria Derfus,1,Masters 55+,F,Raw,USA-MN,90+,152.23,59,,,70,,,,70,B
Brandon Della Maggiora,1,Juniors 20-23,M,Raw,USA-CA,67.5,66.77,20,,,117.5,,,,117.5,B
Hunter Fick,1,Juniors 15-19,M,Raw,USA-MN,90,88.45,18,,,170,,,,170,B
Brice Meier,DQ,Juniors 20-23,M,Raw,USA-KS,100,97.07,23,,,-160,,,,,B
Austin Dorer,1,Juniors 15-19,M,Raw,USA-CA,110,107.27,19,,,170,,,,170,B
Henry Andrade,1,Juniors 20-23,M,Raw,USA-CA,125,122.65,22,,,205,,,,205,B
Luke McAfee,DQ,Juniors 20-23,M,Raw,USA-WA,125,119.48,20,,,-175,,,,,B
Jason Vicente,1,Open,M,Raw,USA-CA,67.5,65,30,,,125,,,,125,B
Branden Ha,1,Open,M,Raw,USA-HI,75,72.71,37,,,187.5,192.5,,,187.5,B
Charlie Martin,2,Open,M,Raw,USA-CA,75,73.8,59,,,132.5,,,,132.5,B
Raymond Horton,3,Open,M,Raw,USA-CA,75,73.8,27,,,130,,,,130,B
David Bassett,1,Open,M,Raw,USA-IL,82.5,81.28,41,,,175,175.5,,,175,B
Chris Williams #1,2,Open,M,Raw,USA-UT,82.5,81.74,55,,,125,,,,125,B
Dan Dudgeon,1,Open,M,Raw,USA-CA,90,89.13,39,,,200,,,,200,B
Stanley Hobbs,2,Open,M,Raw,USA-AR,90,88.95,44,,,185,,,,185,B
Hunter Fick,3,Open,M,Raw,USA-MN,90,88.45,18,,,170,,,,170,B
John Komorosky,4,Open,M,Raw,USA-CA,90,87.68,25,,,165,,,,165,B
Daniel Melgoza,5,Open,M,Raw,USA-CA,90,87.86,38,,,145,,,,145,B
Stacy Dedrick,1,Open,M,Raw,USA-CA,100,97.61,49,,,200,,,,200,B
Eric Cranage,2,Open,M,Raw,USA-CA,100,97.16,30,,,185,,,,185,B
Matt Holder,DQ,Open,M,Raw,USA-TN,100,99.74,32,,,-195,,,,,B
Sean Seligman,1,Open,M,Raw,USA-AR,110,107,51,,,192.5,,,,192.5,B
John King,2,Open,M,Raw,USA-WY,110,100.52,43,,,182.5,,,,182.5,B
Carlos Rojas,1,Open,M,Raw,USA-NE,125,118.3,42,,,237.5,,,,237.5,B
Alan Aerts,2,Open,M,Raw,USA-NV,125,124.24,58,,,177.5,,,,177.5,B
David Britt,1,Open,M,Raw,USA-CA,140,137.03,60,,,182.5,,,,182.5,B
Gordon Santee,1,Masters 65+,M,Raw,USA-CA,60,59.69,68,,,77.5,,,,77.5,B
Jim Merlino,1,Masters 75+,M,Raw,USA-CA,67.5,67.13,76,,,85,,,,85,B
Charlie Martin,1,Masters 55+,M,Raw,USA-CA,75,73.8,59,,,132.5,,,,132.5,B
Rick Gutman,1,Masters 60+,M,Raw,USA-CA,75,73.94,60,,,115,,,,115,B
Ron Scott,1,Masters 65+,M,Raw,USA-CA,75,73.48,68,,,70,,,,70,B
David Bassett,1,Masters 40+,M,Raw,USA-IL,82.5,81.28,41,,,175,175.5,,,175,B
Doug Clayton,1,Masters 55+,M,Raw,USA-WY,82.5,81.56,57,,,135,,,,135,B
Chris Williams #1,2,Masters 55+,M,Raw,USA-UT,82.5,81.74,55,,,125,,,,125,B
David Bultman,1,Masters 65+,M,Raw,USA-CA,82.5,81.28,69,,,127.5,132.5,,,127.5,B
Stanley Hobbs,1,Masters 40+,M,Raw,USA-AR,90,88.95,44,,,185,,,,185,B
Jason Smith,2,Masters 40+,M,Raw,USA-OK,90,89.77,44,,,150,,,,150,B
Phil Beniston,1,Masters 50+,M,Raw,GreatBritain,90,89.13,51,,,167.5,,,,167.5,B
Bob Rudge,1,Masters 70+,M,Raw,USA-CA,90,86.73,72,,,152.5,,,,152.5,B
Stacy Dedrick,1,Masters 45+,M,Raw,USA-CA,100,97.61,49,,,200,,,,200,B
Russell Richter,1,Masters 50+,M,Raw,USA-TX,100,98.75,50,,,177.5,,,,177.5,B
Howie Chaves,1,Masters 60+,M,Raw,USA-WA,100,98.38,64,,,162.5,,,,162.5,B
John King,1,Masters 40+,M,Raw,USA-WY,110,100.52,43,,,182.5,,,,182.5,B
Peter Weatherall,1,Masters 45+,M,Raw,Australia,110,102.78,45,,,177.5,,,,177.5,B
Sean Seligman,1,Masters 50+,M,Raw,USA-AR,110,107,51,,,192.5,,,,192.5,B
Wayne Jandoc,1,Masters 55+,M,Raw,USA-CA,110,107.5,57,,,147.5,,,,147.5,B
Carlos Rojas,1,Masters 40+,M,Raw,USA-NE,125,118.3,42,,,237.5,,,,237.5,B
Marvin Rodenbeck,1,Masters 50+,M,Raw,USA-MT,125,122.97,51,,,185,,,,185,B
Alan Aerts,1,Masters 55+,M,Raw,USA-NV,125,124.24,58,,,177.5,,,,177.5,B
Gerry Torres,2,Masters 55+,M,Raw,USA-CA,125,123.06,57,,,155,,,,155,B
David Britt,1,Masters 60+,M,Raw,USA-CA,140,137.03,60,,,182.5,,,,182.5,B
Tsunehiko Yagi,1,Open,M,Single-ply,Japan,75,73.75,35,,,157.5,,,,157.5,B
Charlie Martin,DQ,Open,M,Single-ply,USA-CA,75,73.8,59,,,-152.5,,,,,B
Dan Dudgeon,1,Open,M,Single-ply,USA-CA,90,89.13,39,,,275,,,,275,B
Stacy Dedrick,1,Open,M,Single-ply,USA-CA,100,97.61,49,,,217.5,,,,217.5,B
David McCoskey,1,Open,M,Single-ply,USA-MO,110,109.32,53,,,125,,,,125,B
Alan Aerts,1,Open,M,Single-ply,USA-NV,125,124.24,58,,,207.5,,,,207.5,B
Glenn Russo,1,Open,M,Single-ply,USA-AZ,140,137.44,39,,,340,,,,340,B
Charlie Martin,DQ,Masters 55+,M,Single-ply,USA-CA,75,73.8,59,,,-152.5,,,,,B
Keith Daniels,1,Masters 45+,M,Single-ply,USA-HI,82.5,80.83,47,,,182.5,,,,182.5,B
Phil Beniston,1,Masters 50+,M,Single-ply,GreatBritain,90,89.13,51,,,195,,,,195,B
Stacy Dedrick,1,Masters 45+,M,Single-ply,USA-CA,100,97.61,49,,,217.5,,,,217.5,B
Joe Bernazzani,1,Masters 60+,M,Single-ply,USA-CA,100,99.38,63,,,175,,,,175,B
Daniel Hudson,DQ,Masters 65+,M,Single-ply,USA-CA,100,94.44,65,,,-152.5,,,,,B
David McCoskey,1,Masters 50+,M,Single-ply,USA-MO,110,109.32,53,,,125,,,,125,B
Wayne Jandoc,1,Masters 55+,M,Single-ply,USA-CA,110,107.5,57,,,222.5,,,,222.5,B
Mike Mancias,1,Masters 45+,M,Single-ply,USA-TX,125,120.11,45,,,250,,,,250,B
Alan Aerts,1,Masters 55+,M,Single-ply,USA-NV,125,124.24,58,,,207.5,,,,207.5,B
Dan Stephens,DQ,Masters 40+,M,Single-ply,USA-NV,140+,194.32,43,,,-205,,,,,B
Michael Bingham,DQ,Open,M,Multi-ply,USA-PA,82.5,81.47,49,,,-282.5,,,,,B
Luke McCoskey,1,Open,M,Multi-ply,USA-MO,125,120.56,24,,,182.5,,,,182.5,B
Michael Bingham,DQ,Masters 45+,M,Multi-ply,USA-PA,82.5,81.47,49,,,-282.5,,,,,B
Aaron Rubin,DQ,Masters 40+,M,Multi-ply,Canada,100,96.16,40,,,-225,,,,,B
Asia Littlefield,1,Juniors 15-19,F,Raw,USA-NV,67.5,65.95,16,,,,,112.5,,112.5,D
Bradina Anae,1,Juniors 15-19,F,Raw,USA-HI,90+,161.66,15,,,,,197.5,,197.5,D
Amanda Jahnke,1,Open,F,Raw,USA-CA,56,54.88,30,,,,,132.5,,132.5,D
Blanca Rios,1,Open,F,Raw,USA-TX,60,59.15,41,,,,,130,,130,D
Michelina Bajjada,2,Open,F,Raw,Australia,60,59.38,39,,,,,125,,125,D
Nicki I'Anson,1,Open,F,Raw,USA-CA,82.5,81.65,48,,,,,195,197.5,195,D
Bonnie Aerts,1,Masters 55+,F,Raw,USA-NV,56,54.3,56,,,,,105,,105,D
Blanca Rios,1,Masters 40+,F,Raw,USA-TX,60,59.15,41,,,,,130,,130,D
Maggie Haywood,1,Masters 70+,F,Raw,USA-CA,60,58.42,70,,,,,82.5,,82.5,D
Nicki I'Anson,1,Masters 45+,F,Raw,USA-CA,82.5,81.65,48,,,,,195,197.5,195,D
Lil Stewart,1,Masters 70+,F,Raw,USA-CA,82.5,79.74,71,,,,,102.5,108,102.5,D
Matt Scroggin,1,Juniors 20-23,M,Raw,USA-AZ,82.5,82.24,21,,,,,255,,255,D
Andrew Knapik,1,Juniors 15-19,M,Raw,USA-NV,90,89.99,16,,,,,182.5,,182.5,D
Atom Cook,1,Juniors 20-23,M,Raw,USA-AZ,90,89.72,21,,,,,272.5,,272.5,D
Carson Ebke,1,Juniors 20-23,M,Raw,USA-CO,125,119.02,23,,,,,272.5,,272.5,D
Raymond Horton,1,Open,M,Raw,USA-CA,75,73.8,27,,,,,205,,205,D
Troy Kineshita,1,Open,M,Raw,USA-CO,82.5,80.2,28,,,,,247.5,,247.5,D
Atom Cook,1,Open,M,Raw,USA-AZ,90,89.72,21,,,,,272.5,,272.5,D
Phil Beniston,2,Open,M,Raw,GreatBritain,90,89.13,51,,,,,260,,260,D
Daniel Zarrella,DQ,Open,M,Raw,USA-NV,100,99.97,32,,,,,-257.5,,,D
Robert Kamman,1,Open,M,Raw,USA-TX,125,112.67,47,,,,,282.5,,282.5,D
Lance Ross,1,Open,M,Raw,USA-TX,140,134.22,51,,,,,357.5,,357.5,D
Gordon Santee,1,Masters 65+,M,Raw,USA-CA,60,59.69,68,,,,,117.5,,117.5,D
Martin Montgomery,1,Masters 70+,M,Raw,USA-IN,75,74.89,71,,,,,195,,195,D
Doug Clayton,1,Masters 55+,M,Raw,USA-WY,82.5,81.56,57,,,,,205,,205,D
Jason Smith,1,Masters 40+,M,Raw,USA-OK,90,89.77,44,,,,,278,,278,D
Phil Beniston,1,Masters 50+,M,Raw,GreatBritain,90,89.13,51,,,,,260,,260,D
Bill Starbuck,1,Masters 65+,M,Raw,USA-CA,90,89.9,66,,,,,165,,165,D
Karl Davenport,1,Masters 45+,M,Raw,USA-CA,110,109.81,49,,,,,212.5,,212.5,D
Robert Kamman,1,Masters 45+,M,Raw,USA-TX,125,112.67,47,,,,,282.5,,282.5,D
Bruce Koch,1,Masters 50+,M,Raw,USA-TX,125,121.06,52,,,,,287.5,,287.5,D
Gerry Torres,1,Masters 55+,M,Raw,USA-CA,125,123.06,57,,,,,197.5,,197.5,D
Lance Ross,1,Masters 50+,M,Raw,USA-TX,140,134.22,51,,,,,357.5,,357.5,D
Dave Dallmeyer,1,Masters 65+,M,Raw,USA-CA,140,139.53,65,,,,,215,,215,D
Carlos Gonzalez,1,Masters 45+,M,Raw,USA-FL,140+,162.39,47,,,,,250,,250,D
Betsy Spann,1,Masters 55+,F,Single-ply,USA-CA,82.5,75.21,57,,,,,152.5,,152.5,D
Gary Hunter #1,1,Open,M,Single-ply,USA-TX,60,59.33,27,,,,,217.5,,217.5,D
Kevin Boone,1,Open,M,Single-ply,USA-MS,90,84.73,43,,,,,232.5,,232.5,D
JR Mancini,1,Open,M,Single-ply,USA-NV,100,99.47,36,,,,,317.5,,317.5,D
Ron Scott,1,Masters 65+,M,Single-ply,USA-CA,75,73.48,68,,,,,205,,205,D
Alton Ticer,1,Masters 65+,M,Single-ply,USA-CA,82.5,81.15,68,,,,,192.5,,192.5,D
Roy Taylor,1,Masters 70+,M,Single-ply,USA-CA,82.5,78.29,74,,,,,185,,185,D
Stan Miyahira,1,Masters 75+,M,Single-ply,USA-NV,82.5,81.47,76,,,,,150,,150,D
Kevin Boone,1,Masters 40+,M,Single-ply,USA-MS,90,84.73,43,,,,,232.5,,232.5,D
Warren Fahrenfeld,1,Masters 45+,M,Single-ply,USA-NJ,90,85.41,47,,,,,272.5,,272.5,D
Kevin Fisher,1,Masters 55+,M,Single-ply,USA-CA,100,97.89,59,,,,,280,,280,D
Betsy Spann,1,Masters 55+,F,Multi-ply,USA-CA,82.5,75.21,57,,,,,152.5,,152.5,D
Eric Welch,1,Open,M,Multi-ply,USA-NV,140,137.71,52,,,,,282.5,,282.5,D
Eric Welch,1,Masters 50+,M,Multi-ply,USA-NV,140,137.71,52,,,,,282.5,,282.5,D
